<?xml version="1.0" encoding="utf-8"?>
<COLLADA xmlns="http://www.collada.org/2005/11/COLLADASchema" version="1.4.1" xmlns:xsi="http://www.w3.org/2001/XMLSchema-instance">
  <asset>
    <contributor>
      <author>Blender User</author>
      <authoring_tool>Blender 2.79.0 commit date:2018-03-22, commit time:14:10, hash:f4dc9f9d68b</authoring_tool>
    </contributor>
    <created>2019-06-21T16:26:03</created>
    <modified>2019-06-21T16:26:03</modified>
    <unit name="meter" meter="1"/>
    <up_axis>Z_UP</up_axis>
  </asset>
  <library_cameras>
    <camera id="Camera-camera" name="Camera">
      <optics>
        <technique_common>
          <perspective>
            <xfov sid="xfov">49.13434</xfov>
            <aspect_ratio>1.777778</aspect_ratio>
            <znear sid="znear">0.1</znear>
            <zfar sid="zfar">100</zfar>
          </perspective>
        </technique_common>
      </optics>
      <extra>
        <technique profile="blender">
          <shiftx sid="shiftx" type="float">0</shiftx>
          <shifty sid="shifty" type="float">0</shifty>
          <YF_dofdist sid="YF_dofdist" type="float">0</YF_dofdist>
        </technique>
      </extra>
    </camera>
  </library_cameras>
  <library_lights>
    <light id="Lamp-light" name="Lamp">
      <technique_common>
        <point>
          <color sid="color">1 1 1</color>
          <constant_attenuation>1</constant_attenuation>
          <linear_attenuation>0</linear_attenuation>
          <quadratic_attenuation>0.00111109</quadratic_attenuation>
        </point>
      </technique_common>
      <extra>
        <technique profile="blender">
          <type sid="type" type="int">0</type>
          <flag sid="flag" type="int">0</flag>
          <mode sid="mode" type="int">8192</mode>
          <gamma sid="blender_gamma" type="float">1</gamma>
          <red sid="red" type="float">1</red>
          <green sid="green" type="float">1</green>
          <blue sid="blue" type="float">1</blue>
          <shadow_r sid="blender_shadow_r" type="float">0</shadow_r>
          <shadow_g sid="blender_shadow_g" type="float">0</shadow_g>
          <shadow_b sid="blender_shadow_b" type="float">0</shadow_b>
          <energy sid="blender_energy" type="float">1</energy>
          <dist sid="blender_dist" type="float">29.99998</dist>
          <spotsize sid="spotsize" type="float">75</spotsize>
          <spotblend sid="spotblend" type="float">0.15</spotblend>
          <halo_intensity sid="blnder_halo_intensity" type="float">1</halo_intensity>
          <att1 sid="att1" type="float">0</att1>
          <att2 sid="att2" type="float">1</att2>
          <falloff_type sid="falloff_type" type="int">2</falloff_type>
          <clipsta sid="clipsta" type="float">1.000799</clipsta>
          <clipend sid="clipend" type="float">30.002</clipend>
          <bias sid="bias" type="float">1</bias>
          <soft sid="soft" type="float">3</soft>
          <compressthresh sid="compressthresh" type="float">0.04999995</compressthresh>
          <bufsize sid="bufsize" type="int">2880</bufsize>
          <samp sid="samp" type="int">3</samp>
          <buffers sid="buffers" type="int">1</buffers>
          <filtertype sid="filtertype" type="int">0</filtertype>
          <bufflag sid="bufflag" type="int">0</bufflag>
          <buftype sid="buftype" type="int">2</buftype>
          <ray_samp sid="ray_samp" type="int">1</ray_samp>
          <ray_sampy sid="ray_sampy" type="int">1</ray_sampy>
          <ray_sampz sid="ray_sampz" type="int">1</ray_sampz>
          <ray_samp_type sid="ray_samp_type" type="int">0</ray_samp_type>
          <area_shape sid="area_shape" type="int">1</area_shape>
          <area_size sid="area_size" type="float">0.1</area_size>
          <area_sizey sid="area_sizey" type="float">0.1</area_sizey>
          <area_sizez sid="area_sizez" type="float">1</area_sizez>
          <adapt_thresh sid="adapt_thresh" type="float">0.000999987</adapt_thresh>
          <ray_samp_method sid="ray_samp_method" type="int">1</ray_samp_method>
          <shadhalostep sid="shadhalostep" type="int">0</shadhalostep>
          <sun_effect_type sid="sun_effect_type" type="int">0</sun_effect_type>
          <skyblendtype sid="skyblendtype" type="int">1</skyblendtype>
          <horizon_brightness sid="horizon_brightness" type="float">1</horizon_brightness>
          <spread sid="spread" type="float">1</spread>
          <sun_brightness sid="sun_brightness" type="float">1</sun_brightness>
          <sun_size sid="sun_size" type="float">1</sun_size>
          <backscattered_light sid="backscattered_light" type="float">1</backscattered_light>
          <sun_intensity sid="sun_intensity" type="float">1</sun_intensity>
          <atm_turbidity sid="atm_turbidity" type="float">2</atm_turbidity>
          <atm_extinction_factor sid="atm_extinction_factor" type="float">1</atm_extinction_factor>
          <atm_distance_factor sid="atm_distance_factor" type="float">1</atm_distance_factor>
          <skyblendfac sid="skyblendfac" type="float">1</skyblendfac>
          <sky_exposure sid="sky_exposure" type="float">1</sky_exposure>
          <sky_colorspace sid="sky_colorspace" type="int">0</sky_colorspace>
        </technique>
      </extra>
    </light>
  </library_lights>
  <library_images/>
  <library_effects>
    <effect id="black-effect">
      <profile_COMMON>
        <technique sid="common">
          <phong>
            <emission>
              <color sid="emission">0 0 0 1</color>
            </emission>
            <ambient>
              <color sid="ambient">0.1 0.1 0.1 1</color>
            </ambient>
            <diffuse>
              <color sid="diffuse">0.1 0.1 0.1 1</color>
            </diffuse>
            <specular>
              <color sid="specular">0.01 0.01 0.01 1</color>
            </specular>
            <shininess>
              <float sid="shininess">50</float>
            </shininess>
            <index_of_refraction>
              <float sid="index_of_refraction">1</float>
            </index_of_refraction>
          </phong>
        </technique>
      </profile_COMMON>
    </effect>
    <effect id="blue-effect">
      <profile_COMMON>
        <technique sid="common">
          <phong>
            <emission>
              <color sid="emission">0 0 0 1</color>
            </emission>
            <ambient>
              <color sid="ambient">0.51 0.76 0.90 1</color>
            </ambient>
            <diffuse>
              <color sid="diffuse">0.51 0.76 0.90 1</color>
            </diffuse>
            <specular>
              <color sid="specular">0.1 0.1 0.1 1</color>
            </specular>
            <shininess>
              <float sid="shininess">50</float>
            </shininess>
            <index_of_refraction>
              <float sid="index_of_refraction">1</float>
            </index_of_refraction>
          </phong>
        </technique>
      </profile_COMMON>
    </effect>
    <effect id="grey-effect">
      <profile_COMMON>
        <technique sid="common">
          <phong>
            <emission>
              <color sid="emission">0 0 0 1</color>
            </emission>
            <ambient>
              <color sid="ambient">0.54 0.54 0.54 1</color>
            </ambient>
            <diffuse>
              <color sid="diffuse">0.54 0.54 0.54 1</color>
            </diffuse>
            <specular>
              <color sid="specular">0.01 0.01 0.01 1</color>
            </specular>
            <shininess>
              <float sid="shininess">50</float>
            </shininess>
            <index_of_refraction>
              <float sid="index_of_refraction">1</float>
            </index_of_refraction>
          </phong>
        </technique>
      </profile_COMMON>
    </effect>
  </library_effects>
  <library_materials>
    <material id="black-material" name="black">
      <instance_effect url="#black-effect"/>
    </material>
    <material id="blue-material" name="blue">
      <instance_effect url="#blue-effect"/>
    </material>
    <material id="grey-material" name="grey">
      <instance_effect url="#grey-effect"/>
    </material>
  </library_materials>
  <library_geometries>
    <geometry id="Link5_Black-mesh" name="Link5 Black">
      <mesh>
        <source id="Link5_Black-mesh-positions">
          <float_array id="Link5_Black-mesh-positions-array" count="198">-0.1121881 1.88683e-4 0.6571113 -0.08048653 -0.001885831 0.6571112 -0.08069097 0.004338622 0.6571112 -0.08048653 -0.001885831 0.6513092 -0.1121881 1.88682e-4 0.6513094 -0.08069097 0.004338622 0.6513092 -0.08210575 0.01040369 0.6571112 -0.08210575 0.01040369 0.6513092 -0.08467662 0.01607614 0.6571112 -0.08467662 0.01607614 0.6513092 -0.08830475 0.02113807 0.6571112 -0.08830475 0.02113807 0.6513092 -0.09285068 0.02539491 0.6571112 -0.09285068 0.02539491 0.6513092 -0.09813976 0.02868312 0.6571112 -0.09813976 0.02868312 0.6513093 -0.1039687 0.03087627 0.6571112 -0.1039687 0.03087627 0.6513092 -0.1101135 0.03189015 0.6571113 -0.1101135 0.03189015 0.6513092 -0.116338 0.03168576 0.6571114 -0.116338 0.03168576 0.6513093 -0.122403 0.03027093 0.6571114 -0.1224031 0.03027093 0.6513093 -0.1280755 0.02770006 0.6571114 -0.1280755 0.02770006 0.6513093 -0.1331375 0.02407193 0.6571114 -0.1331375 0.02407193 0.6513093 -0.1373943 0.019526 0.6571114 -0.1373943 0.019526 0.6513093 -0.1406825 0.01423692 0.6571114 -0.1406825 0.01423692 0.6513093 -0.1428757 0.00840795 0.6571114 -0.1428757 0.00840801 0.6513093 -0.1438896 0.002263188 0.6571114 -0.1438896 0.002263188 0.6513093 -0.1436852 -0.003961265 0.6571114 -0.1436852 -0.003961265 0.6513093 -0.1422703 -0.01002633 0.6571114 -0.1422703 -0.01002633 0.6513093 -0.1396994 -0.01569879 0.6571114 -0.1396994 -0.01569879 0.6513093 -0.1360713 -0.02076077 0.6571114 -0.1360713 -0.02076077 0.6513093 -0.1315253 -0.02501761 0.6571114 -0.1315253 -0.02501761 0.6513093 -0.1262363 -0.02830582 0.6571113 -0.1262363 -0.02830582 0.6513094 -0.1204074 -0.03049898 0.6571113 -0.1204074 -0.03049898 0.6513094 -0.1142626 -0.03151279 0.6571113 -0.1142626 -0.03151279 0.6513093 -0.1080381 -0.03130841 0.6571112 -0.1080381 -0.03130841 0.6513092 -0.101973 -0.02989357 0.6571112 -0.101973 -0.02989357 0.6513092 -0.09630054 -0.0273227 0.6571112 -0.09630054 -0.0273227 0.6513092 -0.09123855 -0.02369457 0.6571112 -0.09123855 -0.02369457 0.6513092 -0.08698171 -0.01914864 0.6571112 -0.08698171 -0.01914864 0.6513092 -0.08369356 -0.01385957 0.6571112 -0.08369356 -0.01385957 0.6513092 -0.08150035 -0.008030652 0.6571112 -0.08150035 -0.008030593 0.6513092</float_array>
          <technique_common>
            <accessor source="#Link5_Black-mesh-positions-array" count="66" stride="3">
              <param name="X" type="float"/>
              <param name="Y" type="float"/>
              <param name="Z" type="float"/>
            </accessor>
          </technique_common>
        </source>
        <source id="Link5_Black-mesh-normals">
          <float_array id="Link5_Black-mesh-normals-array" count="384">4.72986e-6 0 1 -4.72988e-6 -1.85645e-7 -1 0.9994612 0.03282147 0 0.9994612 0.03282308 0 4.72987e-6 4.28282e-7 1 -4.72986e-6 -1.28484e-6 -1 0.9738544 0.227173 -5.0339e-7 0.9738552 0.2271701 0 4.72987e-6 7.78232e-7 1 0 -2.3347e-6 -1 0.9108216 0.4128002 0 0.910821 0.4128015 0 -2.36493e-6 1.09828e-6 1 0 -3.29483e-6 -1 0.8127875 0.5825604 0 0.8127821 0.5825679 0 9.45974e-6 1.3761e-6 1 0 -4.12831e-6 -1 0.6835146 0.7299368 0 0.6835199 0.729932 -4.02717e-7 -1.41896e-5 1.60106e-6 1 -3.78388e-5 6.90404e-6 -1 0.5279776 0.8492584 -8.05433e-7 0.5279826 0.8492553 0 4.72987e-6 1.76449e-6 1 3.78389e-5 -1.02696e-5 -1 0.3521429 0.9359464 0 0.3521556 0.9359415 0 9.45975e-6 -6.27988e-7 1 0 -5.58031e-6 -1 0.162798 0.9866595 0 0.1627959 0.9866598 0 -1.25637e-5 -6.27987e-7 1 -1.89194e-5 -5.0247e-6 -1 -0.03282266 0.9994612 0 -0.03281992 0.9994613 3.84742e-6 1.7737e-5 -1.83596e-6 1 -1.89194e-5 -3.67191e-6 -1 -0.2271723 0.9738547 3.22171e-6 -0.2271815 0.9738525 2.01664e-6 -1.53721e-5 -1.71713e-6 1 0 -3.43425e-6 -1 -0.4127978 0.9108228 2.41628e-6 -0.412804 0.9108199 0 9.4597e-6 -1.53231e-6 1 9.45973e-6 -3.0646e-6 -1 -0.5825595 0.8127881 -8.05423e-7 -0.5825704 0.8127803 -4.59142e-6 4.72987e-6 -1.2886e-6 1 0 -2.57721e-6 -1 -0.7299305 0.6835214 -6.44348e-6 -0.7299358 0.6835158 -1.20813e-6 -2.36493e-6 -9.95368e-7 1 9.45973e-6 -1.99074e-6 -1 -0.8492549 0.527983 -1.00678e-6 -0.8492589 0.5279767 -2.01356e-7 9.45972e-6 -6.63892e-7 1 0 -1.3278e-6 -1 -0.9359415 0.3521556 -2.01359e-7 -0.9359439 0.3521494 3.33457e-6 0 -3.06912e-7 1 0 -6.13822e-7 -1 -0.9866605 0.1627917 2.96999e-6 -0.9866598 0.1627959 5.17682e-6 4.72986e-6 0 1 2.36493e-6 1.23775e-7 -1 -0.9994612 -0.03282308 5.11262e-6 -0.9994613 -0.03282248 0 9.45972e-6 4.28286e-7 1 9.45972e-6 8.56573e-7 -1 -0.973852 -0.2271834 0 -0.9738534 -0.2271777 0 -2.36493e-6 7.78229e-7 1 0 1.55646e-6 -1 -0.9108192 -0.4128056 0 -0.9108226 -0.412798 0 7.09479e-6 1.09828e-6 1 9.45971e-6 2.19655e-6 -1 -0.8127801 -0.5825708 0 -0.8127917 -0.5825547 3.83299e-6 4.72986e-6 1.37611e-6 1 0 2.75222e-6 -1 -0.6835114 -0.7299399 2.81902e-6 -0.683524 -0.7299281 -4.02707e-7 -9.45972e-6 -4.25257e-6 1 1.89194e-5 -8.50514e-6 -1 -0.5279761 -0.8492593 -1.61086e-6 -0.5279862 -0.8492529 0 1.41896e-5 0 1 0 0 -1 -0.3521507 -0.9359434 0 -0.3521507 -0.9359434 -4.95742e-7 0 0 1 -1.89194e-5 4.97617e-6 -1 -0.1627911 -0.9866607 8.0545e-7 -0.1627907 -0.9866607 -9.13818e-7 -7.3904e-6 -6.27986e-7 1 -1.89194e-5 4.39646e-6 -1 0.03282147 -0.9994612 0 0.03282052 -0.9994614 0 -5.32109e-6 -1.83596e-6 1 0 5.50786e-6 -1 0.2271744 -0.9738541 0 0.2271737 -0.9738543 0 1.41895e-5 -1.71712e-6 1 0 5.15137e-6 -1 0.4128002 -0.9108216 0 0.412808 -0.9108181 -8.31447e-7 2.36493e-6 -1.53231e-6 1 0 4.59692e-6 -1 0.5825641 -0.8127848 -2.41629e-6 0.582554 -0.812792 0 0 -1.2886e-6 1 -9.45976e-6 3.8658e-6 -1 0.7299337 -0.6835179 0 0.729936 -0.6835156 1.05038e-6 4.72985e-6 -9.95366e-7 1 0 2.98609e-6 -1 0.8492578 -0.5279784 0 0.8492575 -0.5279791 -5.26669e-7 0 -6.63902e-7 1 -4.72985e-6 1.99171e-6 -1 0.9359425 -0.3521528 -8.05436e-7 0.9359409 -0.3521574 -1.20816e-6 4.72986e-6 -3.06898e-7 1 -9.45975e-6 9.207e-7 -1 0.9866604 -0.1627928 -5.78912e-7 0.9866611 -0.1627879 -2.26526e-7</float_array>
          <technique_common>
            <accessor source="#Link5_Black-mesh-normals-array" count="128" stride="3">
              <param name="X" type="float"/>
              <param name="Y" type="float"/>
              <param name="Z" type="float"/>
            </accessor>
          </technique_common>
        </source>
        <vertices id="Link5_Black-mesh-vertices">
          <input semantic="POSITION" source="#Link5_Black-mesh-positions"/>
        </vertices>
        <triangles material="black-material" count="128">
          <input semantic="VERTEX" source="#Link5_Black-mesh-vertices" offset="0"/>
          <input semantic="NORMAL" source="#Link5_Black-mesh-normals" offset="1"/>
          <p>0 0 1 0 2 0 3 1 4 1 5 1 1 2 3 2 2 2 3 3 5 3 2 3 0 4 2 4 6 4 5 5 4 5 7 5 2 6 5 6 6 6 5 7 7 7 6 7 0 8 6 8 8 8 7 9 4 9 9 9 6 10 7 10 8 10 7 11 9 11 8 11 0 12 8 12 10 12 9 13 4 13 11 13 8 14 9 14 10 14 9 15 11 15 10 15 0 16 10 16 12 16 11 17 4 17 13 17 10 18 11 18 12 18 11 19 13 19 12 19 0 20 12 20 14 20 13 21 4 21 15 21 12 22 13 22 14 22 13 23 15 23 14 23 0 24 14 24 16 24 15 25 4 25 17 25 14 26 15 26 16 26 15 27 17 27 16 27 0 28 16 28 18 28 17 29 4 29 19 29 16 30 17 30 18 30 17 31 19 31 18 31 0 32 18 32 20 32 19 33 4 33 21 33 18 34 19 34 20 34 19 35 21 35 20 35 0 36 20 36 22 36 21 37 4 37 23 37 20 38 21 38 22 38 21 39 23 39 22 39 0 40 22 40 24 40 23 41 4 41 25 41 22 42 23 42 24 42 23 43 25 43 24 43 0 44 24 44 26 44 25 45 4 45 27 45 24 46 25 46 26 46 25 47 27 47 26 47 0 48 26 48 28 48 27 49 4 49 29 49 26 50 27 50 28 50 27 51 29 51 28 51 0 52 28 52 30 52 29 53 4 53 31 53 28 54 29 54 30 54 29 55 31 55 30 55 0 56 30 56 32 56 31 57 4 57 33 57 30 58 31 58 32 58 31 59 33 59 32 59 0 60 32 60 34 60 33 61 4 61 35 61 32 62 33 62 34 62 33 63 35 63 34 63 0 64 34 64 36 64 35 65 4 65 37 65 34 66 35 66 36 66 35 67 37 67 36 67 0 68 36 68 38 68 37 69 4 69 39 69 36 70 37 70 38 70 37 71 39 71 38 71 0 72 38 72 40 72 39 73 4 73 41 73 38 74 39 74 40 74 39 75 41 75 40 75 0 76 40 76 42 76 41 77 4 77 43 77 40 78 41 78 42 78 41 79 43 79 42 79 0 80 42 80 44 80 43 81 4 81 45 81 42 82 43 82 44 82 43 83 45 83 44 83 0 84 44 84 46 84 45 85 4 85 47 85 44 86 45 86 46 86 45 87 47 87 46 87 0 88 46 88 48 88 47 89 4 89 49 89 46 90 47 90 48 90 47 91 49 91 48 91 0 92 48 92 50 92 49 93 4 93 51 93 48 94 49 94 50 94 49 95 51 95 50 95 0 96 50 96 52 96 51 97 4 97 53 97 50 98 51 98 52 98 51 99 53 99 52 99 0 100 52 100 54 100 53 101 4 101 55 101 52 102 53 102 54 102 53 103 55 103 54 103 0 104 54 104 56 104 55 105 4 105 57 105 54 106 55 106 56 106 55 107 57 107 56 107 0 108 56 108 58 108 57 109 4 109 59 109 56 110 57 110 58 110 57 111 59 111 58 111 0 112 58 112 60 112 59 113 4 113 61 113 58 114 59 114 60 114 59 115 61 115 60 115 0 116 60 116 62 116 61 117 4 117 63 117 60 118 61 118 62 118 61 119 63 119 62 119 0 120 62 120 64 120 63 121 4 121 65 121 62 122 63 122 64 122 63 123 65 123 64 123 0 124 64 124 1 124 65 125 4 125 3 125 64 126 65 126 1 126 65 127 3 127 1 127</p>
        </triangles>
      </mesh>
    </geometry>
    <geometry id="Link5_Blue-mesh" name="Link5 Blue">
      <mesh>
        <source id="Link5_Blue-mesh-positions">
          <float_array id="Link5_Blue-mesh-positions-array" count="960">-0.1396242 0.01780629 0.5884521 -0.1383283 0.01948833 0.585518 -0.1396645 0.01751166 0.5856353 -0.1331639 0.02489769 0.5840767 -0.1300539 0.02736896 0.5861633 -0.1294625 0.02764236 0.5832579 -0.1000453 -0.02016037 0.5635337 -0.09945642 -0.02193242 0.5640146 -0.1048409 -0.02413654 0.5642807 -0.08046811 -0.005742132 0.5739547 -0.08187907 -0.01050853 0.5718748 -0.08045691 -0.005312025 0.5718324 -0.09308642 0.02621448 0.5752519 -0.08883613 0.02242267 0.5759708 -0.08775609 0.02125543 0.5738946 -0.1426305 -0.003959774 0.5720522 -0.144145 -0.006022036 0.5867305 -0.1446306 -0.00255084 0.5868952 -0.1446319 -0.003597557 0.589666 -0.0924341 0.01199358 0.5628659 -0.08988004 -0.001873016 0.5625564 -0.09580081 0.01321959 0.5629448 -0.1277671 -0.0284329 0.5832174 -0.1288712 -0.027839 0.5859763 -0.1309951 -0.02640485 0.5835915 -0.1391749 0.01499676 0.5723007 -0.1420966 0.0128442 0.5862148 -0.1418995 0.01357829 0.5891172 -0.1433707 0.009782791 0.5893264 -0.1101091 -0.02620476 0.5650288 -0.1049808 -0.02629786 0.5652316 -0.1374856 0.02073717 0.5880729 -0.1378903 0.01708573 0.5722019 -0.1352189 0.02009016 0.5704203 -0.1382165 0.01599055 0.570547 -0.1273786 0.0288856 0.5834302 -0.1276898 0.02634286 0.5702232 -0.1358546 0.02240562 0.5847359 -0.1333981 0.02487206 0.5869629 -0.1308259 0.02460908 0.5720499 -0.1001158 0.01979196 0.563448 -0.09522211 0.01565349 0.5630896 -0.09365803 0.01602798 0.5633406 -0.1007257 0.02144616 0.5636873 -0.1097167 0.02453315 0.5643336 -0.1145386 0.02624738 0.5651606 -0.1064897 0.02589207 0.5647996 -0.1191028 0.03187769 0.5810228 -0.1172072 0.03220152 0.5831024 -0.1141905 0.03249484 0.5798497 -0.1395031 -0.01377773 0.5710211 -0.1407216 -0.01015394 0.5703083 -0.1389565 -0.01280152 0.5690799 -0.1069595 -0.03191995 0.5785793 -0.1003455 -0.03005063 0.576998 -0.1027874 -0.03091174 0.5794593 -0.1040297 -0.02918362 0.5695035 -0.08097231 0.007921338 0.5724085 -0.08045214 0.005411267 0.573988 -0.07995438 0.002850174 0.5719692 -0.08008128 -5.80195e-5 0.5739307 -0.08209687 0.01150375 0.5743757 -0.08349567 -0.01449841 0.5730333 -0.08215862 -0.01150435 0.5743532 -0.08389109 -0.01533699 0.5748397 -0.08243781 1.27471e-4 0.5674963 -0.08015751 -4.38059e-4 0.5716258 -0.08243644 0.01236838 0.5720713 -0.08293068 0.003103852 0.5670493 -0.08385998 -3.33334e-4 0.5653707 -0.08404302 0.006575822 0.5661159 -0.0810188 0.007048964 0.5715195 -0.1411931 -0.0101791 0.5719894 -0.08379089 0.009308397 0.5677674 -0.08935081 0.01340931 0.5639976 -0.08982056 0.01012492 0.5630121 -0.09219276 0.01747488 0.5641733 -0.1420425 -0.007557272 0.5723126 -0.1440119 0.007109105 0.5869842 -0.1420001 0.007871448 0.5724145 -0.142947 -0.001133203 0.5734837 -0.1446941 0.002702772 0.587009 -0.1420538 -0.01221948 0.5892989 -0.1447725 -1.07847e-4 0.5898621 -0.1418023 -0.01334679 0.5892152 -0.1438634 -0.007586896 0.5895948 -0.1418034 -0.007618784 0.5709937 -0.1383944 -0.01921027 0.5857732 -0.1372176 -0.01781529 0.5718612 -0.1366794 -0.02127659 0.5848789 -0.1402156 -0.01640391 0.5857374 -0.1418576 -0.01333874 0.5865334 -0.1394308 -0.01781135 0.588415 -0.1278656 -0.02640277 0.5719656 -0.1232965 -0.02850931 0.5712922 -0.1248586 -0.02747565 0.5697652 -0.08515888 -0.01713407 0.5752058 -0.1070552 -0.03172147 0.5806199 -0.09135735 -0.02455145 0.5767152 -0.08118206 -0.007803261 0.5742194 -0.1271936 -0.02888476 0.5854132 -0.1343862 -0.02367222 0.5845904 -0.1362664 -0.02202212 0.5876572 -0.08562898 -0.00715357 0.5646472 -0.08836799 -0.01079851 0.56393 -0.08889722 -0.008744239 0.5631745 -0.08707928 -0.005244135 0.5635135 -0.08570605 -0.01063227 0.5656666 -0.09661173 0.02533274 0.5676261 -0.0986768 0.02736818 0.5694195 -0.09508061 0.02481138 0.5685085 -0.08382225 -0.008509397 0.5674478 -0.09167021 -0.0179615 0.5647974 -0.09717649 -0.0249738 0.5668593 -0.09825283 -0.02395093 0.5654067 -0.1189099 -0.0234102 0.5650526 -0.1165365 -0.02299737 0.5648053 -0.1102941 -0.02418392 0.5643951 -0.09932917 -0.02740281 0.5691984 -0.09549242 -0.02483415 0.5683229 -0.09307318 -0.02597159 0.5753414 -0.100013 -0.01889538 0.5633945 -0.09767359 -0.01220154 0.5630608 -0.1348413 0.01925265 0.5686294 -0.1300477 0.02328246 0.5681725 -0.128627 0.02252197 0.5666227 -0.08744448 -0.01463919 0.566225 -0.08873218 -0.01770341 0.5672081 -0.0897904 -0.0174936 0.5659053 -0.1217058 0.02643132 0.5664862 -0.1213527 0.02481979 0.5655965 -0.08661442 -0.01504617 0.567681 -0.1271508 0.02490162 0.5677177 -0.1191678 -0.02470588 0.5653078 -0.123152 -0.02275109 0.5655116 -0.1238883 0.03053206 0.5846938 -0.1138527 -0.02444201 0.5646975 -0.1153579 -0.02631253 0.5653831 -0.1055496 -0.02749264 0.5661973 -0.101745 -0.02732688 0.5673782 -0.1245873 0.03015208 0.5822746 -0.1245408 0.02818673 0.5711577 -0.09861052 -0.0226258 0.5645251 -0.1207814 0.02933639 0.5699624 -0.1355904 0.02010327 0.57198 -0.1404074 -0.009474098 0.5693311 -0.1354107 -0.01037812 0.5663365 -0.1169424 0.02451354 0.5649673 -0.09537869 -0.01541459 0.5630766 -0.09400558 -0.01556652 0.5632 -0.1261458 0.02665251 0.5689731 -0.1164537 0.03034371 0.5702207 -0.1149086 0.02980899 0.5683396 -0.1166991 0.02984434 0.568942 -0.1213983 0.0284062 0.5685846 -0.09122002 -0.006287038 0.5626538 -0.09074354 -0.00864017 0.5627762 -0.1180045 0.02836781 0.5669721 -0.1150721 0.02851378 0.5666386 -0.1000562 0.03010183 0.5769496 -0.09677767 0.02834182 0.5753329 -0.1028382 0.02905911 0.5694378 -0.1033271 0.03132057 0.5776829 -0.1076393 0.03017687 0.5695973 -0.105906 0.03194516 0.5783162 -0.1106938 0.0325089 0.5792072 -0.1094126 0.03246331 0.581146 -0.1058807 0.02872914 0.5671195 -0.1207413 -0.02625149 0.5662423 -0.1106373 0.02794498 0.5659345 -0.1066278 0.02698534 0.5654038 -0.1098473 -0.02789258 0.5661314 -0.1015561 0.02445209 0.5647248 -0.0876708 0.01365488 0.5652189 -0.1053704 0.03172385 0.5801807 -0.1192332 0.0319072 0.5834516 -0.1310423 0.01899313 0.5662412 -0.1074343 -0.02932739 0.5681178 -0.1092702 -0.02887386 0.5672107 -0.1405656 0.01170021 0.5710973 -0.1213054 -0.03100717 0.5812966 -0.1198451 -0.02932173 0.5698596 -0.1238321 -0.0300734 0.5847728 -0.09298926 -0.01605373 0.5635326 -0.1055887 -0.03168016 0.5801079 -0.1374654 -0.01562905 0.5691515 -0.1363743 -0.01817828 0.5701732 -0.1386538 -0.01125955 0.5679202 -0.1294127 -0.01945239 0.5660359 -0.1350116 -0.01519137 0.5669919 -0.1364252 -0.01157826 0.5667602 -0.1340255 -0.0175662 0.5672941 -0.08900737 0.0177319 0.5666821 -0.09027379 0.0200302 0.5674775 -0.08821719 0.01870501 0.568943 -0.1406561 0.01011449 0.569894 -0.1379405 0.01358455 0.5681437 -0.08560979 -0.00298649 0.5642163 -0.08455115 0.003116309 0.5650459 -0.09140878 0.0244466 0.5740393 -0.09170496 0.02216494 0.5684897 -0.08110451 0.008419692 0.5740755 -0.136972 0.01668232 0.569186 -0.1376335 -0.004126369 0.5666558 -0.1388864 -0.004272341 0.5670109 -0.08525258 0.01150971 0.5668208 -0.08672326 0.0150398 0.5672856 -0.1031941 0.02746003 0.5664551 -0.08685016 0.001083314 0.5633408 -0.08570921 0.003976404 0.5642044 -0.08662462 0.006352782 0.5639379 -0.08854377 0.004295349 0.5629135 -0.09133541 -0.01168519 0.5630184 -0.08952486 0.004622638 0.5627223 -0.08833611 -0.004778683 0.5629944 -0.09949707 0.02213454 0.5640125 -0.08534884 0.006634771 0.5648931 -0.08670186 0.009825646 0.5645526 -0.1444943 0.004818737 0.5896139 -0.1430413 -0.0105862 0.5893691 -0.09012806 -0.02015912 0.5680114 -0.1131378 -0.02893853 0.5671958 -0.1159416 -0.02922683 0.5679055 -0.1189646 -0.02826297 0.5674741 -0.1248579 -0.0262109 0.5677546 -0.1274895 -0.02388387 0.5669971 -0.1229183 -0.02403616 0.5658102 -0.1429048 -0.01065105 0.5864425 -0.1349698 -0.01822382 0.5683535 -0.13529 -0.01852869 0.5689346 -0.133097 -0.02494663 0.5868727 -0.133767 -0.023983 0.5872351 -0.1381381 -0.01941251 0.588285 -0.1382713 -0.009993553 0.5673254 -0.1401476 -0.005378842 0.5678322 -0.0900523 -0.01309883 0.5637663 -0.08499389 -0.007802844 0.5654445 -0.08694231 -0.01980644 0.5730884 -0.08683454 -0.01975613 0.5755668 -0.08899867 -0.02232342 0.5760499 -0.08964389 -0.02272063 0.5737402 -0.1322152 -0.01943641 0.567125 -0.1341422 -0.02102762 0.570424 -0.1305922 -0.02338677 0.5690365 -0.1295378 -0.02501636 0.5704341 -0.1277968 -0.0254814 0.5691872 -0.1403902 0.01626378 0.5888137 -0.1339377 0.02416443 0.5872561 -0.1310499 0.02326279 0.5691176 -0.1292274 -0.02305209 0.5673776 -0.1191754 0.02666425 0.5660971 -0.1240336 0.02675247 0.567657 -0.09060639 0.01866805 0.5657876 -0.08662235 0.0196942 0.5755659 -0.08463871 0.01687687 0.5749166 -0.1078839 -0.0299701 0.5695036 -0.1111946 -0.03235447 0.5815964 -0.129242 0.02524417 0.570012 -0.1331208 0.02247959 0.5708716 -0.1332581 0.0216937 0.5697144 -0.1368559 0.008540987 0.5665526 -0.1130766 0.001764237 0.5643574 -0.1251069 0.02143776 0.5655921 -0.1181004 0.0229814 0.5649408 -0.1392926 0.004739642 0.5671637 -0.1400246 -0.004280865 0.5676509 -0.1401302 0.004113554 0.567642 -0.1398941 0.00802654 0.5680001 -0.1113238 0.03047573 0.5695015 -0.1341869 0.01385849 0.5664246 -0.1371601 0.01203548 0.5671678 -0.1328477 0.01906031 0.5672079 -0.135254 0.01614332 0.5673672 -0.09738451 0.02894777 0.5781891 -0.09468096 0.02729719 0.577456 -0.1415205 -0.004521012 0.5690502 -0.1124946 0.03263479 0.5817651 -0.1422529 -0.004157006 0.5702216 -0.1082662 0.02945226 0.5678095 -0.1106251 0.02844232 0.5663713 -0.08725363 -0.01729321 0.569162 -0.08453452 -0.01570874 0.5722983 -0.08341813 -0.004333853 0.5664529 -0.1419055 0.007345795 0.5709393 -0.1425113 0.00418663 0.5710454 -0.09086716 -0.0189163 0.566031 -0.141106 0.004729628 0.568563 -0.1401712 0.009156882 0.5685773 -0.1235513 -0.03019821 0.5816572 -0.09672284 -0.02835434 0.5780197 -0.09592872 -0.02784663 0.5759611 -0.09858405 -0.029006 0.57565 -0.1364162 -0.01520931 0.5678579 -0.09186619 0.02504992 0.5768552 -0.1329876 -0.02030491 0.5681592 -0.08628672 0.01934432 0.5735951 -0.1049252 0.02192312 0.5637846 -0.131118 -0.02413952 0.5719583 -0.1051867 0.02364528 0.5640788 -0.144472 0.003825962 0.5899067 -0.1253117 0.02966707 0.5851338 -0.1337909 -0.02175718 0.5717777 -0.1178599 -0.0318793 0.5812035 -0.1197611 -0.03155612 0.5836108 -0.1101946 -0.03053539 0.5711266 -0.1135229 -0.03028303 0.5697907 -0.1109973 -0.03229099 0.5791954 -0.1145638 -0.03223991 0.5798819 -0.1153036 -0.03224718 0.5825411 -0.08911728 -0.01442116 0.5647067 -0.1176863 -0.02943336 0.5689995 -0.1169314 -0.03028142 0.5717035 -0.12295 -0.03065019 0.5843901 -0.09346526 -0.02324938 0.5682147 -0.1379136 0.004391193 0.5667044 -0.1419447 0.004470765 0.5697709 -0.0983116 0.02363383 0.5650743 -0.09765785 0.02485787 0.5662823 -0.08539843 -0.0177524 0.5734235 -0.1028272 0.03114265 0.5795191</float_array>
          <technique_common>
            <accessor source="#Link5_Blue-mesh-positions-array" count="320" stride="3">
              <param name="X" type="float"/>
              <param name="Y" type="float"/>
              <param name="Z" type="float"/>
            </accessor>
          </technique_common>
        </source>
        <source id="Link5_Blue-mesh-normals">
          <float_array id="Link5_Blue-mesh-normals-array" count="1908">-0.828846 0.5575424 -0.04648464 -0.6017171 0.797299 -0.04744428 0.05254435 -0.245241 -0.9680372 0.9632974 -0.2640331 -0.04842281 0.6704806 0.73893 -0.0666207 -0.983959 -0.1319481 -0.1200597 -0.9893583 -0.1359494 -0.05184596 -0.01637452 0.01928764 -0.9996799 -0.5343705 -0.8446432 -0.03203409 -0.8866133 0.4474833 -0.1169437 -0.8823841 0.4691144 -0.0364713 -0.8882683 0.4560197 -0.05500608 -0.932558 0.3599562 -0.02769935 0.02885043 -0.4040931 -0.9142629 0.1215692 -0.4062914 -0.9056203 -0.8088782 0.5876218 -0.02041471 -0.7903111 0.5710209 -0.2221346 -0.8428027 0.5101634 -0.1715142 -0.8252931 0.5503664 -0.126444 -0.8474852 0.515091 -0.128258 -0.496971 0.8542175 -0.1527491 -0.7690067 0.636646 -0.05753844 -0.6041836 0.7957388 -0.04197621 -0.7105448 0.7036375 0.004506587 -0.6851522 0.7267391 -0.04916137 -0.5460565 0.8230355 -0.1563171 -0.6094176 0.7808874 -0.1372044 -0.01903218 0.06389993 -0.9977748 0.1076319 0.2026855 -0.9733108 -0.0249176 0.3766973 -0.9260013 -0.1324576 0.990622 -0.0335136 -0.8336114 -0.3622995 -0.4169306 0.2514402 -0.9638856 -0.08776342 0.217155 -0.9517458 -0.2168498 0.9802555 0.1975345 -0.008904516 0.2543679 0.007117509 0.9670814 0.9976544 -0.06792318 -0.00849837 0.9116163 -0.4109494 0.008746862 0.8686607 -0.07411891 -0.4898315 0.875185 -0.003543436 -0.4837755 0.9978015 -0.06225728 -0.02272152 0.9979748 -0.05921834 -0.02322757 0.9501089 0.3110483 -0.02328276 0.8247335 0.05200928 -0.563125 0.7854366 0.08690196 -0.612811 0.8553181 0.06442725 -0.5140819 0.8546387 0.163896 -0.4926772 -0.8994372 -0.3531065 -0.2575433 0.9429965 0.2115212 -0.2569367 0.9077072 0.2747598 -0.3171356 0.8449667 0.272892 -0.459958 0.8431557 0.21898 -0.4910565 0.2833869 0.2382084 -0.9289503 -0.9777331 -0.168857 -0.1246002 -0.946747 0.3007454 -0.1149891 -0.9482992 0.3048237 -0.08838057 -0.9905797 -0.04549461 -0.1291595 -0.9920485 -0.009275615 -0.1255151 -0.9740055 -0.2212353 0.04866462 -0.9819419 -0.1890628 -0.006750762 -0.9991944 -0.01124411 -0.03852671 -0.9991065 -0.03937268 -0.01536285 -0.9114477 -0.3185343 -0.2603827 -0.7895665 -0.6003817 -0.1269905 -0.8315855 -0.5412366 -0.1246134 -0.9105423 -0.3934038 -0.1270679 -0.8877383 -0.4438385 -0.1221808 -0.8804974 -0.4739673 0.008905947 -0.5383584 -0.8301367 -0.1450635 -0.4325594 -0.8875898 -0.1583568 -0.4324512 -0.887984 -0.1564305 0.2403894 -5.68166e-4 0.9706764 0.2443262 -0.006844103 0.9696689 0.3308172 -0.04136383 0.9427879 -0.5367327 -0.8430942 -0.03332072 -0.7248556 -0.684695 -0.07600897 -0.7793483 -0.6244506 -0.05174815 0.4792155 -0.1915667 -0.8565365 0.4690502 -0.159502 -0.868649 0.5401767 -0.2476607 -0.8042844 0.479111 0.8014791 -0.3578882 0.8462985 -0.2355127 -0.4778207 0.4358913 -0.5514296 -0.7112836 -0.08499908 -0.1046674 -0.9908683 0.3264557 -0.9071792 -0.265429 0.4825839 -0.8229724 -0.2997155 -0.07398086 -0.0446912 -0.9962579 -0.07966548 -0.02184134 -0.9965823 -0.4951983 0.5092309 -0.7038911 0.6487193 -0.4657115 -0.6018939 -0.2563749 0.4235422 -0.8688406 0.7054297 -0.4674083 -0.5328214 -0.4343463 0.5847132 -0.6851671 -0.1315503 -0.1663133 -0.9772586 -0.4439507 0.8939388 0.06149184 -0.1039406 -0.1722693 -0.9795508 -0.096354 -0.2732955 -0.9570923 -0.08070385 -0.05306917 -0.9953244 -0.510797 0.8593912 -0.02309095 -0.05897873 -0.3013541 -0.9516866 0.2473094 -0.6665372 -0.703254 -0.4612979 0.8731999 -0.1572456 -0.4641939 0.8718733 -0.1560801 0.1981051 -0.5052788 -0.8399094 -0.4202949 0.9071435 -0.02104091 -0.3118019 0.9483224 -0.05885839 -0.3361102 0.9271987 -0.1653254 -0.3298634 0.929751 -0.1635646 -0.7731033 0.621203 -0.1281331 -0.7872361 0.585848 -0.1924618 -0.7929236 0.5945499 -0.1333516 0.1616885 -0.449566 -0.8784915 -0.001592278 0.05978947 -0.9982097 0.1208715 0.1521133 -0.9809443 -0.8597966 -0.2459027 -0.4475286 -0.08691567 -0.009119927 -0.9961739 -0.1176357 0.2696635 -0.9557424 -0.04097539 -0.1082351 -0.9932806 -0.01929271 -0.1620953 -0.9865865 0.07025969 -0.1639216 -0.9839682 -0.4145156 0.8595001 -0.2990596 0.0143072 -0.1097097 -0.9938607 -0.09784817 0.933246 -0.3456555 -0.2119866 0.9589856 -0.1881711 -0.1644147 0.9701801 -0.1780964 -0.3450175 0.8422779 -0.4141629 -0.03535938 -0.0301609 -0.9989195 0.008718669 -0.05020594 -0.9987009 -0.3713685 0.8658566 -0.3352279 -0.1073874 0.7959562 -0.5957531 -0.1592155 0.8377015 -0.5224047 -0.05795121 -0.3035477 -0.9510524 0.3559016 0.8986214 -0.2565418 0.2921523 0.9265881 -0.2368159 0.2119503 0.9456068 -0.246789 0.1756291 0.9574295 -0.2290924 0.1079838 0.992993 -0.0480054 0.1968995 0.9009534 -0.3866701 -0.1491085 -0.3960329 -0.9060489 -0.06528598 0.5342382 -0.8428093 -0.02002722 0.4524614 -0.8915592 -4.79367e-5 0.4837387 -0.8752125 0.02328914 -0.5442169 -0.8386213 0.1306288 0.4921919 -0.8606296 0.5047711 0.3862102 -0.7720414 -0.01741367 -0.3006262 -0.9535831 0.2413643 0.05461615 0.9688965 -0.2898586 0.9566835 -0.02717953 -0.2114302 0.2469767 -0.9456743 0.2089065 -0.8013326 -0.5605569 0.1171169 -0.7729691 -0.6235404 -0.8671118 0.4464507 -0.2209052 -0.9425347 0.312169 -0.1190752 -0.8975148 0.4235004 -0.1229416 -0.2941768 -0.9394063 -0.1759995 0.2401962 -9.3759e-4 0.9707239 0.07191926 -0.6474921 -0.7586709 0.07733637 -0.7167899 -0.6929873 0.2539518 -0.3531974 -0.9004222 0.2484812 -0.96601 -0.07128667 0.1167792 -0.2237876 -0.9676166 0.1781713 -0.2735288 -0.945218 -0.7879445 -0.4878289 -0.3757213 -0.8149991 -0.3188406 -0.4838568 -0.7609351 -0.2879064 -0.5814532 -0.2938503 -0.1752268 -0.939653 0.4073561 -0.0238769 0.9129573 0.9594535 -0.2818223 -0.005014002 -0.3517389 -0.2604665 -0.8991312 0.7342103 -0.1701812 0.657247 -0.0988717 -0.02721011 -0.9947282 0.4334238 -0.08180761 0.8974695 -0.1073478 -0.03804057 -0.9934936 0.6902765 0.5450644 -0.4758394 -0.7973783 0.3930068 -0.457967 0.9201925 -0.3879847 -0.05209177 0.6329881 -0.08252072 -0.769751 0.5379568 -0.08916455 -0.8382436 0.7548742 0.09006565 -0.6496562 0.6407919 0.7423373 -0.1957579 0.6141467 0.7178428 -0.327911 0.9772697 0.2115179 0.01429408 -0.7966434 0.4011967 -0.4521067 0.9513356 0.3077139 -0.01652485 0.5426688 0.09341156 0.8347364 -0.2674617 -0.04594588 -0.9624726 0.783344 0.3900704 -0.4839602 0.2976742 0.8537755 -0.4271506 0.7656832 0.4968229 -0.4085296 0.4821019 -0.04133486 -0.8751397 0.5684607 0.02132421 -0.8224341 0.5590582 -0.00795561 -0.8290903 0.383385 0.09950345 -0.9182131 0.3951272 0.08670508 -0.9145255 0.07803934 -0.1001365 -0.9919086 0.4646183 0.0800364 -0.8818866 0.1958831 0.01433861 -0.9805224 0.2687237 -0.002431571 -0.9632143 0.2186704 0.3108828 -0.9249515 0.2389465 -0.003181517 -0.9710275 0.6733267 0.2098567 -0.7089367 0.575429 0.1311321 -0.8072707 0.6812624 0.1231288 -0.72161 0.7769003 0.2716084 -0.5680272 -0.05927824 -0.004039049 -0.9982334 0.8507505 0.1360944 -0.5076436 -0.0648812 2.26699e-4 -0.997893 0.8092331 0.3276517 -0.4876332 0.01349991 0.0247972 -0.9996014 0.05902695 -0.03993761 -0.9974572 0.09677058 0.05753308 -0.9936426 0.5387476 0.2748986 -0.7963554 0.4492862 0.1971908 -0.8713539 -0.9750574 0.2215078 0.01404982 -0.01743412 0.06172668 0.9979409 0.7447886 -0.3977913 -0.5357725 -0.1100899 -0.104646 0.9883975 0.610271 -0.5372831 -0.582148 -0.1134222 -0.679986 -0.7243995 -0.8379191 -0.5442886 -0.04051595 -0.1094275 -0.6256794 -0.7723672 -0.2872605 -0.5743902 -0.766523 -0.242028 -0.409439 -0.879649 -0.2640522 -0.6624891 -0.7009884 -0.850601 -0.5089722 -0.1320049 -0.9234993 -0.3639315 -0.1212557 -0.9307824 -0.3638622 -0.03533482 -0.9485402 -0.2922607 -0.1218828 -0.9614319 -0.2505198 -0.1135279 -0.9644363 -0.2613965 -0.03917372 -0.965658 -0.2559117 -0.04487764 -0.1326972 -0.6002255 -0.7887464 -0.3274594 -0.9034727 -0.2765998 0.2545734 -0.6783323 -0.6892443 -0.09131062 -0.5545022 -0.8271576 0.01490867 -0.7358679 -0.6769611 1.34761e-4 -0.4739462 0.8805539 -0.3048354 -0.8061254 -0.5071856 -0.6605938 -0.4506284 -0.6004582 -0.6811292 -0.731774 -0.02387386 -0.5639862 -0.8257647 0.005692481 -0.6380541 -0.7669943 -0.06787258 0.2101345 -0.05186772 0.9762957 0.2397432 -0.001445114 0.9708353 0.210653 -0.02311468 0.9772876 -0.04405045 -0.263231 0.9637267 -0.6597914 -0.3646247 -0.6570572 -0.6239011 -0.1698966 -0.7628123 0.394953 -0.2257764 -0.8905264 -0.4802147 -0.09953826 -0.8714849 -0.3613232 -0.08985882 -0.9281008 0.8131021 -0.306113 -0.4951362 -0.4826048 -0.2487641 -0.8397673 0.6655389 -0.2234355 -0.7121338 0.7625808 -0.6465827 -0.02003532 0.4456598 -0.2119295 0.8697547 0.3166334 -0.07209986 0.9458039 0.6645908 -0.3329483 0.6689279 0.6438822 -0.6767288 -0.357007 -0.4642255 -0.2363975 -0.8535871 -0.3512045 -0.2585557 -0.8998913 0.3108741 -0.2084606 -0.9273087 0.2030659 -0.1167997 -0.972174 0.07130426 -0.09285324 -0.9931234 -0.6029542 -0.5942052 -0.5323219 -0.609933 -0.7050083 -0.3618634 -0.4251236 -0.7660967 -0.4820436 -0.3790993 0.3853654 0.841295 -0.473714 -0.8028597 -0.3619549 -0.7719547 0.4806516 0.4160048 -0.5185521 -0.724709 -0.4537627 0.1850863 0.04244375 0.9818053 -0.5566953 0.5966976 -0.577964 -0.4486353 -0.6885798 -0.5697228 -0.4863566 -0.6878095 -0.5388651 -0.1760311 0.4459716 -0.8775662 -0.1762288 0.5428755 -0.8211149 -0.3478647 0.561339 -0.7509251 -0.3187347 0.5370188 -0.7810372 -0.2583643 0.6687486 -0.6971537 -0.1173514 -0.06525456 -0.9909443 0.1736766 0.1668705 -0.9705621 0.6289792 0.54012 -0.5591562 -0.4128165 0.6752176 -0.6112806 0.484975 0.1424995 0.8628402 0.186287 -0.9129835 -0.3629851 -0.01394158 -0.9053569 -0.4244226 0.3109593 -0.4097046 0.8575817 0.2673337 -0.6476879 0.7134656 -0.5527422 0.8146145 -0.1757254 -0.4882332 0.7690702 -0.4125038 -0.6333881 0.7608092 -0.141382 -0.6907915 0.7108253 -0.1324184 -0.7181912 0.6820297 -0.1379749 -0.7225698 0.6680526 -0.17776 -0.6646478 0.6523807 -0.3642016 -0.598084 0.7691485 -0.2251804 -0.09066545 0.004450559 -0.9958715 -0.1146863 0.1037384 -0.9879704 -0.09022253 0.006021618 -0.9959034 -0.1937195 0.2163038 -0.9569146 -0.0856896 0.2270011 -0.9701174 -0.0953139 0.01269352 -0.9953664 -0.4918373 -0.007115781 -0.8706581 -0.4900441 -0.007305502 -0.8716671 -0.5530366 0.1089617 -0.8260012 -0.05398052 0.9771438 -0.2056117 -0.3186066 0.1373514 -0.937883 -0.04110771 0.9784603 -0.2023012 -0.337877 0.1738266 -0.9249992 -0.06989496 0.9429709 -0.3254545 -0.4667571 0.1369088 -0.8737241 -0.5630241 0.2184948 -0.7970345 -0.5122582 0.3805459 -0.7699199 -0.1961135 0.9255728 -0.3238129 0.4732545 0.8321707 -0.2890021 0.3621539 0.8940933 -0.2635183 0.4326722 0.896187 -0.09820246 -0.5676165 0.3732359 -0.7338301 -0.7726908 0.3556358 -0.5258063 0.504671 0.8600273 -0.07523566 0.4971752 0.8651883 -0.06531459 0.2454601 0.9683882 0.04442775 -0.85364 -0.2186419 -0.472752 0.1935993 0.9792067 0.06061124 -0.08968138 0.9959484 0.0066365 -0.0149762 0.9981061 -0.05966627 0.05320984 0.9985151 -0.01167839 0.1983866 0.479883 0.8546082 -0.8566671 -0.2157623 -0.468581 -0.3104891 -0.07208889 -0.9478396 0.3455513 0.7928526 -0.5019751 0.1513101 0.8964932 -0.4164195 0.0844593 0.9741435 -0.2095497 0.07516562 0.974259 -0.2125316 -0.03449368 0.6599705 -0.7504992 -0.02350294 0.7964781 -0.6042106 -0.001704692 0.8196696 -0.5728342 0.05255925 0.7746566 -0.6301943 0.07324028 0.6833298 -0.7264271 0.05808752 0.6579622 -0.7508074 0.3175264 0.7871294 -0.5287762 -0.492047 0.6944285 -0.5250322 0.1328276 0.6656217 -0.7343737 0.170931 0.5595838 -0.8109554 0.2905216 -0.3810455 -0.8777252 0.1763605 -0.05442965 -0.9828197 0.2110264 0.06271737 -0.9754663 0.3512628 -0.792066 -0.4992455 0.7355589 -0.5060737 -0.4503803 -0.1470921 0.9889225 -0.01990813 0.7654694 -0.491477 -0.4153397 0.06838256 0.5313534 0.8443859 0.8102461 -0.2088975 -0.5475978 -0.9408643 0.2955192 -0.1656585 -0.9803525 -0.009994983 -0.1970005 -0.9795528 -0.01048094 -0.2009143 -0.9908304 0.01991271 -0.1336362 -0.9811732 0.1512401 -0.1201067 -0.9753389 0.1817942 -0.1251602 -0.9748618 0.1826422 -0.1276182 -0.9449362 -0.286642 -0.1578991 -0.9708654 -0.1708691 -0.1680006 -0.9691128 -0.1664533 -0.1819721 0.6316999 -0.5282983 -0.5673238 -0.6454563 0.1081354 -0.7561038 -0.7343391 0.1571764 -0.6603345 -0.4299474 -0.8893652 -0.1554822 -0.3570503 -0.9204943 -0.1587619 -0.4100157 -0.9085726 -0.0798949 0.235875 -0.04501658 0.9707403 0.2505866 -0.02155631 0.9678542 0.2846438 -0.1413382 0.9481569 0.5905318 -0.8018308 0.09132111 0.5498017 -0.8352732 0.006079077 0.4036588 -0.9112582 0.08165997 0.4357689 -0.8984683 -0.05348134 -0.04220438 -0.5915023 -0.8051981 -0.1726433 -0.2526148 -0.95204 0.4788722 -0.8268142 -0.2950586 0.3348741 -0.9046744 -0.2634835 0.4106804 -0.8977841 -0.1591393 0.4117653 -0.8721288 -0.2642742 0.1948007 -0.9546983 -0.2249529 0.9849271 0.06510204 0.1602509 -0.1869498 -0.3618807 -0.9132865 -0.2487311 -0.3071837 -0.9185701 -0.3424672 -0.3387196 -0.8763477 0.610117 0.04777365 -0.7908698 -0.2958754 -0.8278221 -0.4766219 0.6369981 0.1112787 -0.7627913 -0.2344728 -0.4807592 0.844922 -0.6372662 -0.4127902 -0.6507658 0.6612946 0.7490198 0.04073053 0.6321971 0.7707976 0.07872849 -0.7163829 -0.5011727 -0.4854086 0.6720391 0.6328633 -0.3845097 -0.7906152 -0.4280079 -0.4378777 -0.5179947 -0.4239898 -0.7429093 -0.519709 -0.4366784 -0.7343124 0.8554322 0.5009262 -0.1315626 -0.7301471 -0.2011219 -0.6530201 0.7681207 0.5088495 -0.388668 -0.6618096 -0.364581 -0.6550486 -0.5025113 -0.2717195 -0.8207625 0.7220367 0.507131 -0.4706178 -0.6039264 -0.5187896 -0.6050871 -0.6347032 -0.6233512 -0.4567112 -0.08728015 0.08311498 -0.9927105 -0.08269745 0.05744439 -0.9949178 0.2896887 0.2398841 -0.9265723 -0.478282 -0.8442001 -0.2420177 -0.6358851 -0.7346106 -0.2366377 -0.5857301 -0.796702 -0.1489505 0.1276156 0.2282353 -0.9652062 -0.003778219 0.1678403 -0.985807 -0.5476822 -0.8235692 -0.1475735 -0.02314203 0.1649411 -0.9860319 0.007130086 0.3091877 -0.9509744 -0.556295 -0.5969548 -0.5780839 -0.2461617 -0.130908 -0.9603476 -0.359816 -0.357515 -0.8618095 0.08121114 0.3468398 -0.9344019 0.09317433 0.3671953 -0.9254655 0.07304209 0.3164885 -0.9457801 -0.4546497 -0.6953431 -0.5565893 0.5698405 0.1554985 -0.806909 0.2405941 6.9149e-5 0.9706258 0.2403929 -5.41933e-4 0.9706756 0.106855 0.05222499 0.9929022 0.2403312 0.001091063 0.9706904 0.2181929 0.0141316 0.9758033 0.7097773 0.2671204 -0.6518151 0.236413 0.004185259 0.9716438 0.1162621 -0.02012163 0.9930147 -0.5845035 0.2174156 0.7817201 0.720155 0.3767296 -0.5826249 -0.9978886 0.05783402 0.02955901 0.1264983 -0.02005672 0.9917641 -0.9494081 0.06903415 0.3063638 -0.2438362 -0.06420642 0.9676887 0.6714986 0.4353496 -0.5996336 -0.748613 -0.6477786 -0.1412851 -0.7238537 -0.676664 -0.1347658 0.4494543 0.16538 -0.8778613 0.07020181 0.1681656 -0.9832559 -0.5555018 -0.3875285 -0.7356898 -0.8817695 -0.4713824 0.0167731 -0.05074751 0.04306507 -0.9977827 -0.9118188 -0.4102168 0.01757699 0.2405123 0.001829802 0.9706444 -0.7989698 -0.6013508 0.004968702 0.2406278 6.93353e-5 0.9706175 -0.6989465 -0.5961773 0.3950272 0.2459155 0.001180708 0.9692906 0.2717859 0.01034879 0.9623022 -0.2465168 -0.9669648 -0.06487333 -0.2460938 -0.9538643 -0.1719908 0.4666849 0.2528421 0.8475117 0.7793083 0.6242687 0.05447417 0.8212381 0.5692665 0.03877937 0.7945923 0.6065151 0.02761501 -0.2148033 -0.2579392 -0.9419804 0.03906708 -0.9596079 -0.2786154 0.01081222 -0.9773043 -0.2115645 0.05821084 -0.9766688 -0.2067112 0.08506661 -0.9723327 -0.2175611 0.08860701 -0.9958846 -0.01904386 0.1295846 -0.9907928 0.03921401 0.4362745 -0.5515985 -0.7109175 -0.01971364 -0.9994124 -0.02804154 -0.02855265 -0.9995353 -0.01067715 0.410349 -0.3177779 -0.8547695 -0.05161547 -0.9793947 -0.1952483 0.4590191 -0.2759908 -0.8444707 0.5365488 -0.2815356 -0.7955207 0.5325077 -0.4654988 -0.7069275 0.5368726 -0.406107 -0.7394896 0.5858561 -0.4027028 -0.7032803 -0.1517481 -0.9544298 -0.2569754 0.797146 -0.2439933 -0.5522912 -0.1456829 -0.9548794 -0.2588084 0.8423422 -0.2006979 -0.5001799 0.8676487 -0.07573074 -0.4913763 0.8353805 -0.05565863 -0.5468471 0.7091289 -0.1100561 -0.6964366 0.7213526 -0.1298847 -0.6802796 0.7574597 -0.5209622 -0.3935139 0.8008426 -0.4418684 -0.4042321 0.08750474 -0.4544147 0.886482 0.7205216 -0.5566906 -0.413454 0.7181901 -0.5483688 -0.4283627 -0.1254386 0.04142063 -0.9912364 -0.08687746 0.006822526 -0.9961957 0.5087203 -0.6862344 -0.5198905 0.5729238 -0.7546517 -0.3197799 0.5684865 -0.757623 -0.3206719 0.5061416 -0.6105021 -0.6091862 0.5323588 -0.6132619 -0.5835273 0.6688154 -0.7401009 -0.07026171 -0.08567315 0.006329715 -0.9963033 0.6759464 -0.734291 -0.06255632 0.7214283 -0.6874586 -0.08331805 -0.08250504 0.001531004 -0.9965895 -0.08662575 -0.003045141 -0.9962363 0.2331673 -0.8425851 -0.4854725 -0.1222301 0.03745573 -0.9917948 -0.1434572 3.53144e-4 -0.9896565 -0.4166684 0.1222909 -0.9007955 -0.0421912 -0.03503805 -0.9984951 -0.3058853 0.04317927 -0.9510887 -0.4318357 0.6058578 0.6681723 -0.3155446 0.001866757 -0.9489089 0.2486772 0.02064108 0.9683665 0.4016935 0.2689957 0.8753764 -0.3906514 0.2246118 -0.8927156 -0.4387192 0.3159706 -0.841242 -0.9145439 0.1629232 -0.3702237 -0.7438691 0.5313791 -0.4053334 -0.8579406 0.2101806 -0.4687879 -0.857141 0.203911 -0.473001 -0.8220815 0.006855964 -0.5693286 -0.8475204 0.002562701 -0.5307568 -0.7156711 -0.1918414 -0.6715742 -0.5808873 0.6141432 -0.5342268 -0.6824237 -0.007912933 -0.7309141 -0.6785603 -0.04503273 -0.7331631 -0.1392313 0.001078486 -0.9902593 -0.2722854 -0.00345844 -0.9622104 -0.1442518 0.4142373 -0.8986652 -0.4876897 -0.0887748 -0.8684917 -0.1423082 0.4695677 0.8713523 0.1224594 0.1841508 0.9752396 -0.123621 0.5214588 -0.844274 -0.122089 0.5185695 -0.8462741 -0.4674325 0.6763918 -0.569211 0.2072429 0.4509513 -0.8681551 0.2604461 0.604143 -0.753113 0.2298212 0.5762964 -0.7842607 0.5063191 0.6212269 -0.5980954 0.4996351 0.6177221 -0.607276 0.5270299 0.6759201 -0.5151421 -0.5911821 0.7111841 -0.3804221 0.579945 0.7421094 -0.3360617 -0.6003195 0.6929168 -0.399353 0.5646945 0.7586786 -0.3248492 0.4956609 0.809385 -0.3149864 0.3442873 0.7683342 -0.5395637 -0.1298233 0.1453974 -0.9808189 -0.3381202 0.8087394 -0.4812645 -0.5022947 0.6922173 -0.518204 0.3828736 -0.3117961 -0.8695925 0.2191023 -0.1954734 -0.9559208 0.2970395 -0.2217655 -0.9287559 -0.2709501 0.7618085 -0.5884164 0.3691284 -0.03870701 -0.928572 0.3508664 -0.09196954 -0.9318982 0.2063063 -0.07351505 -0.9757219 0.2957288 -0.8539531 -0.4281456 0.4348099 -0.7941751 -0.4245309 0.6210667 -0.6945928 -0.3630661 -0.2216263 0.8450636 -0.4865689 -0.2244615 0.8513048 -0.4742334 0.7936738 -0.4395275 -0.4205921 0.8009508 -0.5983003 -0.02268332 0.8348885 -0.548433 0.04671627 0.2304468 0.972575 0.03149747 0.3815749 0.9235808 0.03740531 0.3483521 0.9373553 -0.004011273 0.8597502 -0.5084661 -0.04787361 0.2694243 0.08659571 0.9591203 0.7738142 -0.5234894 -0.35661 0.8063048 -0.5078322 -0.3032809 0.08442276 0.9128056 -0.3995735 0.7902562 -0.3814879 -0.4795437 0.005459308 0.8599716 -0.5103129 0.6008435 -0.3601178 -0.7136542 0.3387429 -0.4560412 -0.82297 0.2728142 -0.6797723 -0.6807953 -0.2024984 -0.8515135 -0.483652 0.2751892 0.4011791 -0.8736854 -0.2291895 -0.8555042 -0.4643112 -0.07884407 -0.3985316 0.9137594 -0.1156085 0.5948626 0.7954705 0.1818938 0.1911832 0.9645537 0.2400361 0.01047271 0.9707075 0.2407211 0.003461778 0.9705882 -0.6881458 -0.5777081 -0.4389861 -0.4839125 0.4646719 -0.7415583 -0.9042694 0.2896296 -0.3137063 -0.6895465 -0.009443879 -0.7241798 -0.9146685 0.01157516 -0.404039 -0.825837 0.1760976 -0.5357078 -0.8052667 -0.5164492 -0.2912486 -0.3162581 -0.3275324 0.8903389 0.2032856 -0.02731323 0.9787385 -0.6645107 0.4165183 -0.6204338 -0.7433862 0.5270262 -0.4118502 -0.4961696 -0.309247 -0.8112842 -0.4871847 -0.4546402 -0.7456229 -0.7527148 -0.6112142 -0.2446175 -0.6594699 0.6179669 -0.4280378 -0.7472882 -0.6463071 -0.1544271 -0.4255824 0.3801089 -0.8212168 -0.6388463 -0.7341777 -0.2299099 -0.6533205 -0.7437379 -0.1415146 -0.6459003 -0.750598 -0.13934 -0.9871155 0.1525719 -0.04821801 -0.495834 0.2701603 -0.8253256 0.6202856 0.4370613 -0.6513243 -0.6129834 0.2349483 -0.7543545 0.6939688 0.2902609 -0.6589052 -0.006952226 0.1406996 -0.990028 -0.7759204 0.3387998 -0.5321299 0.6779845 0.6258731 -0.3855127 0.7054492 0.6012046 -0.3753593 0.4062449 0.5227074 -0.7494946 -0.07464301 -0.6280093 0.7746179 -0.3964576 -0.9158031 -0.06423425 -0.3488833 -0.9339393 -0.07770329 -0.2819308 -0.9586311 -0.0392614 0.3973999 0.5067382 -0.7650423 0.2094524 -0.1784247 0.9614023 0.5021136 0.3820614 -0.7758293 0.2215527 -0.07582396 0.9721961 -0.123342 -0.9916732 -0.03702777 0.5030485 0.6218249 -0.6002299 -0.149817 -0.9886089 0.01440137 0.9046537 0.4253361 0.02629047 0.01671016 -0.8980903 -0.4394935 -0.02607542 -0.8860099 -0.4629325 -0.1192087 -0.9235544 -0.3644677 0.0260809 -0.8891711 -0.4568312 -0.1129007 -0.9731937 -0.2003684 -0.1780564 -0.9673954 -0.1801176 -0.2020468 -0.9623885 -0.1816192</float_array>
          <technique_common>
            <accessor source="#Link5_Blue-mesh-normals-array" count="636" stride="3">
              <param name="X" type="float"/>
              <param name="Y" type="float"/>
              <param name="Z" type="float"/>
            </accessor>
          </technique_common>
        </source>
        <vertices id="Link5_Blue-mesh-vertices">
          <input semantic="POSITION" source="#Link5_Blue-mesh-positions"/>
        </vertices>
        <triangles material="blue-material" count="636">
          <input semantic="VERTEX" source="#Link5_Blue-mesh-vertices" offset="0"/>
          <input semantic="NORMAL" source="#Link5_Blue-mesh-normals" offset="1"/>
          <p>0 0 1 0 2 0 3 1 4 1 5 1 6 2 7 2 8 2 9 3 10 3 11 3 12 4 13 4 14 4 15 5 16 5 17 5 16 6 18 6 17 6 19 7 20 7 21 7 22 8 23 8 24 8 25 9 26 9 2 9 27 10 0 10 2 10 26 11 27 11 2 11 27 12 26 12 28 12 29 13 8 13 30 13 30 14 8 14 7 14 31 15 1 15 0 15 32 16 33 16 34 16 25 17 32 17 34 17 1 18 32 18 2 18 32 19 25 19 2 19 35 20 36 20 5 20 37 21 1 21 31 21 3 22 38 22 4 22 38 23 37 23 31 23 37 24 38 24 3 24 36 25 39 25 5 25 39 26 3 26 5 26 40 27 41 27 21 27 42 28 41 28 43 28 44 29 45 29 46 29 47 30 48 30 49 30 50 31 51 31 52 31 53 32 54 32 55 32 54 33 53 33 56 33 57 34 58 34 59 34 60 35 58 35 61 35 60 36 9 36 11 36 62 37 63 37 64 37 65 38 66 38 11 38 66 39 65 39 59 39 66 40 60 40 11 40 60 41 66 41 59 41 67 42 61 42 57 42 68 43 65 43 69 43 70 44 68 44 69 44 65 45 68 45 59 45 70 46 71 46 59 46 51 47 50 47 72 47 71 48 57 48 59 48 71 49 67 49 57 49 71 50 73 50 67 50 73 51 71 51 70 51 74 52 75 52 76 52 77 53 16 53 15 53 78 54 26 54 79 54 26 55 78 55 28 55 80 56 15 56 17 56 81 57 80 57 17 57 82 58 83 58 84 58 85 59 18 59 16 59 83 60 81 60 17 60 18 61 83 61 17 61 86 62 51 62 72 62 87 63 88 63 89 63 87 64 90 64 88 64 50 65 91 65 72 65 91 66 50 66 90 66 92 67 91 67 90 67 93 68 22 68 24 68 94 69 93 69 95 69 93 70 94 70 22 70 96 71 82 71 97 71 98 72 96 72 97 72 99 73 96 73 64 73 100 74 23 74 22 74 101 75 102 75 89 75 102 76 87 76 89 76 103 77 104 77 105 77 106 78 103 78 105 78 103 79 107 79 104 79 108 80 109 80 110 80 10 81 111 81 11 81 112 82 113 82 114 82 115 83 116 83 117 83 118 84 54 84 56 84 118 85 119 85 120 85 116 86 121 86 117 86 121 87 116 87 122 87 123 88 124 88 125 88 126 89 127 89 128 89 125 90 129 90 130 90 127 91 126 91 131 91 124 92 132 92 125 92 115 93 133 93 134 93 135 94 35 94 4 94 115 95 136 95 133 95 136 96 137 96 133 96 136 97 115 97 117 97 4 98 35 98 5 98 137 99 136 99 117 99 138 100 114 100 139 100 35 101 140 101 36 101 140 102 141 102 36 102 114 103 30 103 142 103 135 104 140 104 35 104 47 105 140 105 135 105 141 106 140 106 143 106 140 107 47 107 143 107 37 108 144 108 1 108 32 109 144 109 33 109 144 110 32 110 1 110 30 111 7 111 142 111 41 112 19 112 21 112 41 113 42 113 19 113 51 114 86 114 145 114 116 115 146 115 122 115 147 116 130 116 45 116 121 117 6 117 117 117 117 118 6 118 8 118 6 119 148 119 149 119 150 120 36 120 141 120 148 121 6 121 121 121 151 122 152 122 153 122 47 123 151 123 143 123 151 124 47 124 49 124 150 125 143 125 154 125 122 126 155 126 148 126 148 127 155 127 156 127 143 128 150 128 141 128 157 129 152 129 158 129 152 130 157 130 153 130 117 131 29 131 137 131 159 132 160 132 161 132 162 133 159 133 161 133 163 134 162 134 161 134 162 135 163 135 164 135 164 136 165 136 166 136 167 137 163 137 161 137 137 138 168 138 133 138 169 139 45 139 158 139 45 140 169 140 46 140 169 141 170 141 46 141 29 142 30 142 171 142 172 143 46 143 170 143 74 144 76 144 173 144 8 145 29 145 117 145 48 146 174 146 166 146 175 147 47 147 135 147 130 148 176 148 125 148 138 149 139 149 177 149 138 150 177 150 178 150 179 151 25 151 34 151 26 152 179 152 79 152 25 153 179 153 26 153 180 154 94 154 181 154 82 155 182 155 97 155 30 156 138 156 171 156 171 157 138 157 178 157 7 158 183 158 142 158 184 159 53 159 55 159 7 160 6 160 149 160 183 161 7 161 149 161 50 162 185 162 186 162 52 163 51 163 145 163 52 164 145 164 187 164 188 165 189 165 190 165 60 166 99 166 9 166 9 167 63 167 10 167 189 168 188 168 191 168 99 169 63 169 9 169 116 170 115 170 146 170 63 171 99 171 64 171 146 172 115 172 188 172 192 173 193 173 194 173 195 174 179 174 196 174 10 175 63 175 62 175 103 176 197 176 69 176 197 177 103 177 106 177 198 178 70 178 69 178 199 179 12 179 14 179 200 180 199 180 14 180 201 181 58 181 57 181 196 182 179 182 202 182 61 183 201 183 57 183 58 184 201 184 61 184 203 185 146 185 204 185 205 186 206 186 67 186 167 187 109 187 207 187 206 188 194 188 67 188 208 189 197 189 106 189 208 190 209 190 69 190 197 191 208 191 69 191 210 192 211 192 75 192 210 193 208 193 211 193 149 194 148 194 212 194 208 195 210 195 209 195 211 196 20 196 213 196 20 197 211 197 214 197 42 198 215 198 76 198 214 199 211 199 208 199 216 200 217 200 70 200 216 201 209 201 210 201 198 202 216 202 70 202 205 203 73 203 70 203 20 204 155 204 122 204 68 205 70 205 59 205 21 206 20 206 122 206 73 207 205 207 67 207 213 208 20 208 19 208 155 209 20 209 156 209 213 210 19 210 75 210 74 211 173 211 217 211 74 212 217 212 75 212 78 213 218 213 28 213 28 214 218 214 27 214 131 215 126 215 107 215 84 216 85 216 219 216 128 217 127 217 220 217 221 218 222 218 223 218 87 219 92 219 90 219 137 220 221 220 223 220 168 221 224 221 225 221 226 222 168 222 225 222 224 223 168 223 223 223 50 224 88 224 90 224 91 225 227 225 72 225 227 226 91 226 219 226 227 227 77 227 72 227 77 228 227 228 16 228 85 229 227 229 219 229 227 230 85 230 16 230 168 231 137 231 223 231 181 232 94 232 95 232 30 233 114 233 138 233 171 234 221 234 29 234 221 235 171 235 178 235 23 236 100 236 182 236 223 237 95 237 224 237 228 238 229 238 185 238 230 239 102 239 101 239 23 240 230 240 24 240 230 241 101 241 24 241 182 242 231 242 23 242 231 243 182 243 82 243 232 244 231 244 82 244 102 245 231 245 232 245 185 246 52 246 187 246 233 247 187 247 234 247 104 248 235 248 105 248 233 249 234 249 204 249 190 250 233 250 204 250 107 251 111 251 10 251 233 252 189 252 187 252 103 253 236 253 107 253 237 254 238 254 239 254 238 255 98 255 239 255 98 256 238 256 96 256 96 257 238 257 64 257 240 258 220 258 237 258 189 259 233 259 190 259 191 260 188 260 241 260 235 261 212 261 105 261 212 262 156 262 105 262 156 263 212 263 148 263 242 264 229 264 243 264 244 265 242 265 243 265 245 266 224 266 95 266 246 267 31 267 0 267 244 268 245 268 95 268 27 269 246 269 0 269 245 270 244 270 243 270 246 271 247 271 31 271 123 272 248 272 124 272 245 273 249 273 224 273 245 274 243 274 249 274 129 275 250 275 130 275 157 276 250 276 129 276 251 277 125 277 132 277 251 278 129 278 125 278 251 279 157 279 129 279 188 280 115 280 134 280 19 281 42 281 75 281 193 282 192 282 252 282 251 283 132 283 150 283 253 284 61 284 254 284 255 285 177 285 56 285 178 286 177 286 255 286 97 287 184 287 55 287 97 288 256 288 184 288 36 289 257 289 39 289 257 290 36 290 150 290 39 291 258 291 3 291 258 292 37 292 3 292 258 293 144 293 37 293 144 294 258 294 33 294 258 295 259 295 33 295 257 296 258 296 39 296 260 297 261 297 146 297 262 298 147 298 263 298 261 299 260 299 263 299 262 300 176 300 130 300 44 301 147 301 45 301 260 302 262 302 263 302 264 303 265 303 266 303 265 304 264 304 204 304 264 305 266 305 267 305 268 306 151 306 49 306 269 307 260 307 270 307 165 308 268 308 49 308 269 309 270 309 176 309 152 310 151 310 268 310 267 311 270 311 264 311 270 312 267 312 196 312 271 313 272 313 123 313 153 314 143 314 151 314 109 315 160 315 12 315 160 316 109 316 161 316 160 317 159 317 273 317 123 318 272 318 196 318 202 319 179 319 34 319 274 320 160 320 273 320 160 321 274 321 12 321 174 322 162 322 164 322 145 323 86 323 275 323 174 324 164 324 166 324 48 325 276 325 49 325 276 326 165 326 49 326 165 327 276 327 166 327 276 328 48 328 166 328 275 329 86 329 277 329 146 330 190 330 204 330 109 331 108 331 207 331 163 332 167 332 278 332 165 333 163 333 268 333 163 334 165 334 164 334 279 335 169 335 158 335 152 336 279 336 158 336 278 337 279 337 152 337 279 338 278 338 167 338 170 339 279 339 167 339 169 340 279 340 170 340 161 341 109 341 167 341 124 342 257 342 150 342 207 343 170 343 167 343 207 344 172 344 170 344 142 345 183 345 112 345 20 346 214 346 156 346 211 347 213 347 75 347 118 348 139 348 113 348 127 349 131 349 280 349 175 350 48 350 47 350 131 351 281 351 280 351 48 352 175 352 135 352 282 353 111 353 236 353 179 354 283 354 79 354 80 355 284 355 15 355 284 356 277 356 15 356 284 357 80 357 81 357 78 358 284 358 81 358 284 359 78 359 79 359 283 360 284 360 79 360 77 361 86 361 72 361 86 362 77 362 15 362 277 363 86 363 15 363 285 364 128 364 220 364 286 365 267 365 266 365 267 366 286 366 287 366 94 367 288 367 22 367 180 368 288 368 94 368 288 369 100 369 22 369 182 370 256 370 97 370 289 371 98 371 97 371 55 372 289 372 97 372 98 373 289 373 120 373 289 374 290 374 120 374 289 375 55 375 54 375 290 376 289 376 54 376 221 377 137 377 29 377 134 378 133 378 226 378 120 379 290 379 118 379 118 380 291 380 54 380 291 381 290 381 54 381 290 382 291 382 118 382 53 383 255 383 56 383 58 384 60 384 59 384 133 385 168 385 226 385 225 386 188 386 226 386 225 387 241 387 188 387 209 388 198 388 69 388 95 389 223 389 181 389 216 390 198 390 209 390 231 391 102 391 230 391 228 392 185 392 292 392 12 393 293 393 13 393 274 394 293 394 12 394 229 395 186 395 185 395 193 396 200 396 14 396 50 397 52 397 185 397 294 398 228 398 241 398 228 399 191 399 241 399 295 400 254 400 67 400 145 401 275 401 187 401 194 402 295 402 67 402 185 403 187 403 292 403 187 404 189 404 292 404 192 405 194 405 206 405 228 406 294 406 229 406 229 407 294 407 243 407 44 408 263 408 147 408 263 409 44 409 296 409 75 410 42 410 76 410 93 411 244 411 95 411 242 412 244 412 297 412 297 413 244 413 24 413 42 414 43 414 215 414 296 415 298 415 43 415 244 416 93 416 24 416 298 417 296 417 44 417 298 418 44 418 46 418 249 419 243 419 294 419 146 420 188 420 190 420 249 421 241 421 225 421 215 422 298 422 46 422 172 423 215 423 46 423 298 424 215 424 43 424 224 425 249 425 225 425 217 426 216 426 210 426 253 427 299 427 96 427 96 428 299 428 82 428 299 429 246 429 27 429 299 430 253 430 300 430 299 431 247 431 246 431 205 432 70 432 217 432 299 433 300 433 247 433 299 434 83 434 82 434 218 435 299 435 27 435 173 436 206 436 205 436 83 437 218 437 81 437 83 438 85 438 84 438 83 439 299 439 218 439 85 440 83 440 18 440 192 441 206 441 173 441 88 442 301 442 89 442 301 443 101 443 89 443 217 444 210 444 75 444 41 445 40 445 43 445 228 446 292 446 191 446 84 447 91 447 92 447 40 448 21 448 296 448 91 449 84 449 219 449 300 450 253 450 293 450 102 451 92 451 87 451 253 452 96 452 99 452 92 453 102 453 232 453 60 454 253 454 99 454 253 455 60 455 61 455 302 456 303 456 180 456 302 457 180 457 181 457 293 458 253 458 13 458 13 459 253 459 14 459 253 460 254 460 295 460 253 461 295 461 14 461 226 462 188 462 134 462 255 463 304 463 305 463 304 464 306 464 305 464 306 465 304 465 53 465 304 466 255 466 53 466 256 467 306 467 53 467 184 468 256 468 53 468 285 469 113 469 112 469 306 470 256 470 307 470 256 471 308 471 307 471 309 472 112 472 235 472 305 473 306 473 307 473 104 474 309 474 235 474 309 475 104 475 107 475 128 476 285 476 112 476 309 477 128 477 112 477 128 478 309 478 126 478 310 479 311 479 181 479 236 480 111 480 107 480 311 481 310 481 305 481 111 482 282 482 11 482 282 483 65 483 11 483 65 484 282 484 69 484 282 485 103 485 69 485 282 486 236 486 103 486 280 487 281 487 237 487 281 488 10 488 62 488 182 489 312 489 303 489 220 490 280 490 237 490 127 491 280 491 220 491 262 492 269 492 176 492 261 493 263 493 296 493 113 494 313 494 119 494 313 495 120 495 119 495 120 496 313 496 240 496 285 497 313 497 113 497 313 498 285 498 220 498 240 499 98 499 120 499 21 500 261 500 296 500 98 501 240 501 239 501 240 502 237 502 239 502 261 503 21 503 122 503 146 504 261 504 122 504 139 505 56 505 177 505 262 506 260 506 269 506 314 507 260 507 146 507 270 508 260 508 264 508 122 509 148 509 121 509 264 510 260 510 314 510 247 511 38 511 31 511 204 512 264 512 314 512 174 513 293 513 273 513 293 514 274 514 273 514 270 515 272 515 176 515 272 516 271 516 176 516 283 517 315 517 284 517 123 518 34 518 33 518 283 519 195 519 287 519 315 520 283 520 287 520 275 521 315 521 286 521 315 522 275 522 277 522 187 523 275 523 234 523 259 524 248 524 123 524 265 525 275 525 286 525 275 526 265 526 234 526 203 527 314 527 146 527 203 528 204 528 314 528 250 529 45 529 130 529 265 530 204 530 234 530 38 531 247 531 4 531 247 532 300 532 4 532 45 533 250 533 158 533 250 534 157 534 158 534 132 535 124 535 150 535 172 536 316 536 215 536 317 537 316 537 207 537 207 538 316 538 172 538 252 539 108 539 200 539 108 540 252 540 317 540 108 541 110 541 200 541 248 542 258 542 257 542 110 543 199 543 200 543 248 544 259 544 258 544 199 545 110 545 12 545 110 546 109 546 12 546 207 547 108 547 317 547 262 548 130 548 147 548 251 549 150 549 154 549 248 550 257 550 124 550 183 551 235 551 112 551 183 552 149 552 212 552 183 553 212 553 235 553 251 554 154 554 157 554 214 555 208 555 106 555 214 556 106 556 105 556 156 557 214 557 105 557 139 558 118 558 56 558 118 559 113 559 119 559 240 560 313 560 220 560 154 561 153 561 157 561 143 562 153 562 154 562 281 563 131 563 10 563 318 564 238 564 237 564 238 565 318 565 64 565 174 566 319 566 162 566 319 567 273 567 159 567 162 568 319 568 159 568 318 569 62 569 64 569 319 570 174 570 273 570 281 571 318 571 237 571 318 572 281 572 62 572 268 573 163 573 278 573 131 574 107 574 10 574 268 575 278 575 152 575 126 576 309 576 107 576 142 577 112 577 114 577 114 578 113 578 139 578 223 579 222 579 310 579 316 580 76 580 215 580 181 581 223 581 310 581 231 582 230 582 23 582 4 583 300 583 135 583 300 584 48 584 135 584 48 585 300 585 174 585 300 586 293 586 174 586 242 587 186 587 229 587 271 588 123 588 125 588 195 589 283 589 179 589 265 590 286 590 266 590 284 591 315 591 277 591 286 592 315 592 287 592 50 593 186 593 88 593 92 594 232 594 84 594 84 595 232 595 82 595 123 596 196 596 202 596 34 597 123 597 202 597 292 598 189 598 191 598 294 599 241 599 249 599 186 600 242 600 88 600 259 601 123 601 33 601 242 602 301 602 88 602 176 603 271 603 125 603 242 604 297 604 301 604 301 605 297 605 101 605 101 606 297 606 24 606 218 607 78 607 81 607 272 608 270 608 196 608 252 609 192 609 173 609 267 610 287 610 196 610 173 611 205 611 217 611 40 612 296 612 43 612 287 613 195 613 196 613 194 614 193 614 14 614 295 615 194 615 14 615 252 616 316 616 317 616 100 617 312 617 182 617 288 618 312 618 100 618 312 619 288 619 180 619 303 620 312 620 180 620 316 621 252 621 76 621 256 622 182 622 303 622 76 623 252 623 173 623 308 624 256 624 303 624 308 625 302 625 307 625 252 626 200 626 193 626 302 627 308 627 303 627 67 628 254 628 61 628 178 629 255 629 221 629 305 630 222 630 221 630 305 631 310 631 222 631 255 632 305 632 221 632 311 633 305 633 307 633 302 634 311 634 307 634 311 635 302 635 181 635</p>
        </triangles>
      </mesh>
    </geometry>
    <geometry id="Link5_Grey-mesh" name="Link5 Grey">
      <mesh>
        <source id="Link5_Grey-mesh-positions">
          <float_array id="Link5_Grey-mesh-positions-array" count="393">-0.1121886 1.8771e-4 0.5795027 -0.09384787 -0.02549755 0.5770033 -0.09921121 -0.02858209 0.5770034 -0.09384673 -0.02549558 0.6513101 -0.1121875 1.89697e-4 0.6513097 -0.09921008 -0.02858012 0.6513103 -0.1050733 -0.03056108 0.5770034 -0.1050722 -0.03055912 0.6513103 -0.1112089 -0.03135842 0.5795035 -0.1112077 -0.03135639 0.6513105 -0.117382 -0.03094333 0.582004 -0.1173809 -0.03094136 0.6513106 -0.1233556 -0.02933198 0.5820038 -0.1233544 -0.02933001 0.6513107 -0.1289 -0.02658617 0.5820038 -0.1288989 -0.02658426 0.6513108 -0.1338022 -0.02281147 0.5820038 -0.1338011 -0.02280956 0.6513108 -0.1378739 -0.01815295 0.5820038 -0.1378728 -0.01815098 0.6513106 -0.1409584 -0.01278954 0.5820037 -0.1409573 -0.01278764 0.6513106 -0.1429374 -0.00692749 0.5820036 -0.1429362 -0.006925523 0.6513103 -0.1437347 -7.91982e-4 0.5820034 -0.1437335 -7.90071e-4 0.6513102 -0.1433197 0.005381166 0.5820031 -0.1433185 0.005383074 0.65131 -0.1417083 0.01135474 0.5820031 -0.1417072 0.01135665 0.6513099 -0.1389625 0.01689922 0.5820028 -0.1389614 0.01690113 0.6513098 -0.1351878 0.02180141 0.5820026 -0.1351867 0.02180337 0.6513095 -0.1305293 0.02587306 0.5820023 -0.1305282 0.02587497 0.651309 -0.1251659 0.0289576 0.5820024 -0.1251648 0.02895957 0.651309 -0.1193038 0.03093659 0.5820023 -0.1193027 0.0309385 0.651309 -0.1131684 0.03173375 0.5795019 -0.1131672 0.03173577 0.6513089 -0.1069952 0.03131884 0.577002 -0.106994 0.03132075 0.6513087 -0.1010216 0.02970743 0.5770019 -0.1010205 0.02970939 0.6513085 -0.09547716 0.02696162 0.5770016 -0.09547597 0.02696365 0.6513087 -0.09057492 0.02318692 0.5745016 -0.09057378 0.02318894 0.6513087 -0.08650332 0.01852846 0.5745018 -0.08650213 0.01853036 0.6513087 -0.08341884 0.01316505 0.5732519 -0.08341759 0.01316702 0.6513089 -0.08143979 0.00730288 0.5720019 -0.0814386 0.007304966 0.6513089 -0.08064258 0.001167416 0.5720021 -0.08064132 0.001169443 0.651309 -0.08105754 -0.005005598 0.5720024 -0.08105635 -0.00500369 0.6513093 -0.0826689 -0.01097935 0.5732527 -0.0826677 -0.01097726 0.6513093 -0.08541464 -0.01652371 0.5745025 -0.08541345 -0.01652175 0.6513097 -0.08918935 -0.02142596 0.574503 -0.08918815 -0.02142393 0.65131 -0.07523548 4.1239e-5 0.6089117 -0.07523649 -0.02671194 0.592634 -0.07523661 -0.02302217 0.5877274 -0.1102343 -0.02671205 0.5926337 -0.1102343 -0.02302235 0.5877273 -0.07523667 -0.0184462 0.5836349 -0.1102346 -0.01844638 0.5836346 -0.07523667 -0.01315969 0.580514 -0.1102344 -0.01315999 0.5805136 -0.07523661 -0.007366001 0.5784842 -0.1102344 -0.007366001 0.5784842 -0.07523655 -0.001287519 0.5776239 -0.1102344 -0.001287877 0.5776234 -0.07523649 0.004841923 0.5779657 -0.1102342 0.004841983 0.5779653 -0.07523632 0.01078695 0.5794968 -0.1102339 0.01078659 0.5794969 -0.07523626 0.01631903 0.5821586 -0.110234 0.01631897 0.5821583 -0.07523602 0.02122551 0.5858483 -0.1102337 0.02122533 0.585848 -0.07523578 0.02531796 0.5904241 -0.1102336 0.02531802 0.5904241 -0.07523554 0.02843898 0.5957108 -0.1102332 0.02843874 0.5957108 -0.07523536 0.0304687 0.6015046 -0.1102331 0.0304684 0.6015041 -0.07523518 0.03132909 0.6075829 -0.1102328 0.03132903 0.6075829 -0.07523494 0.0309872 0.6137124 -0.1102326 0.03098696 0.6137123 -0.07523471 0.02945595 0.6196574 -0.1102324 0.02945595 0.6196572 -0.07523453 0.02679443 0.6251896 -0.1102322 0.02679425 0.6251894 -0.07523453 0.0231046 0.630096 -0.1102322 0.02310454 0.630096 -0.07523429 0.01852864 0.6341884 -0.1102321 0.01852846 0.634188 -0.07523435 0.01324218 0.6373093 -0.110232 0.01324194 0.6373093 -0.07523435 0.007448375 0.6393391 -0.110232 0.007448375 0.639339 -0.07523435 0.001369953 0.6401996 -0.1102319 0.001369833 0.6401996 -0.07523441 -0.00475955 0.6398576 -0.1102321 -0.004759669 0.6398574 -0.07523459 -0.01070445 0.6383264 -0.1102321 -0.01070469 0.6383265 -0.07523477 -0.0162366 0.6356648 -0.1102324 -0.01623666 0.6356645 -0.075235 -0.02114313 0.6319751 -0.1102325 -0.02114319 0.6319749 -0.07523512 -0.02523547 0.6273992 -0.1102329 -0.02523541 0.6273992 -0.07523542 -0.02835649 0.6221128 -0.1102333 -0.02835667 0.6221124 -0.0752356 -0.03038632 0.6163188 -0.1102331 -0.0303868 0.6163184 -0.0752359 -0.03124666 0.6102403 -0.1102336 -0.0312469 0.6102402 -0.07523596 -0.03090476 0.604111 -0.1102337 -0.03090506 0.6041109 -0.07523632 -0.02937352 0.5981659 -0.110234 -0.02937358 0.598166</float_array>
          <technique_common>
            <accessor source="#Link5_Grey-mesh-positions-array" count="131" stride="3">
              <param name="X" type="float"/>
              <param name="Y" type="float"/>
              <param name="Z" type="float"/>
            </accessor>
          </technique_common>
        </source>
        <source id="Link5_Grey-mesh-normals">
          <float_array id="Link5_Grey-mesh-normals-array" count="672">-0.03956449 0.06874787 -0.9968492 0 2.67463e-5 1 0.4985512 -0.8668603 1.46233e-5 0.4985461 -0.8668632 1.51402e-5 -0.02537697 0.07515782 -0.9968487 1.91696e-5 2.01622e-5 1 0.3198513 -0.9474679 2.00042e-5 0.3198511 -0.9474679 1.98878e-5 -0.3760195 -0.01170164 -0.9265379 3.83392e-5 2.31832e-5 1 0.1288867 -0.9916594 2.41187e-5 0.1288623 -0.9916625 2.62234e-5 -0.3760834 -0.01170307 -0.9265119 1.91696e-5 2.36223e-5 1 -0.06708478 -0.9977473 2.95443e-5 -0.06707668 -0.9977479 2.89198e-5 -0.02065229 -0.0766465 -0.9968445 1.91697e-5 2.58898e-5 1 -0.2604377 -0.9654906 3.12209e-5 -0.260438 -0.9654906 3.10407e-5 -0.03522413 -0.07113385 -0.9968447 3.83393e-5 2.0359e-5 1 -0.4437931 -0.8961293 3.21709e-5 -0.4437922 -0.8961297 3.20222e-5 -0.04842996 -0.06289452 -0.9968445 9.58483e-6 2.70644e-5 1 -0.6100913 -0.7923313 3.19336e-5 -0.6100919 -0.7923308 3.21327e-5 -0.05977118 -0.05223822 -0.9968443 9.58479e-6 4.23665e-5 1 -0.7529417 -0.6580872 3.07456e-5 -0.7529442 -0.6580845 3.07348e-5 -0.06879532 -0.03958994 -0.996845 9.58486e-6 2.20693e-5 1 -0.8668627 -0.4985471 2.81327e-5 -0.8668639 -0.4985451 2.82378e-5 -0.07519948 -0.02540546 -0.9968448 9.58478e-6 5.2618e-5 1 -0.9474686 -0.3198488 2.46882e-5 -0.9474686 -0.3198489 2.43369e-5 -0.07870131 -0.01026588 -0.9968454 1.73725e-5 1.1632e-5 1 -0.991662 -0.1288672 1.97751e-5 -0.9916631 -0.1288583 2.01838e-5 -0.07918381 0.005284607 -0.996846 1.43772e-5 3.76843e-5 1 -0.9977478 0.0670765 1.48829e-5 -0.9977482 0.06707209 1.4872e-5 -0.07661575 0.02066773 -0.9968465 9.58482e-6 1.71198e-5 1 -0.9654893 0.2604427 8.96747e-6 -0.9654913 0.2604356 8.38181e-6 -0.07113403 0.03516346 -0.9968469 1.91696e-5 7.36974e-6 1 -0.8961319 0.4437879 2.2228e-6 -0.8961262 0.4437994 2.75564e-6 -0.06287401 0.04839181 -0.9968476 1.91697e-5 3.99021e-5 1 -0.7923269 0.6100969 -3.56323e-6 -0.7923363 0.6100847 -4.28098e-6 -0.05225646 0.05969697 -0.9968478 3.83393e-5 6.2149e-5 1 -0.6580854 0.7529433 -1.03843e-5 -0.658082 0.7529464 -1.00028e-5 -0.0395286 0.0687794 -0.9968485 -1.91696e-5 1.97403e-5 1 -0.4985464 0.866863 -1.58141e-5 -0.4985461 0.8668633 -1.57239e-5 -0.0253961 0.07515811 -0.9968482 0 2.55561e-5 1 -0.3198508 0.9474679 -2.09724e-5 -0.3198518 0.9474676 -2.09476e-5 -0.376048 -0.01170247 -0.9265263 1.91696e-5 2.66464e-5 1 -0.1288599 0.9916629 -2.53162e-5 -0.128861 0.9916627 -2.56653e-5 -0.37603 -0.01170068 -0.9265336 1.91697e-5 2.77095e-5 1 0.06705451 0.9977494 -2.89543e-5 0.06707477 0.997748 -2.73202e-5 -0.02065879 -0.07662355 -0.9968461 1.91696e-5 2.97936e-5 1 0.2604389 0.9654904 -2.93733e-5 0.260439 0.9654903 -2.94846e-5 -0.03526949 -0.07111138 -0.9968447 0 4.08614e-5 1 0.4437969 0.8961274 -3.04496e-5 0.4437925 0.8961296 -3.09326e-5 -0.3621841 0.1399747 -0.9215368 2.87545e-5 2.70646e-5 1 0.6100838 0.792337 -3.07658e-5 0.6100926 0.7923302 -3.00666e-5 -0.1183712 -0.1034921 -0.9875615 1.91696e-5 2.24788e-5 1 0.75294 0.6580892 -2.87238e-5 0.7529448 0.6580837 -2.82069e-5 -0.2471392 0.08285939 -0.9654309 0 4.85417e-5 1 0.866865 0.4985431 -2.59827e-5 0.8668633 0.4985461 -2.65313e-5 -0.2607013 0.1163313 -0.958385 3.35469e-5 8.49758e-6 1 0.9474651 0.3198594 -2.32988e-5 0.9474685 0.3198493 -2.24807e-5 -0.2303366 -0.02994841 -0.9726502 1.85706e-5 2.22857e-5 1 0.9916635 0.1288549 -1.81093e-5 0.991662 0.1288661 -1.88956e-5 -0.2317487 0.0155217 -0.9726519 2.15659e-5 4.68508e-5 1 0.9977487 -0.06706553 -1.40588e-5 0.9977477 -0.06708008 -1.32723e-5 -0.2529742 -0.132344 -0.9583784 1.43773e-5 -3.45955e-6 1 0.9654899 -0.2604405 -8.08123e-6 0.9654905 -0.2604385 -8.41849e-6 -0.241504 -0.09804123 -0.9654345 3.83392e-5 5.74835e-5 1 0.8961333 -0.443785 -2.47082e-6 0.8961292 -0.4437934 -1.8854e-6 -0.1246068 0.09585058 -0.9875657 1.91696e-5 3.28478e-5 1 0.7923305 -0.6100922 3.98081e-6 0.7923315 -0.6100909 3.93817e-6 -0.352783 -0.1622387 -0.9215329 0 1.98237e-5 1 0.65808 -0.7529482 9.76839e-6 0.6580858 -0.7529429 9.14639e-6 1 -1.76453e-5 -3.3228e-5 6.50218e-6 -0.799221 -0.6010373 4.33465e-6 -0.7992337 -0.6010205 1 -1.27779e-5 -3.93036e-5 4.33462e-6 -0.6666533 -0.745368 8.66934e-6 -0.6666343 -0.745385 1 -2.40345e-5 -3.08825e-5 8.66946e-6 -0.5083935 -0.8611249 1.08369e-5 -0.5083732 -0.8611369 1 -1.96233e-5 -3.30148e-5 1.3004e-5 -0.3305731 -0.9437805 0 -0.3306377 -0.9437578 1 -1.73414e-5 -3.38569e-5 0 -0.140225 -0.9901197 1.51714e-5 -0.1401415 -0.9901315 1 -5.95159e-6 -3.41968e-5 1.30032e-5 0.05569732 -0.9984478 1.30041e-5 0.05569159 -0.9984481 1 -2.16768e-5 -3.63909e-5 1.51722e-5 0.2494877 -0.9683781 -2.16737e-6 0.2493991 -0.9684008 1 2.1296e-6 -2.74755e-5 -4.33456e-6 0.4335159 -0.9011459 4.33462e-6 0.433571 -0.9011194 1 -2.03835e-5 -4.1423e-5 6.50224e-6 0.6010305 -0.7992262 2.16735e-6 0.6010327 -0.7992246 1 -1.42994e-5 -3.59056e-5 2.16728e-6 0.7453814 -0.6666383 2.1674e-6 0.7453771 -0.6666431 1 -1.18649e-5 -3.34064e-5 1.08367e-6 0.8611565 -0.50834 -6.50197e-6 0.8611357 -0.5083751 1 -1.06482e-5 -2.74101e-5 -7.58631e-6 0.9437565 -0.3306416 -3.25102e-6 0.9437623 -0.3306252 1 -1.15613e-5 -3.39279e-5 -6.50161e-6 0.9901258 -0.1401822 -2.16739e-6 0.9901296 -0.1401552 1 -1.12566e-5 -3.22378e-5 -1.89648e-6 0.9984462 0.05572623 -7.72124e-6 0.998448 0.05569475 1 -9.73567e-6 -4.26187e-5 -7.58596e-6 0.9684021 0.2493944 -2.16737e-6 0.968393 0.2494295 1 -9.73523e-6 -4.1291e-5 -3.25095e-6 0.9011266 0.433556 -5.41834e-6 0.9011352 0.4335385 1 -2.43388e-5 -1.82484e-5 -6.50204e-6 0.7992314 0.6010234 -2.16737e-6 0.7992197 0.6010391 1 6.38891e-6 -5.13716e-5 -2.16743e-6 0.6665823 0.7454316 -1.3004e-5 0.6666252 0.7453931 1 -3.20973e-5 -2.48136e-5 -1.51711e-5 0.5084267 0.8611053 -2.1674e-6 0.5083788 0.8611336 1 -9.27918e-6 -3.44205e-5 -2.16743e-6 0.3306348 0.9437588 -2.16734e-6 0.3306316 0.9437599 1 -5.62834e-6 -3.4929e-5 0 0.140168 0.9901278 0 0.1401708 0.9901275 1 -4.71563e-6 -3.50682e-5 4.33469e-6 -0.0557298 0.9984459 -8.66942e-6 -0.05571073 0.998447 1 -1.97756e-5 -3.75932e-5 -4.33478e-6 -0.2493727 0.9684077 8.66956e-6 -0.2494201 0.9683955 1 -1.12565e-5 -3.4005e-5 6.50194e-6 -0.4336185 0.9010967 -1.08367e-5 -0.4335483 0.9011304 1 -2.31219e-5 -4.17363e-5 -4.33478e-6 -0.6010041 0.7992459 -2.16736e-6 -0.6010211 0.7992331 1 -2.73814e-6 -2.24146e-5 -4.33496e-6 -0.7453891 0.6666296 2.16738e-6 -0.7453997 0.6666178 1 -1.55164e-5 -4.22553e-5 2.16722e-6 -0.8611266 0.5083908 -3.25108e-6 -0.8611199 0.5084022 1 -1.03435e-5 -2.74089e-5 -1.08361e-6 -0.9437435 0.3306783 8.66917e-6 -0.9437612 0.3306282 1 -1.52116e-5 -4.81455e-5 1.24629e-5 -0.9901372 0.1401019 4.3347e-6 -0.9901308 0.1401472 1 -1.33868e-5 -1.29037e-5 5.41862e-6 -0.9984488 -0.05567824 9.07599e-6 -0.9984478 -0.05569565 1 -6.08449e-6 -5.80439e-5 8.12762e-6 -0.9683827 -0.2494698 5.41831e-7 -0.9683943 -0.2494245 1 -1.18654e-5 -4.33719e-5 -1.08364e-6 -0.9011415 -0.4335253 8.66959e-6 -0.9011222 -0.4335653</float_array>
          <technique_common>
            <accessor source="#Link5_Grey-mesh-normals-array" count="224" stride="3">
              <param name="X" type="float"/>
              <param name="Y" type="float"/>
              <param name="Z" type="float"/>
            </accessor>
          </technique_common>
        </source>
        <vertices id="Link5_Grey-mesh-vertices">
          <input semantic="POSITION" source="#Link5_Grey-mesh-positions"/>
        </vertices>
        <triangles material="grey-material" count="224">
          <input semantic="VERTEX" source="#Link5_Grey-mesh-vertices" offset="0"/>
          <input semantic="NORMAL" source="#Link5_Grey-mesh-normals" offset="1"/>
          <p>0 0 1 0 2 0 3 1 4 1 5 1 1 2 3 2 2 2 3 3 5 3 2 3 0 4 2 4 6 4 5 5 4 5 7 5 2 6 5 6 6 6 5 7 7 7 6 7 0 8 6 8 8 8 7 9 4 9 9 9 6 10 7 10 8 10 7 11 9 11 8 11 0 12 8 12 10 12 9 13 4 13 11 13 8 14 9 14 10 14 9 15 11 15 10 15 0 16 10 16 12 16 11 17 4 17 13 17 10 18 11 18 12 18 11 19 13 19 12 19 0 20 12 20 14 20 13 21 4 21 15 21 12 22 13 22 14 22 13 23 15 23 14 23 0 24 14 24 16 24 15 25 4 25 17 25 14 26 15 26 16 26 15 27 17 27 16 27 0 28 16 28 18 28 17 29 4 29 19 29 16 30 17 30 18 30 17 31 19 31 18 31 0 32 18 32 20 32 19 33 4 33 21 33 18 34 19 34 20 34 19 35 21 35 20 35 0 36 20 36 22 36 21 37 4 37 23 37 20 38 21 38 22 38 21 39 23 39 22 39 0 40 22 40 24 40 23 41 4 41 25 41 22 42 23 42 24 42 23 43 25 43 24 43 0 44 24 44 26 44 25 45 4 45 27 45 24 46 25 46 26 46 25 47 27 47 26 47 0 48 26 48 28 48 27 49 4 49 29 49 26 50 27 50 28 50 27 51 29 51 28 51 0 52 28 52 30 52 29 53 4 53 31 53 28 54 29 54 30 54 29 55 31 55 30 55 0 56 30 56 32 56 31 57 4 57 33 57 30 58 31 58 32 58 31 59 33 59 32 59 0 60 32 60 34 60 33 61 4 61 35 61 32 62 33 62 34 62 33 63 35 63 34 63 0 64 34 64 36 64 35 65 4 65 37 65 34 66 35 66 36 66 35 67 37 67 36 67 0 68 36 68 38 68 37 69 4 69 39 69 36 70 37 70 38 70 37 71 39 71 38 71 0 72 38 72 40 72 39 73 4 73 41 73 38 74 39 74 40 74 39 75 41 75 40 75 0 76 40 76 42 76 41 77 4 77 43 77 40 78 41 78 42 78 41 79 43 79 42 79 0 80 42 80 44 80 43 81 4 81 45 81 42 82 43 82 44 82 43 83 45 83 44 83 0 84 44 84 46 84 45 85 4 85 47 85 44 86 45 86 46 86 45 87 47 87 46 87 0 88 46 88 48 88 47 89 4 89 49 89 46 90 47 90 48 90 47 91 49 91 48 91 0 92 48 92 50 92 49 93 4 93 51 93 48 94 49 94 50 94 49 95 51 95 50 95 0 96 50 96 52 96 51 97 4 97 53 97 50 98 51 98 52 98 51 99 53 99 52 99 0 100 52 100 54 100 53 101 4 101 55 101 52 102 53 102 54 102 53 103 55 103 54 103 0 104 54 104 56 104 55 105 4 105 57 105 54 106 55 106 56 106 55 107 57 107 56 107 0 108 56 108 58 108 57 109 4 109 59 109 56 110 57 110 58 110 57 111 59 111 58 111 0 112 58 112 60 112 59 113 4 113 61 113 58 114 59 114 60 114 59 115 61 115 60 115 0 116 60 116 62 116 61 117 4 117 63 117 60 118 61 118 62 118 61 119 63 119 62 119 0 120 62 120 64 120 63 121 4 121 65 121 62 122 63 122 64 122 63 123 65 123 64 123 0 124 64 124 1 124 65 125 4 125 3 125 64 126 65 126 1 126 65 127 3 127 1 127 66 128 67 128 68 128 67 129 69 129 70 129 68 130 67 130 70 130 66 131 68 131 71 131 68 132 70 132 72 132 71 133 68 133 72 133 66 134 71 134 73 134 71 135 72 135 74 135 73 136 71 136 74 136 66 137 73 137 75 137 73 138 74 138 76 138 75 139 73 139 76 139 66 140 75 140 77 140 75 141 76 141 78 141 77 142 75 142 78 142 66 143 77 143 79 143 77 144 78 144 80 144 79 145 77 145 80 145 66 146 79 146 81 146 79 147 80 147 82 147 81 148 79 148 82 148 66 149 81 149 83 149 81 150 82 150 84 150 83 151 81 151 84 151 66 152 83 152 85 152 83 153 84 153 86 153 85 154 83 154 86 154 66 155 85 155 87 155 85 156 86 156 88 156 87 157 85 157 88 157 66 158 87 158 89 158 87 159 88 159 90 159 89 160 87 160 90 160 66 161 89 161 91 161 89 162 90 162 92 162 91 163 89 163 92 163 66 164 91 164 93 164 91 165 92 165 94 165 93 166 91 166 94 166 66 167 93 167 95 167 93 168 94 168 96 168 95 169 93 169 96 169 66 170 95 170 97 170 95 171 96 171 98 171 97 172 95 172 98 172 66 173 97 173 99 173 97 174 98 174 100 174 99 175 97 175 100 175 66 176 99 176 101 176 99 177 100 177 102 177 101 178 99 178 102 178 66 179 101 179 103 179 101 180 102 180 104 180 103 181 101 181 104 181 66 182 103 182 105 182 103 183 104 183 106 183 105 184 103 184 106 184 66 185 105 185 107 185 105 186 106 186 108 186 107 187 105 187 108 187 66 188 107 188 109 188 107 189 108 189 110 189 109 190 107 190 110 190 66 191 109 191 111 191 109 192 110 192 112 192 111 193 109 193 112 193 66 194 111 194 113 194 111 195 112 195 114 195 113 196 111 196 114 196 66 197 113 197 115 197 113 198 114 198 116 198 115 199 113 199 116 199 66 200 115 200 117 200 115 201 116 201 118 201 117 202 115 202 118 202 66 203 117 203 119 203 117 204 118 204 120 204 119 205 117 205 120 205 66 206 119 206 121 206 119 207 120 207 122 207 121 208 119 208 122 208 66 209 121 209 123 209 121 210 122 210 124 210 123 211 121 211 124 211 66 212 123 212 125 212 123 213 124 213 126 213 125 214 123 214 126 214 66 215 125 215 127 215 125 216 126 216 128 216 127 217 125 217 128 217 66 218 127 218 129 218 127 219 128 219 130 219 129 220 127 220 130 220 66 221 129 221 67 221 129 222 130 222 69 222 67 223 129 223 69 223</p>
        </triangles>
      </mesh>
    </geometry>
  </library_geometries>
  <library_controllers/>
  <library_visual_scenes>
    <visual_scene id="Scene" name="Scene">
      <node id="Camera" name="Camera" type="NODE">
        <matrix sid="transform">0.6859207 -0.3240135 0.6515582 7.481132 0.7276763 0.3054208 -0.6141704 -6.50764 0 0.8953956 0.4452714 5.343665 0 0 0 1</matrix>
        <instance_camera url="#Camera-camera"/>
      </node>
      <node id="Lamp" name="Lamp" type="NODE">
        <matrix sid="transform">-0.2908646 -0.7711008 0.5663932 4.076245 0.9551712 -0.1998834 0.2183912 1.005454 -0.05518906 0.6045247 0.7946723 5.903862 0 0 0 1</matrix>
        <instance_light url="#Lamp-light"/>
      </node>
      <node id="Link5_Black" name="Link5_Black" type="NODE">
        <matrix sid="transform">1 0 0 0 0 1 0 0 0 0 1 0 0 0 0 1</matrix>
        <instance_geometry url="#Link5_Black-mesh" name="Link5_Black">
          <bind_material>
            <technique_common>
              <instance_material symbol="black-material" target="#black-material"/>
            </technique_common>
          </bind_material>
        </instance_geometry>
      </node>
      <node id="Link5_Blue" name="Link5_Blue" type="NODE">
        <matrix sid="transform">1 0 0 0 0 1 0 0 0 0 1 0 0 0 0 1</matrix>
        <instance_geometry url="#Link5_Blue-mesh" name="Link5_Blue">
          <bind_material>
            <technique_common>
              <instance_material symbol="blue-material" target="#blue-material"/>
            </technique_common>
          </bind_material>
        </instance_geometry>
      </node>
      <node id="Link5_Grey" name="Link5_Grey" type="NODE">
        <matrix sid="transform">1 0 0 0 0 1 0 0 0 0 1 0 0 0 0 1</matrix>
        <instance_geometry url="#Link5_Grey-mesh" name="Link5_Grey">
          <bind_material>
            <technique_common>
              <instance_material symbol="grey-material" target="#grey-material"/>
            </technique_common>
          </bind_material>
        </instance_geometry>
      </node>
    </visual_scene>
  </library_visual_scenes>
  <scene>
    <instance_visual_scene url="#Scene"/>
  </scene>
</COLLADA>