<?xml version="1.0" encoding="utf-8"?>
<COLLADA xmlns="http://www.collada.org/2005/11/COLLADASchema" version="1.4.1" xmlns:xsi="http://www.w3.org/2001/XMLSchema-instance">
  <asset>
    <contributor>
      <author>Blender User</author>
      <authoring_tool>Blender 2.79.0 commit date:2018-03-22, commit time:14:10, hash:f4dc9f9d68b</authoring_tool>
    </contributor>
    <created>2019-08-13T11:35:23</created>
    <modified>2019-08-13T11:35:23</modified>
    <unit name="meter" meter="1"/>
    <up_axis>Z_UP</up_axis>
  </asset>
  <library_cameras>
    <camera id="Camera-camera" name="Camera">
      <optics>
        <technique_common>
          <perspective>
            <xfov sid="xfov">49.13434</xfov>
            <aspect_ratio>1.777778</aspect_ratio>
            <znear sid="znear">0.1</znear>
            <zfar sid="zfar">100</zfar>
          </perspective>
        </technique_common>
      </optics>
      <extra>
        <technique profile="blender">
          <shiftx sid="shiftx" type="float">0</shiftx>
          <shifty sid="shifty" type="float">0</shifty>
          <YF_dofdist sid="YF_dofdist" type="float">0</YF_dofdist>
        </technique>
      </extra>
    </camera>
  </library_cameras>
  <library_lights>
    <light id="Lamp-light" name="Lamp">
      <technique_common>
        <point>
          <color sid="color">1 1 1</color>
          <constant_attenuation>1</constant_attenuation>
          <linear_attenuation>0</linear_attenuation>
          <quadratic_attenuation>0.00111109</quadratic_attenuation>
        </point>
      </technique_common>
      <extra>
        <technique profile="blender">
          <type sid="type" type="int">0</type>
          <flag sid="flag" type="int">0</flag>
          <mode sid="mode" type="int">8192</mode>
          <gamma sid="blender_gamma" type="float">1</gamma>
          <red sid="red" type="float">1</red>
          <green sid="green" type="float">1</green>
          <blue sid="blue" type="float">1</blue>
          <shadow_r sid="blender_shadow_r" type="float">0</shadow_r>
          <shadow_g sid="blender_shadow_g" type="float">0</shadow_g>
          <shadow_b sid="blender_shadow_b" type="float">0</shadow_b>
          <energy sid="blender_energy" type="float">1</energy>
          <dist sid="blender_dist" type="float">29.99998</dist>
          <spotsize sid="spotsize" type="float">75</spotsize>
          <spotblend sid="spotblend" type="float">0.15</spotblend>
          <halo_intensity sid="blnder_halo_intensity" type="float">1</halo_intensity>
          <att1 sid="att1" type="float">0</att1>
          <att2 sid="att2" type="float">1</att2>
          <falloff_type sid="falloff_type" type="int">2</falloff_type>
          <clipsta sid="clipsta" type="float">1.000799</clipsta>
          <clipend sid="clipend" type="float">30.002</clipend>
          <bias sid="bias" type="float">1</bias>
          <soft sid="soft" type="float">3</soft>
          <compressthresh sid="compressthresh" type="float">0.04999995</compressthresh>
          <bufsize sid="bufsize" type="int">2880</bufsize>
          <samp sid="samp" type="int">3</samp>
          <buffers sid="buffers" type="int">1</buffers>
          <filtertype sid="filtertype" type="int">0</filtertype>
          <bufflag sid="bufflag" type="int">0</bufflag>
          <buftype sid="buftype" type="int">2</buftype>
          <ray_samp sid="ray_samp" type="int">1</ray_samp>
          <ray_sampy sid="ray_sampy" type="int">1</ray_sampy>
          <ray_sampz sid="ray_sampz" type="int">1</ray_sampz>
          <ray_samp_type sid="ray_samp_type" type="int">0</ray_samp_type>
          <area_shape sid="area_shape" type="int">1</area_shape>
          <area_size sid="area_size" type="float">0.1</area_size>
          <area_sizey sid="area_sizey" type="float">0.1</area_sizey>
          <area_sizez sid="area_sizez" type="float">1</area_sizez>
          <adapt_thresh sid="adapt_thresh" type="float">0.000999987</adapt_thresh>
          <ray_samp_method sid="ray_samp_method" type="int">1</ray_samp_method>
          <shadhalostep sid="shadhalostep" type="int">0</shadhalostep>
          <sun_effect_type sid="sun_effect_type" type="int">0</sun_effect_type>
          <skyblendtype sid="skyblendtype" type="int">1</skyblendtype>
          <horizon_brightness sid="horizon_brightness" type="float">1</horizon_brightness>
          <spread sid="spread" type="float">1</spread>
          <sun_brightness sid="sun_brightness" type="float">1</sun_brightness>
          <sun_size sid="sun_size" type="float">1</sun_size>
          <backscattered_light sid="backscattered_light" type="float">1</backscattered_light>
          <sun_intensity sid="sun_intensity" type="float">1</sun_intensity>
          <atm_turbidity sid="atm_turbidity" type="float">2</atm_turbidity>
          <atm_extinction_factor sid="atm_extinction_factor" type="float">1</atm_extinction_factor>
          <atm_distance_factor sid="atm_distance_factor" type="float">1</atm_distance_factor>
          <skyblendfac sid="skyblendfac" type="float">1</skyblendfac>
          <sky_exposure sid="sky_exposure" type="float">1</sky_exposure>
          <sky_colorspace sid="sky_colorspace" type="int">0</sky_colorspace>
        </technique>
      </extra>
    </light>
  </library_lights>
  <library_images/>
  <library_effects>
    <effect id="black-effect">
      <profile_COMMON>
        <technique sid="common">
          <phong>
             <emission>
              <color sid="emission">0 0 0 1</color>
            </emission>
            <ambient>
              <color sid="ambient">0.1 0.1 0.1 1</color>
            </ambient>
            <diffuse>
              <color sid="diffuse">0.1 0.1 0.1 1</color>
            </diffuse>
            <specular>
              <color sid="specular">0.01 0.01 0.01 1</color>
            </specular>
            <shininess>
              <float sid="shininess">50</float>
            </shininess>
            <index_of_refraction>
              <float sid="index_of_refraction">1</float>
            </index_of_refraction>
          </phong>
        </technique>
      </profile_COMMON>
    </effect>
  </library_effects>
  <library_materials>
    <material id="black-material" name="black">
      <instance_effect url="#black-effect"/>
    </material>
  </library_materials>
  <library_geometries>
    <geometry id="Link5-mesh" name="Link5">
      <mesh>
        <source id="Link5-mesh-positions">
          <float_array id="Link5-mesh-positions-array" count="1170">0.00599873 -0.1761754 0.3004755 0.005998671 -0.1815221 0.3005692 0.005998551 -0.1788415 0.3009299 0.005998671 -0.1834074 0.2998032 0.00599879 -0.1737655 0.2992473 0.005998849 -0.1850422 0.2985913 0.005998671 -0.186401 0.2970764 0.005998909 -0.1873389 0.2952706 0.005999088 -0.1879473 0.2926353 0.006000041 -0.1412143 0.2719935 0.006000161 -0.1879992 0.2719924 0.009999036 -0.1877687 0.2936372 0.009998857 -0.1867443 0.2964897 0.009998738 -0.1850423 0.2985916 0.009998619 -0.1827911 0.3000909 0.009998619 -0.1801954 0.3008513 0.009998559 -0.1774911 0.3008039 0.009998679 -0.1746476 0.2997546 0.01000136 -0.1879997 0.252102 0.01000034 -0.1400429 0.2706915 0.01000058 -0.1380276 0.2652105 0.01000052 -0.1384969 0.2679671 0.0100007 -0.1384295 0.2624436 0.01000094 -0.1396636 0.2599347 0.01000088 -0.1416101 0.2579274 0.01000112 -0.1440801 0.2566169 0.01000124 -0.1457901 0.2558538 0.01000118 -0.1467644 0.2544324 0.01000148 -0.1469929 0.2521011 -0.009998917 -0.1427937 0.2571743 -0.009998798 -0.1451105 0.2562389 -0.009999036 -0.1405583 0.2588537 -0.009999096 -0.1389482 0.2611396 -0.009999394 -0.1381199 0.2638102 -0.009999573 -0.1381542 0.2666061 -0.009999573 -0.1390472 0.2692557 -0.009999811 -0.1407126 0.2715017 -0.005999743 -0.1412143 0.2719928 -0.005999743 -0.1879993 0.2719919 -0.01000094 -0.1879475 0.2926344 -0.006000816 -0.1879474 0.2926346 -0.009998559 -0.1879997 0.252101 -0.009998738 -0.1469419 0.253872 -0.009998679 -0.1469928 0.2521 -0.009998857 -0.1463456 0.2553027 1.12143e-6 -0.1453623 0.2561213 1.14378e-6 -0.1463215 0.2553754 1.20339e-6 -0.1468558 0.2542836 -0.01000142 -0.1771685 0.3006958 -0.0100013 -0.1839734 0.2994255 -0.01000154 -0.181185 0.3006136 -0.01000118 -0.1737655 0.2992465 -0.01000118 -0.1859729 0.297604 -0.010001 -0.1873389 0.2952696 -0.006001234 -0.1746476 0.2997537 -0.006001234 -0.1830741 0.2999014 -0.006001234 -0.1774911 0.300803 -0.006001234 -0.1801956 0.3008505 -0.006001234 -0.1859729 0.2976043 -0.006001055 -0.187339 0.2952699 4.53759e-4 -0.183982 0.2491133 8.30311e-4 -0.1839361 0.2521135 -2.38534e-4 -0.1839975 0.2521133 -0.002350866 -0.1835033 0.2491132 -0.001642227 -0.1837532 0.2521132 -0.003400623 -0.1829104 0.2521127 0.005459547 -0.1804733 0.2476426 0.005246102 -0.1808712 0.2491117 0.005045115 -0.1812289 0.2484922 -7.548e-4 -0.1839516 0.2491134 -0.00359857 -0.1828088 0.2491044 -0.004451334 -0.1820166 0.2489415 0.005707561 -0.1798343 0.2491112 0.005252897 -0.1808569 0.2521118 -0.005963027 -0.178654 0.2491106 -0.005899608 -0.1790742 0.2521108 -0.005982339 -0.1777688 0.25211 -0.005794882 -0.1795566 0.2491111 -0.005462944 -0.1804306 0.2521114 -0.004750311 -0.1816645 0.2521122 -0.004989087 -0.1813247 0.249112 -0.005490839 -0.1804232 0.2491112 0.005988776 -0.1780323 0.2491103 0.005880773 -0.1790707 0.2521111 0.005913019 -0.1789827 0.2491107 -0.005585253 -0.1802127 0.2471122 -0.005395472 -0.180643 0.2479271 0.003403007 -0.1829406 0.2491096 0.004379868 -0.1820827 0.2490637 -0.005650639 -0.1800429 0.2464042 0.005780935 -0.1795804 0.2428961 0.005644798 -0.1800249 0.2461113 0.005657434 -0.1799901 0.2437738 0.005926787 -0.1788808 0.2423161 0.005621671 -0.1800882 0.2466797 0.005644798 -0.1800261 0.2441112 -0.005656838 -0.1800251 0.2461113 -0.005657017 -0.1800261 0.2441111 0.005870759 -0.1768227 0.2425333 0.005912899 -0.1770357 0.2491098 0.005960226 -0.1774017 0.2422176 0.005684852 -0.1761126 0.2435294 0.005708098 -0.1761838 0.2491093 0.005742013 -0.1762955 0.2431219 0.005655288 -0.1760251 0.2461091 0.005967915 -0.1775314 0.25211 0.00332427 -0.1730199 0.2491069 0.002256453 -0.172483 0.2521075 0.003838181 -0.1734123 0.2521078 0.002531647 -0.1834205 0.2521131 0.004097819 -0.182357 0.2521125 0.005686461 -0.1761344 0.2521091 -0.003163278 -0.1729323 0.2491067 -0.003921747 -0.1734977 0.2521079 -0.002753734 -0.1726815 0.2521076 -0.004513621 -0.1740844 0.2489526 -0.004953026 -0.1746436 0.2521085 -0.005664408 -0.176025 0.2461091 -0.005672872 -0.1760501 0.2438196 -0.005731523 -0.1762315 0.243256 -0.005879163 -0.176825 0.2491096 -0.005880355 -0.1768227 0.2425336 -0.005981266 -0.1775458 0.2421818 -0.005664408 -0.1760262 0.2441091 -0.005669653 -0.1799903 0.2437735 -0.005708515 -0.1761572 0.2491093 -0.005712568 -0.1762509 0.2521092 -0.005366802 -0.175368 0.2491089 -0.00599128 -0.1777362 0.2491102 0.005234003 -0.1751188 0.2491089 -0.005792617 -0.1795803 0.242896 -0.005937814 -0.1788806 0.2423161 -0.005999684 -0.1781721 0.2421222 -0.00178945 -0.1722913 0.249107 -5.16686e-6 -0.180026 0.2441113 0.005099356 -0.1748698 0.2484544 0.004288613 -0.1738498 0.2490161 0.005397558 -0.1754063 0.2479198 0.005584597 -0.1758362 0.2471072 -0.001530289 -0.1722189 0.2521072 -6.05117e-4 -0.1720486 0.249107 -1.4517e-7 -0.1720308 0.252107 0.00564897 -0.1760064 0.2464012 0.005988538 -0.1781243 0.2421249 0.005663812 -0.1760503 0.2438199 0.005655348 -0.1760261 0.2441092 -3.70404e-5 -0.1760199 0.2437286 7.0313e-4 -0.1720669 0.2491072 0.004876375 -0.1745521 0.2521085 0.002259731 -0.1724689 0.2491074 -0.005314171 -0.1752307 0.2481137 -0.005593597 -0.1758362 0.247107 -0.00565803 -0.1760064 0.2464013 0.001548171 -0.1838017 0.2491132 0.002586543 -0.1834121 0.2491132 0.00217092 -0.2168805 0.2579153 0.00591129 -0.2152832 0.2579138 0.005913197 -0.2152824 0.2635203 0.002172827 -0.2168797 0.2635218 -3.36355e-5 -0.2067037 0.2579207 2.80702e-5 -0.2066791 0.2635214 -0.001895904 -0.2169247 0.2579169 -0.001893997 -0.2169241 0.2635233 -0.00567013 -0.2154094 0.2579181 -0.004808545 -0.2159696 0.2635243 -0.007261872 -0.2141295 0.2635246 -0.00877881 -0.2120928 0.2579186 -0.009558141 -0.2107727 0.2635251 -0.01039683 -0.2067934 0.2579185 -0.01039499 -0.2067925 0.2635248 -0.009646892 -0.2027959 0.2579177 -0.01002752 -0.2037479 0.2635244 -0.008701443 -0.2009826 0.2635236 -0.007424294 -0.1993898 0.2579166 -0.00585699 -0.1980756 0.2635223 -0.004067361 -0.1970935 0.2579151 -0.00211662 -0.1964784 0.2635208 -8.73021e-5 -0.1962566 0.2579137 0.001950144 -0.1964341 0.2635194 0.003910005 -0.1970067 0.2579123 0.004864633 -0.1973885 0.2635185 0.007316112 -0.1992293 0.2579117 0.007318019 -0.1992285 0.2635179 0.009612441 -0.2025862 0.2579113 0.009614288 -0.2025855 0.2635175 0.01035457 -0.2070708 0.2579115 0.01026743 -0.2080879 0.263518 0.008755683 -0.2123762 0.2579126 0.008757591 -0.2123755 0.2635191 0.0010854 -0.2030245 0.2401188 -9.63319e-4 -0.2030059 0.2401188 -5.93033e-4 -0.2029231 0.2579186 0.001085162 -0.2030154 0.2579188 -3.34195e-5 -0.2067128 0.2401208 0.002411663 -0.2037335 0.2401192 0.002411425 -0.2037243 0.2579191 0.003365695 -0.2048959 0.2401198 0.003365457 -0.2048869 0.2579197 0.003802239 -0.2063351 0.2401207 0.003783404 -0.2068926 0.2579208 0.003764986 -0.2074683 0.2401211 0.003365695 -0.2085297 0.2401217 0.003365457 -0.2085206 0.2579217 0.002411663 -0.2096921 0.2401224 0.002411425 -0.209683 0.2579224 0.0010854 -0.2104011 0.2401226 0.001085162 -0.2103919 0.2579225 -3.3412e-5 -0.2105857 0.2401228 -3.36504e-5 -0.2105766 0.2579227 -0.001152217 -0.2104011 0.2401226 -0.001152455 -0.2103919 0.2579225 -0.00247848 -0.2096922 0.2401221 -0.002478718 -0.209683 0.2579221 -0.003487646 -0.208348 0.2401216 -0.00343275 -0.2085205 0.2579215 -0.003832042 -0.2074592 0.2579209 -0.003869056 -0.206335 0.2401204 -0.003869295 -0.2063258 0.2579204 -0.003432512 -0.2048959 0.2401197 -0.00343275 -0.2048867 0.2579196 -0.00247848 -0.2037335 0.2401192 -0.002478718 -0.2037243 0.2579189 -0.003499925 -0.2041565 0.2633191 -0.004302024 -0.2065292 0.2633204 -0.00427103 -0.2058882 0.2665208 -0.003648579 -0.2043089 0.2665199 9.99507e-6 -0.2066649 0.2633202 1.02335e-5 -0.2066632 0.2665209 -0.002469062 -0.2030879 0.2665191 -0.001724183 -0.2026746 0.2633182 -9.12178e-4 -0.2024112 0.2665187 -4.93664e-4 -0.202322 0.2633179 7.8493e-4 -0.2023836 0.2633178 7.85183e-4 -0.202382 0.2665186 0.002364277 -0.203006 0.263318 0.002364516 -0.2030044 0.2665186 0.003670632 -0.204382 0.2633187 0.003585457 -0.2041839 0.2665193 0.004171252 -0.205322 0.2665199 0.004321932 -0.2068005 0.2633199 0.004360377 -0.206588 0.2665205 0.004058003 -0.2082585 0.2665215 0.003668725 -0.2090193 0.2633211 0.003139376 -0.2096861 0.2665222 0.002489268 -0.2102401 0.2633218 0.001744389 -0.2106535 0.2665228 9.32377e-4 -0.2109168 0.2633224 8.53726e-5 -0.2110133 0.2665233 -7.6497e-4 -0.2109461 0.2633224 -0.00118637 -0.2108681 0.2665233 -0.00234431 -0.2103236 0.2633222 -0.002344071 -0.210322 0.266523 -0.003321111 -0.2094963 0.2633219 -0.003565013 -0.2091425 0.2665224 -0.003980278 -0.208399 0.2633214 -0.004241645 -0.2075856 0.2665216 9.99693e-4 -0.2373427 0.2791366 9.99693e-4 -0.2373439 0.2769367 9.99723e-4 -0.2456926 0.279141 9.99775e-4 -0.2456938 0.2769408 -0.001000404 -0.1963427 0.2791152 -9.99939e-4 -0.1963438 0.2769152 -0.001000463 -0.1879926 0.2791108 0.008999526 -0.1879925 0.2791107 0.008999466 -0.1910026 0.2600123 0.008999705 -0.1880066 0.2520107 0.008999526 -0.1912316 0.2588642 0.009000003 -0.1918824 0.2578914 -0.001000165 -0.2373437 0.2769367 -0.001000225 -0.2456938 0.276941 -0.001000463 -0.2373428 0.2791367 -0.001000285 -0.2456926 0.2791409 -0.009000599 -0.2373425 0.2791367 -0.00900042 -0.2373446 0.2751367 0.008999705 -0.2373448 0.2751367 0.008999526 -0.2373427 0.2791367 0.008999764 -0.2456926 0.279141 9.99745e-4 -0.1963426 0.2791151 9.99946e-4 -0.1963437 0.276915 0.008999705 -0.1963425 0.279115 0.008999764 -0.1963447 0.2751152 -0.009000301 -0.1963447 0.2751153 -0.00900036 -0.1963425 0.2791152 0.008999586 -0.192856 0.2572416 -0.009000599 -0.1910026 0.2600125 -0.009000599 -0.1912314 0.2588644 -0.009000301 -0.1918823 0.2578915 -0.00900048 -0.1928558 0.2572416 0.008999586 -0.1940041 0.257014 -0.00900042 -0.1940041 0.2570139 -0.009000539 -0.1909961 0.2721124 0.008999347 -0.1909962 0.2721124 0.008999407 -0.191224 0.2732604 -0.009000301 -0.1915488 0.2737474 0.008999943 -0.1923602 0.2745595 -0.00900042 -0.1928467 0.2748851 0.008999466 -0.1939947 0.2751139 -0.009000301 -0.1939946 0.275114 -0.00900048 -0.2427027 0.2600395 -0.00900048 -0.2426962 0.2721394 0.008999347 -0.2427025 0.2600395 0.008999645 -0.2426961 0.2721395 -0.00900048 -0.2397041 0.2570378 -0.009000301 -0.2408521 0.2572668 0.008999705 -0.2397043 0.2570378 0.008999764 -0.2408521 0.2572667 -0.009000122 -0.2418249 0.2579176 0.009000003 -0.2418251 0.2579176 -0.009000301 -0.2424749 0.2588912 0.008999645 -0.242475 0.2588912 -0.00900036 -0.2396947 0.2751379 0.008999586 -0.2396947 0.2751377 -0.00900042 -0.2424673 0.2732872 0.008999705 -0.2421419 0.2737737 -0.00900048 -0.2413296 0.2745853 0.008999824 -0.2408428 0.2749102 0.008999645 -0.2457067 0.2520409 -0.00900042 -0.1879925 0.2791107 -0.009000122 -0.1880066 0.2520109 -0.00900036 -0.2456925 0.279141 9.99425e-4 -0.1879925 0.2791107 -0.009000241 -0.2457067 0.2520409 -0.001000165 -0.1879938 0.2769109 9.99685e-4 -0.1879938 0.2769106 -0.0100001 -0.2368409 0.2823368 -0.0100001 -0.2368423 0.2791364 -0.01000028 -0.2441912 0.2823404 -0.01000034 -0.2441928 0.2791399 0.0100001 -0.2368411 0.2823368 0.01000022 -0.2368426 0.2791363 0.00999999 -0.2441916 0.2823404 0.00999993 -0.2441931 0.2791399 -0.009999752 -0.189491 0.2823118 -0.009999811 -0.1894926 0.2791115 -0.009999752 -0.1968411 0.2823154 -0.009999811 -0.1968427 0.279115 0.01000016 -0.1894911 0.2823118 0.01000016 -0.1894926 0.2791114 0.01000022 -0.1968411 0.2823154 0.01000016 -0.1968427 0.279115 -0.01000034 -0.1968254 0.3090154 0.01000005 -0.1968253 0.3090155 -0.01000016 -0.1968482 0.2690135 0.01000016 -0.196848 0.2690135 -0.01000022 -0.2368272 0.3090383 0.00999993 -0.2368271 0.3090384 -0.01000005 -0.23685 0.2690363 0.01000028 -0.2368499 0.2690364 1.30502e-7 -0.2066994 0.2690219 2.64612e-7 -0.2095637 0.2690219 5.59088e-4 -0.2095087 0.2690219 0.001096308 -0.2093456 0.2690219 0.001591503 -0.209081 0.2690219 0.002025485 -0.2087248 0.2690219 0.002381742 -0.2082907 0.2690219 0.002646386 -0.2077956 0.2690219 0.002809464 -0.2072582 0.2690219 0.002864539 -0.2066994 0.269022 0.002809464 -0.2061406 0.2690219 0.002646386 -0.2056033 0.2690219 0.002381742 -0.2051081 0.269022 0.002025425 -0.204674 0.2690219 0.001591503 -0.2043178 0.2690219 0.001096248 -0.204053 0.2690218 5.58917e-4 -0.2038901 0.2690219 1.23051e-7 -0.2038351 0.2690219 -5.58641e-4 -0.2038901 0.2690219 -5.58529e-4 -0.2095087 0.2690219 -3.35742e-4 -0.2094486 0.2635191 -0.00109601 -0.2093456 0.2690219 -0.001591205 -0.209081 0.2690219 -0.001096069 -0.2040531 0.2690219 -0.002472281 -0.2079474 0.2635191 -0.002025306 -0.2087248 0.2690219 2.72063e-7 -0.2066994 0.2635191 -0.001591205 -0.2043178 0.2690219 -0.002381503 -0.2082908 0.2690219 -0.002646088 -0.2077955 0.2690219 -0.002809107 -0.2072582 0.2690219 -0.002025246 -0.204674 0.2690219 -0.002864181 -0.2066994 0.2690219 -0.002727568 -0.2058719 0.2635191 -0.002809107 -0.2061406 0.2690219 -0.002381503 -0.2051081 0.2690219 -0.002646088 -0.2056033 0.2690219 -0.001773416 -0.2045382 0.263519 2.74111e-4 -0.2039171 0.2635191 0.001897573 -0.2046044 0.2635191 0.002782523 -0.2064254 0.2635191 0.002099394 -0.2085061 0.263519</float_array>
          <technique_common>
            <accessor source="#Link5-mesh-positions-array" count="390" stride="3">
              <param name="X" type="float"/>
              <param name="Y" type="float"/>
              <param name="Z" type="float"/>
            </accessor>
          </technique_common>
        </source>
        <source id="Link5-mesh-normals">
          <float_array id="Link5-mesh-normals-array" count="2223">-1 8.3458e-7 -2.7426e-4 -1 5.32201e-6 -1.31516e-5 -1 7.27421e-6 -3.42058e-5 -1 1.6611e-6 -1.31401e-4 -1 -1.17958e-5 9.90283e-5 -1 2.99348e-5 -1.43457e-4 -1 3.05442e-6 -5.15927e-5 -1 3.14379e-7 -4.57971e-5 -1 -2.71217e-6 -5.26886e-5 -0.01283901 -0.9742866 0.2249467 0.03685122 -0.9405065 0.3377714 -0.008573949 -0.8874101 0.4609011 0.02559018 -0.7768971 0.6291073 -6.43578e-5 -0.7444122 0.6677204 -6.16269e-5 -0.5543301 0.832297 0.03396302 -0.595192 0.8028656 -0.00862348 -0.3763951 0.9264192 0.0255686 -0.2810406 0.9593553 -0.02564364 -0.1333019 0.9907438 0.02555298 0.01750367 0.9995203 -0.02566796 0.1679479 0.9854617 0.03681975 0.3459567 0.9375278 -0.01285749 0.454034 0.8908917 1 2.04494e-5 -1.07975e-4 1 -6.47196e-6 8.92217e-5 1 -6.76878e-6 7.97394e-5 1 -4.57739e-6 6.04499e-5 1 -4.90354e-6 6.18709e-5 1 -2.43614e-6 5.63387e-5 1 -4.85764e-7 5.58017e-5 1 -8.41537e-5 1.28233e-5 1 1.0288e-5 4.70621e-5 1 6.34198e-5 5.76645e-5 1 -6.99124e-5 5.29456e-5 1 5.85086e-5 3.71537e-5 1 4.85351e-5 4.04233e-5 1 -2.52291e-4 1.55522e-4 1 1.0223e-6 5.18063e-5 1 -3.46319e-6 1.31379e-4 -0.001768171 0.3743677 -0.9272787 0.0055269 0.4686982 -0.8833411 -0.005437731 0.6006467 -0.7994962 0.005512416 0.7178831 -0.6961419 -0.005446851 0.8175351 -0.5758532 0.005508482 0.8973099 -0.4413667 -0.005456686 0.9551141 -0.2961882 0.005493581 0.9895969 -0.1437635 -0.005476295 0.9999104 0.01222389 0.005472004 0.985798 0.1678467 -0.005493879 0.9476093 0.3193845 0.007869184 0.8697022 0.4935141 -0.002766609 0.8032697 0.5956092 0.004259824 0.7166025 0.6974689 -3.04622e-5 0.743427 0.6688172 -4.97663e-5 -2.03842e-5 1 -4.64492e-5 -2.22954e-5 1 7.31361e-6 -0.9999969 0.002512574 -0.006304979 -0.9999794 0.001288115 0 -1 2.13626e-5 4.96595e-6 -1 2.34112e-5 0.02752083 -0.9996058 0.005560517 0.04398685 -0.999029 0.002512753 6.07979e-6 0.9995878 -0.02871084 -0.006101369 0.9952112 -0.09755742 0.005834341 0.6041079 -0.7968813 0.004267871 0.6138053 -0.7894459 0.001037836 0.8982256 -0.4395337 0.007886052 0.922993 -0.3847362 -0.009450793 0.9997441 0.0205515 -0.001671493 0.8982172 -0.439549 -0.01678478 0.8247189 -0.5652937 0.005141973 0.6138061 -0.7894401 -0.006990551 0.4074946 -0.9131809 -0.001582026 0.3712164 -0.9285451 4.99652e-5 -2.32563e-5 -1 5.6778e-5 -2.03496e-5 -1 -1 3.32379e-5 -2.59665e-4 -1 1.12842e-5 -1.42969e-4 -1 1.22856e-5 -9.51982e-5 -1 1.0947e-5 -8.62212e-5 -1 -6.54533e-6 -2.679e-5 -1 8.30819e-6 -5.84633e-5 -1 -3.81451e-6 -5.4786e-5 -1 3.05343e-4 1.19404e-4 -1 -7.91587e-5 -8.09133e-5 -1 -6.78681e-5 -7.68493e-5 -1 4.56558e-5 -5.77687e-5 -1 -2.04006e-5 -5.85545e-5 -1 -1.39707e-5 -5.92311e-5 -1 9.08674e-5 -9.00919e-5 -1 -2.9249e-6 -5.69234e-5 -1 -2.52277e-7 -9.36869e-5 -1 -3.10409e-6 -2.51392e-5 -0.01339024 0.6428672 0.7658608 0.04329353 0.6382224 0.7686338 1 -1.89248e-7 0 1 7.55937e-7 -4.93903e-6 1 7.69978e-7 -7.43803e-6 1 -1.78021e-5 9.01952e-5 1 -1.72916e-5 8.88086e-5 1 6.71002e-7 5.52783e-5 1 -4.82166e-7 5.26969e-5 -0.03022497 0.3916699 0.9196093 0.002794146 0.3461937 0.938159 -0.02535164 0.01754617 0.9995246 -0.05406981 -0.02045065 0.9983277 0.02118581 -0.3130422 0.949503 -0.02133017 -0.391897 0.9197619 0.0463351 -0.6204148 0.7829039 -3.22816e-5 -0.6734212 0.7392591 -3.76629e-5 -0.8630863 0.5050566 -3.76622e-5 -0.8630904 0.5050495 -2.42121e-5 -0.974365 0.2249732 -5.38031e-6 -0.9743602 0.2249938 0.06079322 0.6419379 0.7643429 0.04428088 0.6413302 0.7659863 0.05731338 -0.9983236 0.00808227 -0.4320878 -0.9014282 0.02696782 0.8748188 -0.4844328 -0.004122972 -0.02519327 -0.9996226 -0.01095718 -0.4863777 -0.8737452 0.002487659 -0.6825178 -0.7305892 0.02022069 0.9136137 -0.4065834 -1.33346e-4 -0.997922 -0.06326144 0.01223361 -0.9517663 -0.3064044 0.01603883 -0.678188 -0.7346765 0.01764667 -0.7902947 -0.612693 -0.0064736 -0.9435818 -0.3310442 0.007956087 0.9968045 -0.07943964 0.008382797 -0.9156559 -0.4019621 9.18945e-4 -1.7807e-4 -0.003044009 -0.9999954 -2.69991e-4 -0.05320602 -0.9985836 0.01065981 -0.5892936 -0.8078488 -0.9479473 -0.3182281 0.01126438 0.9542147 -0.2991213 -9.58631e-4 0.9580148 -0.2867174 9.14244e-4 0.9968389 -0.07944512 8.24443e-4 0.00158149 -0.8841108 -0.4672747 -0.004039764 -0.9282746 -0.3718736 2.6327e-6 -1 5.10516e-4 1.58254e-5 -0.9999999 5.76827e-4 0.9881647 0.1533907 -0.001360774 0.9543577 0.2986661 -1.67024e-4 0.948326 0.3172978 9.88059e-5 0.9982688 -0.05649226 0.0163753 0.5063962 0.8619098 0.02597063 -1.96286e-4 2.51809e-4 1 4.42478e-5 6.59574e-4 0.9999998 8.82932e-6 5.5257e-4 1 -1.75664e-5 4.66199e-4 1 -1.19963e-5 3.89059e-4 1 -6.04145e-5 7.58462e-4 0.9999998 -1.73389e-5 5.73467e-4 0.9999998 -0.5727968 0.8196406 0.00965017 -0.7432029 0.6688969 0.01505041 -0.9435698 -0.3310459 0.009201645 -0.9552104 -0.2959191 0.002260565 -0.9516136 0.3072971 1.68245e-4 -0.9698308 0.2437788 2.59429e-4 -0.9904201 0.1380871 2.25009e-4 -0.9421706 0.3351336 -1.71428e-4 -0.9433346 -0.331843 2.44709e-4 -0.917599 0.3973506 0.011173 -0.9995222 -0.0308007 0.002643465 0.9135718 0.4066775 -1.10264e-4 -0.9584824 -0.2851501 0.001018106 -0.9579452 -0.2869502 7.43183e-4 -0.9791955 -0.2029188 4.15694e-4 -0.9830834 -0.183142 0.00246483 -0.9961888 -0.08722108 -7.84016e-4 -0.4227501 0.9060665 -0.01805138 -0.9995207 -0.03080105 0.003123521 -0.9995638 0.02952593 -6.39605e-4 -0.9925114 0.1221374 0.001915633 -0.9688729 0.2475581 6.65459e-4 1.84432e-5 -0.9944443 -0.1052641 0.7980659 0.5991922 0.06371521 0.8755728 0.4830728 0.003618121 0.9501722 0.3065576 0.05652701 -0.3536471 0.9353451 0.007957577 -0.2007974 0.9796125 -0.006306529 -0.1220104 0.9923526 0.01871055 0.9134758 0.4066433 0.01425707 0.9383056 0.3458005 0.002157151 0 -0.2638925 -0.9645521 0.001188516 -0.2452679 -0.9694546 -0.003139376 0.4783279 -0.8781757 -2.15611e-5 0.4374161 -0.8992592 0.9476554 0.3192952 2.01915e-4 0.9432051 0.3322111 -1.42618e-4 0.01854425 0.9649606 -0.2617387 2.62873e-6 1 -5.34764e-4 -0.9499906 0.3122785 -2.28969e-4 -0.004087924 0.9970127 0.07712966 -1.56734e-5 0.7449184 -0.6671557 -9.68118e-6 0.9966099 -0.08227211 1.92127e-6 0.9979642 -0.06377714 0.9475617 0.3195729 9.54139e-6 0.9717249 0.2361134 0.001099288 0.9722986 0.2337387 0.001343607 0.9971112 0.07590347 0.002816081 0.9967052 -0.08110266 0.001032352 0.9992321 0.03917914 -5.5232e-4 0.014032 0.9998632 -0.008767962 0.1963536 0.9799358 0.03422498 6.61373e-5 4.19507e-4 1 -5.20643e-5 5.67436e-4 1 0.2499719 0.9682411 0.004823446 0.4597271 0.8880479 0.004685699 -0.6475574 0.7617504 -0.02014058 0.651565 0.7584914 -0.01240909 0.7392306 0.673338 0.01241081 0.8899394 0.4556391 0.02002048 0.8024054 0.5965362 -0.01703208 0.972295 0.233736 0.003166973 3.83248e-5 4.45698e-4 1 -4.16614e-5 5.45844e-4 0.9999999 0.9801975 0.1974797 0.01465737 0.997099 0.07589888 -0.005739212 -0.983074 -0.1831443 -0.004875481 0.006102383 0.5877674 -0.8090069 0.004693627 0.8563454 -0.5163822 -2.74817e-7 0.9979576 -0.06388068 0 0.9721369 -0.2344141 8.96544e-7 0.9721283 -0.2344499 3.04573e-6 0.8839396 -0.467601 -0.001264095 0.7055162 -0.7086928 7.44398e-4 0.002367198 -0.999997 1.35074e-4 7.81492e-4 -0.9999997 2.42024e-5 2.14597e-4 -1 0.9721091 -0.2345218 0.001891076 -1.0526e-5 0.9999999 -4.82749e-4 -0.003072381 0.7741896 -0.6329465 2.81948e-4 0.9114283 -0.4114592 -0.01003104 0.9521754 -0.3053874 -0.9499368 -0.312438 -0.001646459 -0.9582232 -0.2859572 -0.00607109 0.00143361 0.1273614 -0.9918553 0.97877 -0.2049591 -0.001095235 -0.9925038 0.1221396 0.004287838 0.9435877 -0.3311228 1.76466e-4 -1.62074e-4 0.0947138 -0.9955046 2.51758e-5 -0.9059583 -0.4233669 1.9064e-5 -0.9944269 -0.1054291 -0.947149 0.3207941 1.75356e-4 -0.9843503 0.1749453 0.02118253 -0.9377751 0.3472383 0.001837074 -0.9175984 0.3973559 0.01102417 2.72079e-5 2.50659e-4 -1 0.001511931 0.1104759 -0.9938777 0.003737211 0.1283352 -0.9917239 -0.006414115 0.4784399 -0.8780969 -0.9688516 0.2475588 0.006423711 -0.833707 0.5519045 -0.01828002 -0.9039148 0.4271709 0.02152436 -2.60661e-5 0.001055717 0.9999995 2.10485e-4 4.52979e-4 0.9999999 0.9429969 -0.3314544 0.02991831 -9.78665e-5 5.13249e-4 0.9999999 -1.2974e-4 5.28605e-4 1 0.9721056 -0.2345166 0.003568291 1.62776e-5 5.24608e-4 1 -0.8737946 -0.486246 0.006920516 0.9431934 -0.3322414 0.001368999 -2.55355e-6 -0.6382259 -0.7698492 5.53486e-6 -0.6381427 -0.7699182 -1.29815e-6 -0.9061058 -0.4230514 -1.13834e-5 -0.9943917 -0.1057596 0.9133872 -0.4064645 0.0225929 1.56359e-5 -0.9981514 -0.06077861 -0.9129822 0.4079208 0.008015811 -0.8305323 0.5560033 0.03281247 -0.7960622 -0.6008396 -0.07264155 0.001796424 -0.9723799 -0.2333967 -0.001287579 -0.9938458 -0.1107652 0.9272008 -0.374511 0.006358087 -0.005791008 -0.7457817 -0.6661654 7.898e-4 -0.005776166 -0.9999831 0.008477926 -0.02222144 -0.9997172 -0.8736439 -0.4861575 0.01993185 -0.8658863 -0.50009 0.01229506 0.3512656 -0.9362682 0.00380522 0.2899029 -0.9566889 0.02651047 0.162556 -0.9866852 -0.005299866 0.5001381 -0.8659196 0.006727159 -1.54548e-4 5.13439e-4 1 5.08641e-4 6.77481e-4 0.9999997 0.5615103 -0.8268978 0.03076177 0.8098891 -0.5819869 0.0732873 0.007273495 -0.5601422 -0.8283647 0.01217299 -0.1889415 -0.981913 0.6597023 -0.7514981 -0.006601512 5.18759e-4 -0.01168346 -0.9999316 0.7922051 -0.6099779 0.0183857 -4.35175e-4 -0.001919388 -0.9999982 0.8134146 -0.5816836 9.31634e-4 -0.2703614 -0.9626203 -0.01633656 5.98936e-4 9.08049e-4 0.9999994 -8.87902e-5 4.87761e-4 1 -0.1713922 -0.9850974 0.01442027 2.34024e-5 4.86545e-4 0.9999999 0.3927194 -0.9196584 -1.04975e-5 0.3927256 -0.9196557 -1.53162e-5 -5.71073e-4 4.03496e-4 -0.9999998 3.38774e-4 1.12858e-4 1 0.01088893 -0.9999408 1.31347e-4 0.01091814 -0.9999404 1.0211e-4 -4.04092e-4 4.40361e-4 -0.9999999 3.80509e-4 1.20746e-4 1 -0.3725749 -0.9280021 2.22507e-4 -0.310887 -0.9492802 -0.04707807 -1.34978e-4 3.93289e-4 -1 3.74658e-4 1.2304e-4 1 -0.5999805 -0.7999206 0.01227319 2.64473e-4 1.76055e-4 1 -0.7286708 -0.6829659 -0.05095642 9.15909e-5 2.44254e-4 -1 -0.8252246 -0.5645112 0.01820886 3.47179e-4 9.57975e-5 1 -0.9544483 -0.2914194 -0.06405758 -0.9786037 -0.2057546 3.57386e-4 2.07187e-4 5.18353e-5 -1 3.30373e-4 1.43684e-4 1 -0.9828515 0.184399 3.02833e-4 -0.9916992 0.119679 -0.04700875 2.05655e-4 -2.40535e-4 -1 3.30594e-4 9.74834e-5 1 -0.9016132 0.432371 0.01220178 3.26909e-4 1.10447e-4 1 -0.8369521 0.5461238 -0.03549712 1.29258e-4 -4.27979e-4 -1 -0.7142959 0.6989249 0.03585302 3.41575e-4 1.20359e-4 1 -0.5642461 0.8248382 -0.03561568 -2.80363e-5 -5.97713e-4 -0.9999999 -0.3924396 0.9190838 0.03572291 3.35978e-4 1.25119e-4 1 -0.2056384 0.9779752 -0.03574329 -2.01366e-4 -6.68584e-4 -0.9999998 -0.01086944 0.9993072 0.0355935 3.54308e-4 1.26257e-4 1 0.1842694 0.982221 -0.03587388 -4.68784e-4 -6.69943e-4 -0.9999998 0.3111677 0.9502826 0.01173645 3.72831e-4 1.23043e-4 1 0.5461318 0.8369261 -0.03598511 0.6000008 0.7999994 -3.1486e-4 -6.01651e-4 -6.1819e-4 -0.9999997 3.17738e-4 1.48772e-4 1 0.825368 0.5645951 -3.55709e-4 0.8253789 0.5645793 -3.42066e-4 -7.95846e-4 -4.20711e-4 -0.9999996 3.44362e-4 1.16119e-4 1 0.9865805 0.1632758 -3.50422e-4 0.9923562 0.1177915 0.03680187 -8.94823e-4 -1.94361e-4 -0.9999997 3.48695e-4 1.27785e-4 1 0.9567916 -0.2883552 -0.03743517 0.9432268 -0.3321494 -2.76364e-4 -8.87475e-4 4.7573e-5 -0.9999997 3.38911e-4 1.41463e-4 1 0.7147591 -0.6993708 -1.56248e-4 0.7147516 -0.6993785 -1.4806e-4 -7.20513e-4 2.97712e-4 -0.9999998 3.21982e-4 9.73731e-5 1 0.009091138 0.999947 -0.004840493 0.05491375 0.998491 -5.13632e-4 3.0728e-5 -5.48322e-4 -0.9999999 -1.01165e-4 5.27195e-4 0.9999999 0.471394 0.8819227 -4.46245e-4 0.4714283 0.8819044 -4.43591e-4 0 -5.51436e-4 -1 5.63149e-5 4.76913e-4 0.9999999 0.7730179 0.6343842 -3.13764e-4 0.7730204 0.6343811 -3.14217e-4 0 -5.23945e-4 -0.9999999 1.02392e-5 5.03621e-4 1 0.9569421 0.2902789 -1.35296e-4 0.9789448 0.2039906 0.007425427 0 -5.66691e-4 -0.9999999 3.07289e-5 5.2219e-4 1 0.9994608 -0.0328353 3.00119e-5 -6.717e-6 -4.07395e-4 -1 0.9359006 -0.3521101 0.01042348 0.9685943 -0.2486466 1.39592e-4 -4.02966e-5 -5.61614e-4 -0.9999999 9.24917e-6 5.8239e-4 0.9999998 0.7729812 -0.6344289 3.35779e-4 0.7729915 -0.6344163 3.33791e-4 -4.09593e-5 -5.42113e-4 -0.9999999 1.02395e-5 5.62106e-4 0.9999999 0.4714282 -0.8819044 4.5646e-4 0.4714108 -0.8819136 4.58815e-4 6.14351e-5 -4.83326e-4 -1 -1.22869e-4 4.6627e-4 0.9999999 0.1627908 -0.9866605 5.08802e-4 0.1628418 -0.9866521 5.03228e-4 -5.37331e-5 -5.15568e-4 -1 1.00749e-4 5.15563e-4 0.9999999 -0.1627861 -0.9866613 5.00099e-4 -0.1628655 -0.9866482 5.06102e-4 5.37316e-5 -5.1557e-4 -1 -1.25934e-4 5.15561e-4 0.9999999 -0.4714 -0.8819195 4.47986e-4 -0.4714304 -0.8819033 4.52291e-4 1.02391e-4 -5.08627e-4 -0.9999999 -1.53588e-5 5.06243e-4 1 -0.7997235 -0.6003684 3.01127e-4 -0.7729951 -0.634401 -0.003766298 -1.8498e-5 -4.49005e-4 -1 -6.1437e-5 5.04268e-4 0.9999999 -0.9359428 -0.3521519 -5.27635e-4 -4.02991e-5 5.15596e-4 1 -0.98247 -0.1861677 -0.009715974 -0.9994612 -0.03282612 3.06409e-6 4.60936e-5 -5.68134e-4 -0.9999999 -2.68671e-5 4.19803e-4 1 -0.9569448 0.2902699 -1.6217e-4 -0.9569435 0.2902742 -1.61997e-4 5.37546e-5 -5.13483e-4 -1 0 5.63502e-4 0.9999999 -0.7729712 0.6344411 -3.35909e-4 -0.772986 0.634423 -3.38143e-4 5.1198e-5 -4.90518e-4 -1 0 5.89926e-4 0.9999999 -0.432883 0.90145 -4.72673e-4 -0.3910493 0.9203617 0.003852903 -1.8499e-5 -5.5317e-4 -0.9999999 -9.60246e-5 5.33757e-4 1 -0.9459143 0.3197436 -0.05486553 -0.930051 0.3665283 -0.02573418 -5.7701e-5 -5.10431e-4 -1 8.03516e-5 5.33517e-4 0.9999999 -0.7192198 0.6947826 -3.14684e-4 6.42797e-5 5.31574e-4 0.9999999 -0.6399441 0.7667994 -0.04990392 -8.43973e-5 -5.49467e-4 -1 -0.3984369 0.9168367 0.02566426 1.12493e-4 5.38503e-4 0.9999999 -0.2754537 0.9612705 -0.009191572 -4.21652e-5 -5.42499e-4 -1 0.04814255 0.9982564 0.03415441 -0.01723921 0.9998514 -5.03488e-4 -8.43312e-5 -5.43701e-4 -1 2.08414e-5 5.24332e-4 0.9999999 0.3666599 0.930355 -4.97705e-4 0.3666601 0.9303548 -4.92794e-4 -9.64216e-5 -5.35742e-4 -1 1.96861e-4 4.97004e-4 0.9999999 0.7252062 0.6885316 -4.0328e-4 0.6945579 0.7189665 -0.02601271 -4.35512e-5 -5.74106e-4 -0.9999999 8.03542e-6 6.09194e-4 0.9999999 0.8891233 0.4576441 -0.004665374 4.21688e-5 5.08618e-4 0.9999999 0.9629264 0.2592871 -0.0744518 0.9887964 0.1476891 -0.02167141 -1.01327e-4 -5.1777e-4 -0.9999999 8.43356e-5 4.82867e-4 1 0.9840104 -0.178111 1.40599e-5 8.83839e-5 6.10189e-4 0.9999999 0.958109 -0.2820981 -0.0494762 -7.83661e-5 -4.96859e-4 -1 0.8406491 -0.5409396 0.02633303 3.21413e-5 4.82815e-4 1 0.7189247 -0.6946086 -0.02581202 -1.125e-4 -5.12213e-4 -0.9999999 0.5696564 -0.8214567 0.02647221 8.83882e-5 5.34347e-4 0.9999999 0.3984923 -0.916812 -0.02568513 -9.64243e-5 -5.23079e-4 -0.9999999 0.2119129 -0.9769265 0.02660083 9.44147e-5 5.57179e-4 0.9999999 0.0172488 -0.9995238 -0.02558815 -6.42828e-5 -5.03387e-4 -0.9999999 -0.1134701 -0.9934982 0.00927639 7.51115e-5 5.55617e-4 1 -0.3665445 -0.9300483 -0.02560132 -0.4266359 -0.9044234 4.83046e-4 -6.42813e-5 -4.90267e-4 -0.9999999 6.32518e-5 5.58024e-4 1 -0.6463108 -0.7630742 4.32821e-4 -0.6945464 -0.7189586 0.02653187 -2.10844e-5 -5.23707e-4 -1 3.21409e-5 5.40663e-4 0.9999999 -0.8571809 -0.5149468 -0.008412003 -1.05419e-4 -4.65378e-4 -1 -0.9168136 -0.3984433 0.0263825 9.64254e-5 5.12491e-4 1 -0.9848244 -0.1694834 -0.03736722 -6.53253e-5 -5.66847e-4 -0.9999999 -0.9997644 -0.01727485 0.01314836 7.23139e-5 5.10523e-4 1 -1 -3.56482e-6 0 -1 -9.8319e-6 -2.3699e-5 1 1.34912e-5 2.13348e-4 1 -4.43874e-5 6.62143e-6 1 2.79484e-5 3.34957e-5 0.9999999 3.97908e-4 2.08205e-4 2.78852e-5 4.99683e-4 0.9999999 1.11535e-4 5.10386e-4 0.9999999 1 -8.41672e-7 1.21921e-4 1 2.14243e-5 3.72418e-5 3.72538e-5 1 -4.36543e-4 1.09914e-5 1 -5.31111e-4 8.27882e-6 0.9999999 -5.17382e-4 4.47175e-5 1 -3.3961e-4 -1.84743e-7 0.9999999 -5.09322e-4 3.72728e-6 0.9999999 -5.29184e-4 5.08914e-6 5.17532e-4 0.9999999 -6.97124e-6 5.24673e-4 0.9999999 1.49048e-5 -0.9999999 5.29145e-4 8.55904e-6 -0.9999999 5.45732e-4 1.49699e-5 -0.9999999 5.66231e-4 0 -0.9999999 5.10238e-4 -8.93683e-6 -0.9999999 5.38419e-4 -1.86294e-5 -0.9999999 4.94033e-4 1 -2.66536e-4 -2.30486e-4 0 5.21088e-4 0.9999999 -1.72647e-6 -0.9806933 0.1955524 -4.67276e-6 -0.980686 0.1955893 -2.7628e-6 -0.8311634 0.5560285 -1.86874e-6 -0.831147 0.5560527 2.76244e-6 -0.5552399 0.8316902 -8.07512e-6 -0.5551453 0.8317535 -2.76263e-6 -0.1944679 0.9809089 -5.525e-6 -0.1944838 0.9809057 -8.27865e-6 -0.9999999 5.32372e-4 -3.30787e-6 -1 5.2381e-4 -8.28895e-6 -0.9808822 -0.1946023 0.008430719 -0.9473004 -0.320236 0.004215419 -0.659196 -0.7519594 -0.008446156 -0.3211882 -0.9469778 -8.28853e-6 -0.1955487 -0.980694 -0.00422877 -0.7527238 -0.658323 -5.50394e-6 -5.57972e-4 -1 -1.17882e-5 -5.70675e-4 -1 -9.93437e-6 0.9999999 -5.3451e-4 -4.96311e-6 1 -5.25946e-4 0 0.195658 0.9806722 7.96294e-6 0.1955914 0.9806855 5.52594e-6 0.5560498 0.8311491 4.84373e-6 0.5560246 0.8311659 9.66794e-6 0.831691 0.5552388 8.06273e-6 0.8317264 0.5551857 7.25142e-6 0.9809248 0.1943879 -8.97806e-6 0.9808808 0.1946097 -2.26432e-6 5.21703e-4 1 -2.24535e-7 5.20398e-4 0.9999999 -5.5043e-6 -5.07277e-4 -0.9999999 3.71517e-6 -4.56575e-4 -1 -4.83497e-6 0.9806908 -0.1955649 -0.008440673 0.9469872 -0.3211606 -0.004221141 0.6584175 -0.7526412 0.008440792 0.3201804 -0.947319 -5.52528e-6 0.1944417 -0.9809142 0.004217207 0.7520049 -0.6591441 1 1.33913e-4 1.66907e-5 1 8.31491e-6 2.4602e-5 1 2.6127e-6 1.80294e-5 1 -5.2962e-7 -1.42812e-5 -1 1.22428e-4 -1.10609e-5 1 -6.81452e-6 -2.21632e-5 1 -4.64206e-5 -3.89901e-5 1 -4.61058e-5 -3.89234e-5 1 1.51185e-4 1.87247e-4 1 -4.41226e-5 5.40401e-5 1 3.19878e-5 9.05154e-6 -2.0567e-6 5.13954e-4 0.9999999 1.39421e-5 4.99691e-4 0.9999999 6.97095e-6 5.21092e-4 0.9999999 -1 1.21472e-4 -1.12694e-5 -1 1.85772e-5 -1.87314e-6 -1 -1.96324e-4 -1.60381e-4 -1 1.5798e-4 7.25741e-5 -1 -4.19573e-5 -1.13384e-4 -1 2.0245e-6 -6.01069e-5 0 -5.21152e-4 -0.9999999 -7.17371e-6 -5.23218e-4 -1 8.76979e-6 -0.9999999 5.23648e-4 0 -0.9999999 5.21561e-4 0 -1 5.14271e-4 -1.56243e-5 -1 5.25787e-4 -1 -2.88627e-5 2.47853e-6 -1 3.75219e-5 3.13029e-5 -1 -2.81749e-5 -4.82553e-6 -1 5.01842e-5 6.88164e-5 -1 -2.86302e-5 -4.84008e-5 -1 -4.48925e-5 -3.90912e-5 -1 2.08471e-5 4.91501e-6 -1 -7.26723e-5 -4.3607e-6 -1 2.26359e-4 -1.17094e-4 -1 1.53193e-4 -8.17841e-5 -1 -1.0239e-4 8.68704e-5 -1 -1.33018e-4 1.14862e-4 -1 6.05006e-7 -4.54866e-5 -1 -1.54151e-4 8.00196e-5 -1.48925e-5 -0.9999999 5.55626e-4 -1 5.28821e-5 -5.73863e-5 -1 -1.06185e-4 1.24205e-4 -1 -9.79583e-6 -1.88001e-5 -6.97095e-6 5.13961e-4 0.9999999 -3.72682e-6 -0.9999999 5.56507e-4 1 1.05959e-4 -4.45451e-6 1 -3.57277e-4 1.69394e-4 1 -3.21745e-4 1.52748e-4 1 1.47607e-4 -1.5709e-4 1 1.84844e-5 -3.71894e-5 7.46104e-6 0.9999999 -5.42415e-4 0 0.9999998 -5.55587e-4 -1.14769e-5 1 -5.12457e-4 -3.31496e-6 1 -5.19314e-4 1.3124e-5 1 -5.21151e-4 -1.49781e-5 0.9999999 -5.1546e-4 1 -6.4941e-5 9.88611e-6 1 4.22093e-5 -3.67911e-5 1 2.81096e-4 -1.67641e-4 1 -2.07551e-4 3.01011e-4 1 2.39631e-5 -4.73264e-5 -1.01245e-5 5.31804e-4 1 1.39428e-4 5.24668e-4 0.9999999 8.36566e-5 5.13959e-4 0.9999999 1 3.12994e-5 1.45613e-4 -1 -3.84286e-5 -1.18506e-4 -1 -3.12888e-5 -9.14182e-5 -1 2.81465e-5 6.97047e-6 -1 2.86295e-5 6.97019e-6 1.34103e-5 1 -4.8014e-4 1.0429e-5 0.9999999 -4.64053e-4 -1.93721e-5 -0.9999999 4.80147e-4 -1.48999e-5 -0.9999999 4.65585e-4 1 -1.60831e-5 -1.62884e-5 1 -3.23427e-5 2.09662e-5 0 -4.90594e-4 -1 -5.99872e-6 -4.90589e-4 -0.9999999 -3.75566e-6 4.82489e-4 1 3.16749e-6 4.90588e-4 0.9999999 -1 -4.94902e-6 1.39708e-5 -1 -3.92382e-6 1.62983e-5 4.46982e-6 1 -5.09261e-4 0 0.9999999 -4.75658e-4 0 -0.9999999 5.09256e-4 0 -0.9999999 4.94701e-4 1 4.94902e-6 -1.62987e-5 1 4.19952e-6 -1.39699e-5 0 -4.82513e-4 -1 -6.33549e-6 -4.86566e-4 -0.9999999 0 4.86566e-4 0.9999999 3.16777e-6 4.8657e-4 1 -1.48806e-6 1 -5.71559e-4 -8.93974e-6 0.9999999 -5.68136e-4 -6.98445e-6 5.71434e-4 0.9999999 -2.07027e-6 5.70689e-4 0.9999999 2.32816e-6 -5.70689e-4 -1 2.32816e-6 -5.70688e-4 -1 5.95907e-6 -1 5.71561e-4 1.48807e-6 -0.9999999 5.69973e-4 1 2.94648e-6 2.41962e-6 1 -2.21382e-6 7.63774e-6 -1 -2.98546e-6 -4.65469e-6 -1 -2.21896e-6 -5.40012e-6 2.11369e-4 3.12187e-5 1 2.27306e-5 2.04128e-5 1 -7.27359e-5 -4.08246e-5 1 4.54645e-5 7.54351e-5 1 9.09008e-6 -3.77059e-5 1 -1.4549e-4 -8.37766e-5 1 0 9.10913e-6 1 -3.63691e-5 -4.9239e-5 1 -3.63636e-5 1.55891e-4 1 5.45512e-5 -1.07659e-4 1 -3.63673e-5 -6.40571e-5 1 -9.09025e-5 6.21445e-5 1 -3.63742e-5 -1.61624e-5 1 -1.09073e-4 7.04332e-5 1 5.90963e-5 -1.04045e-5 1 1.03419e-4 -2.08092e-5 1 9.8878e-5 -2.08092e-5 1 -0.09801965 -0.9950739 -0.01483362 -0.2901583 -0.9567214 -0.02218812 -0.4708175 -0.8808925 -0.04857409 -8.63519e-5 -4.04171e-5 1 -0.5732087 -0.8158515 -0.07627755 -0.63331 -0.7717537 -0.05757445 1.82515e-5 -1.1553e-5 -1 -1.45477e-4 -5.92668e-5 1 -0.7727201 -0.6341805 -0.02681285 -0.8819136 -0.4711777 -0.0148406 -0.9567053 -0.2902106 -0.02220082 2.0002e-4 8.88954e-5 1 -0.9940027 -0.09798389 -0.04855883 -0.9916057 -0.1219561 -0.04295343 -0.9951288 0.0980798 -0.009954392 -1.1819e-4 -9.53241e-5 1 0 1.35196e-5 -1 -0.9569413 0.2902817 -4.70973e-6 -0.8132067 0.5817451 -0.01636105 3.63653e-5 -4.92673e-6 1 -0.8809754 0.4706599 -0.04859811 6.57307e-6 -3.02995e-5 -1 -0.7727956 0.6343489 -0.01970994 5.45531e-5 4.62406e-5 1 -0.6344421 0.7729063 -0.009953022 -0.4713111 0.8817468 -0.01971417 -0.2899335 0.9558138 -0.04856705 1.81827e-5 5.0255e-5 1 -0.2898607 0.9558365 -0.04855269 0 -1.47662e-6 -1 -0.09801971 0.9949893 -0.01971149 3.63692e-5 -1.03597e-4 1 0.09797418 0.9951393 -0.00995326 0.290113 0.9567895 -0.01970601 0.3896084 0.9202971 -0.03547662 3.63669e-5 3.03483e-6 1 0.4714227 0.8816875 -0.01969593 2.47418e-5 0 -1 0.6344478 0.7729499 -0.004964888 -9.09145e-5 1.0347e-4 1 0.7729457 0.6343945 -0.009938657 0.8987278 0.4367613 -0.03909087 0.8809047 0.4707984 -0.04853874 4.54591e-5 1.98972e-5 1 2.19279e-5 -2.13014e-5 -1 0.9566913 0.290436 -0.01971817 0.9951351 0.09801608 -0.009947836 9.09116e-5 -1.34653e-5 1 0.9949904 -0.09800857 -0.01970767 0.94883 -0.3115118 -0.05179142 0.9553119 -0.2899495 -0.05751878 -1.36374e-4 4.80712e-5 1 1.5586e-5 5.19389e-5 -1 0.881616 -0.4712066 -0.02679121 0.7729715 -0.6342673 -0.01483619 2.59025e-4 -1.07922e-5 1 0.6342253 -0.7728294 -0.02220606 0.470851 -0.8808745 -0.04857534 0.3599066 -0.929866 -0.07626593 -2.64794e-4 3.12087e-5 1 0.2898133 -0.9553512 -0.05755424 -1.82522e-5 -6.66837e-6 -1 0.09804129 -0.9948216 -0.02679556</float_array>
          <technique_common>
            <accessor source="#Link5-mesh-normals-array" count="741" stride="3">
              <param name="X" type="float"/>
              <param name="Y" type="float"/>
              <param name="Z" type="float"/>
            </accessor>
          </technique_common>
        </source>
        <vertices id="Link5-mesh-vertices">
          <input semantic="POSITION" source="#Link5-mesh-positions"/>
        </vertices>
        <triangles material="black-material" count="741">
          <input semantic="VERTEX" source="#Link5-mesh-vertices" offset="0"/>
          <input semantic="NORMAL" source="#Link5-mesh-normals" offset="1"/>
          <p>0 0 1 0 2 0 0 1 3 1 1 1 4 2 3 2 0 2 4 3 5 3 3 3 4 4 6 4 5 4 4 5 7 5 6 5 4 6 8 6 7 6 9 7 8 7 4 7 9 8 10 8 8 8 11 9 7 9 8 9 12 10 7 10 11 10 12 11 6 11 7 11 13 12 6 12 12 12 13 13 5 13 6 13 14 14 5 14 13 14 14 15 3 15 5 15 14 16 1 16 3 16 15 17 1 17 14 17 15 18 2 18 1 18 16 19 2 19 15 19 16 20 0 20 2 20 17 21 0 21 16 21 17 22 4 22 0 22 14 23 16 23 15 23 14 24 17 24 16 24 13 25 17 25 14 25 12 26 17 26 13 26 11 27 17 27 12 27 18 28 17 28 11 28 19 29 17 29 18 29 19 30 20 30 21 30 19 31 22 31 20 31 23 32 22 32 19 32 19 33 24 33 23 33 19 34 25 34 24 34 26 35 25 35 19 35 19 36 27 36 26 36 18 37 27 37 19 37 28 38 27 38 18 38 29 39 25 39 30 39 29 40 24 40 25 40 31 41 24 41 29 41 31 42 23 42 24 42 32 43 23 43 31 43 32 44 22 44 23 44 33 45 22 45 32 45 33 46 20 46 22 46 34 47 20 47 33 47 34 48 21 48 20 48 35 49 21 49 34 49 35 50 19 50 21 50 36 51 19 51 35 51 37 52 19 52 36 52 9 53 19 53 37 53 10 54 37 54 38 54 9 55 37 55 10 55 39 56 38 56 40 56 41 57 38 57 39 57 18 58 38 58 41 58 18 59 10 59 38 59 11 60 10 60 18 60 8 61 10 61 11 61 42 62 28 62 43 62 27 63 28 63 42 63 44 64 30 64 45 64 46 65 44 65 45 65 47 66 44 66 46 66 42 67 44 67 47 67 47 68 27 68 42 68 46 69 27 69 47 69 46 70 26 70 27 70 45 71 26 71 46 71 45 72 25 72 26 72 30 73 25 73 45 73 43 74 18 74 41 74 28 75 18 75 43 75 48 76 49 76 50 76 51 77 49 77 48 77 51 78 52 78 49 78 51 79 53 79 52 79 39 80 53 80 51 80 51 81 41 81 39 81 36 82 41 82 51 82 34 83 36 83 35 83 33 84 36 84 34 84 32 85 36 85 33 85 31 86 36 86 32 86 29 87 36 87 31 87 30 88 36 88 29 88 44 89 36 89 30 89 44 90 41 90 36 90 42 91 41 91 44 91 43 92 41 92 42 92 51 93 37 93 36 93 54 94 37 94 51 94 55 95 56 95 57 95 55 96 54 96 56 96 58 97 54 97 55 97 59 98 54 98 58 98 40 99 54 99 59 99 40 100 37 100 54 100 38 101 37 101 40 101 48 102 54 102 51 102 48 103 56 103 54 103 48 104 57 104 56 104 50 105 57 105 48 105 50 106 55 106 57 106 49 107 55 107 50 107 49 108 58 108 55 108 52 109 58 109 49 109 52 110 59 110 58 110 53 111 59 111 52 111 53 112 40 112 59 112 39 113 40 113 53 113 9 114 17 114 19 114 4 115 17 115 9 115 60 116 61 116 62 116 63 117 64 117 65 117 66 118 67 118 68 118 60 119 62 119 69 119 63 120 65 120 70 120 70 121 65 121 71 121 72 122 73 122 67 122 74 123 75 123 76 123 77 124 78 124 75 124 71 125 65 125 79 125 71 126 79 126 80 126 81 127 78 127 77 127 82 128 83 128 84 128 81 129 85 129 86 129 87 130 60 130 69 130 70 131 88 131 87 131 86 132 68 132 71 132 89 133 85 133 81 133 90 134 72 134 91 134 90 135 91 135 92 135 93 136 82 136 84 136 66 137 86 137 85 137 66 138 85 138 94 138 95 139 96 139 97 139 91 140 96 140 95 140 98 141 99 141 100 141 101 142 102 142 103 142 104 143 102 143 101 143 82 144 105 144 83 144 106 145 107 145 108 145 78 146 62 146 61 146 78 147 61 147 109 147 78 148 109 148 110 148 78 149 110 149 73 149 78 150 73 150 83 150 78 151 83 151 105 151 78 152 105 152 111 152 112 153 113 153 114 153 115 154 116 154 113 154 77 155 89 155 81 155 89 156 77 156 96 156 117 157 118 157 119 157 120 158 119 158 121 158 121 159 122 159 120 159 123 160 118 160 117 160 96 161 124 161 97 161 125 162 126 162 127 162 74 163 76 163 128 163 129 164 111 164 102 164 96 165 130 165 124 165 96 166 77 166 130 166 77 167 131 167 130 167 74 168 131 168 77 168 74 169 132 169 131 169 112 170 114 170 133 170 128 171 132 171 74 171 128 172 122 172 132 172 120 173 122 173 128 173 125 174 119 174 120 174 124 175 92 175 134 175 129 176 135 176 136 176 129 177 137 177 135 177 129 178 138 178 137 178 133 179 114 179 139 179 133 180 139 180 140 180 140 181 139 181 141 181 102 182 138 182 129 182 102 183 142 183 138 183 93 184 131 184 132 184 93 185 132 185 143 185 100 186 122 186 98 186 121 187 98 187 122 187 142 188 102 188 104 188 104 189 144 189 145 189 103 190 146 190 145 190 117 191 104 191 123 191 117 192 119 192 125 192 118 193 145 193 146 193 121 194 103 194 98 194 145 195 118 195 123 195 117 196 142 196 104 196 104 197 101 197 144 197 103 198 102 198 98 198 98 199 102 199 99 199 100 200 99 200 82 200 143 201 82 201 93 201 100 202 82 202 143 202 140 203 141 203 147 203 147 204 141 204 107 204 78 205 111 205 148 205 78 206 148 206 108 206 147 207 107 207 149 207 149 208 107 208 106 208 115 209 113 209 112 209 106 210 108 210 136 210 136 211 108 211 148 211 129 212 148 212 111 212 136 213 148 213 129 213 102 214 111 214 99 214 78 215 108 215 107 215 78 216 107 216 139 216 99 217 111 217 105 217 99 218 105 218 82 218 77 219 75 219 74 219 115 220 135 220 150 220 150 221 137 221 151 221 117 222 152 222 142 222 152 223 138 223 142 223 151 224 138 224 152 224 137 225 138 225 151 225 150 226 135 226 137 226 147 227 149 227 106 227 106 228 140 228 147 228 106 229 133 229 140 229 90 230 84 230 72 230 123 231 104 231 145 231 119 232 103 232 121 232 103 233 119 233 146 233 118 234 146 234 119 234 144 235 101 235 145 235 103 236 145 236 101 236 143 237 122 237 100 237 93 238 84 238 90 238 128 239 76 239 120 239 92 240 91 240 95 240 143 241 132 241 122 241 130 242 92 242 124 242 124 243 134 243 97 243 125 244 152 244 117 244 120 245 76 245 126 245 125 246 151 246 152 246 127 247 151 247 125 247 106 248 112 248 133 248 112 249 106 249 136 249 136 250 115 250 112 250 135 251 115 251 136 251 120 252 126 252 125 252 127 253 116 253 115 253 127 254 126 254 116 254 141 255 139 255 107 255 78 256 139 256 114 256 72 257 83 257 73 257 78 258 114 258 113 258 78 259 113 259 116 259 84 260 83 260 72 260 78 261 116 261 126 261 80 262 78 262 81 262 91 263 72 263 94 263 90 264 131 264 93 264 90 265 130 265 131 265 90 266 92 266 130 266 95 267 134 267 92 267 66 268 72 268 67 268 91 269 89 269 96 269 127 270 150 270 151 270 127 271 115 271 150 271 80 272 86 272 71 272 94 273 85 273 89 273 91 274 94 274 89 274 94 275 72 275 66 275 86 276 66 276 68 276 87 277 153 277 60 277 87 278 154 278 153 278 81 279 86 279 80 279 80 280 79 280 78 280 154 281 109 281 153 281 153 282 109 282 61 282 153 283 61 283 60 283 87 284 109 284 154 284 78 285 126 285 76 285 78 286 76 286 75 286 87 287 110 287 109 287 68 288 67 288 88 288 71 289 68 289 88 289 71 290 88 290 70 290 88 291 110 291 87 291 63 292 70 292 87 292 88 293 73 293 110 293 87 294 69 294 63 294 67 295 73 295 88 295 69 296 64 296 63 296 78 297 79 297 65 297 78 298 65 298 64 298 69 299 62 299 64 299 78 300 64 300 62 300 155 301 156 301 157 301 158 302 155 302 157 302 155 303 159 303 156 303 160 304 158 304 157 304 161 305 155 305 158 305 162 306 161 306 158 306 161 307 159 307 155 307 160 308 162 308 158 308 163 309 161 309 162 309 164 310 163 310 162 310 163 311 159 311 161 311 160 312 164 312 162 312 165 313 163 313 164 313 160 314 165 314 164 314 166 315 163 315 165 315 166 316 159 316 163 316 167 317 166 317 165 317 160 318 167 318 165 318 168 319 166 319 167 319 169 320 168 320 167 320 168 321 159 321 166 321 160 322 169 322 167 322 170 323 168 323 169 323 171 324 170 324 169 324 170 325 159 325 168 325 160 326 171 326 169 326 172 327 170 327 171 327 160 328 172 328 171 328 173 329 170 329 172 329 173 330 159 330 170 330 174 331 173 331 172 331 160 332 174 332 172 332 175 333 173 333 174 333 175 334 159 334 173 334 176 335 175 335 174 335 160 336 176 336 174 336 177 337 175 337 176 337 177 338 159 338 175 338 178 339 177 339 176 339 160 340 178 340 176 340 179 341 177 341 178 341 179 342 159 342 177 342 180 343 179 343 178 343 160 344 180 344 178 344 181 345 179 345 180 345 182 346 181 346 180 346 181 347 159 347 179 347 160 348 182 348 180 348 183 349 181 349 182 349 184 350 183 350 182 350 183 351 159 351 181 351 160 352 184 352 182 352 185 353 183 353 184 353 186 354 185 354 184 354 185 355 159 355 183 355 160 356 186 356 184 356 187 357 185 357 186 357 188 358 187 358 186 358 187 359 159 359 185 359 160 360 188 360 186 360 156 361 187 361 188 361 157 362 156 362 188 362 156 363 159 363 187 363 160 364 157 364 188 364 189 365 190 365 191 365 192 366 189 366 191 366 189 367 193 367 190 367 159 368 192 368 191 368 194 369 189 369 192 369 195 370 194 370 192 370 194 371 193 371 189 371 159 372 195 372 192 372 196 373 194 373 195 373 197 374 196 374 195 374 196 375 193 375 194 375 159 376 197 376 195 376 198 377 196 377 197 377 199 378 198 378 197 378 198 379 193 379 196 379 159 380 199 380 197 380 200 381 198 381 199 381 200 382 193 382 198 382 201 383 200 383 199 383 202 384 201 384 199 384 201 385 193 385 200 385 159 386 202 386 199 386 203 387 201 387 202 387 204 388 203 388 202 388 203 389 193 389 201 389 159 390 204 390 202 390 205 391 203 391 204 391 206 392 205 392 204 392 205 393 193 393 203 393 159 394 206 394 204 394 207 395 205 395 206 395 208 396 207 396 206 396 207 397 193 397 205 397 159 398 208 398 206 398 209 399 207 399 208 399 210 400 209 400 208 400 209 401 193 401 207 401 159 402 210 402 208 402 211 403 209 403 210 403 212 404 211 404 210 404 211 405 193 405 209 405 159 406 212 406 210 406 213 407 211 407 212 407 214 408 213 408 212 408 213 409 193 409 211 409 159 410 214 410 212 410 215 411 213 411 214 411 159 412 215 412 214 412 216 413 213 413 215 413 217 414 216 414 215 414 216 415 193 415 213 415 159 416 217 416 215 416 218 417 216 417 217 417 219 418 218 418 217 418 218 419 193 419 216 419 159 420 219 420 217 420 220 421 218 421 219 421 221 422 220 422 219 422 220 423 193 423 218 423 159 424 221 424 219 424 190 425 220 425 221 425 191 426 190 426 221 426 190 427 193 427 220 427 159 428 191 428 221 428 222 429 223 429 224 429 225 430 222 430 224 430 222 431 226 431 223 431 227 432 225 432 224 432 228 433 222 433 225 433 227 434 228 434 225 434 229 435 222 435 228 435 229 436 226 436 222 436 230 437 229 437 228 437 227 438 230 438 228 438 231 439 229 439 230 439 231 440 226 440 229 440 232 441 231 441 230 441 233 442 232 442 230 442 232 443 226 443 231 443 227 444 233 444 230 444 234 445 232 445 233 445 235 446 234 446 233 446 234 447 226 447 232 447 227 448 235 448 233 448 236 449 234 449 235 449 237 450 236 450 235 450 236 451 226 451 234 451 227 452 237 452 235 452 238 453 236 453 237 453 227 454 238 454 237 454 239 455 236 455 238 455 240 456 239 456 238 456 239 457 226 457 236 457 227 458 240 458 238 458 241 459 239 459 240 459 227 460 241 460 240 460 242 461 239 461 241 461 242 462 226 462 239 462 243 463 242 463 241 463 227 464 243 464 241 464 244 465 242 465 243 465 244 466 226 466 242 466 245 467 244 467 243 467 227 468 245 468 243 468 246 469 244 469 245 469 246 470 226 470 244 470 247 471 246 471 245 471 227 472 247 472 245 472 248 473 246 473 247 473 248 474 226 474 246 474 249 475 248 475 247 475 227 476 249 476 247 476 250 477 248 477 249 477 251 478 250 478 249 478 250 479 226 479 248 479 227 480 251 480 249 480 252 481 250 481 251 481 253 482 252 482 251 482 252 483 226 483 250 483 227 484 253 484 251 484 254 485 252 485 253 485 254 486 226 486 252 486 255 487 254 487 253 487 227 488 255 488 253 488 223 489 254 489 255 489 223 490 226 490 254 490 224 491 223 491 255 491 227 492 224 492 255 492 256 493 257 493 258 493 258 494 257 494 259 494 260 495 261 495 262 495 263 496 264 496 265 496 265 497 264 497 266 497 265 498 266 498 267 498 257 499 268 499 259 499 259 500 268 500 269 500 268 501 270 501 269 501 269 502 270 502 271 502 270 503 268 503 272 503 272 504 268 504 273 504 273 505 268 505 274 505 274 506 268 506 257 506 274 507 257 507 275 507 275 508 257 508 256 508 275 509 258 509 276 509 275 510 256 510 258 510 277 511 278 511 279 511 279 512 278 512 280 512 280 513 278 513 261 513 280 514 261 514 281 514 281 515 261 515 282 515 282 516 261 516 260 516 267 517 283 517 265 517 282 518 260 518 262 518 284 519 285 519 264 519 264 520 285 520 266 520 266 521 285 521 286 521 266 522 286 522 267 522 267 523 286 523 287 523 267 524 287 524 283 524 283 525 287 525 288 525 288 526 287 526 289 526 290 527 284 527 291 527 291 528 284 528 264 528 291 529 292 529 290 529 293 530 290 530 292 530 293 531 294 531 295 531 296 532 295 532 294 532 296 533 297 533 295 533 292 534 294 534 293 534 281 535 297 535 280 535 280 536 297 536 296 536 298 537 299 537 300 537 300 538 299 538 301 538 302 539 303 539 304 539 304 540 303 540 305 540 305 541 303 541 306 541 305 542 306 542 307 542 307 543 306 543 308 543 307 544 308 544 309 544 309 545 308 545 300 545 300 546 308 546 298 546 288 547 289 547 302 547 288 548 302 548 304 548 310 549 273 549 311 549 311 550 273 550 274 550 299 551 312 551 301 551 313 552 301 552 312 552 313 553 314 553 315 553 310 554 315 554 314 554 310 555 311 555 315 555 312 556 314 556 313 556 280 557 296 557 279 557 265 558 283 558 288 558 265 559 288 559 304 559 265 560 304 560 316 560 284 561 317 561 318 561 276 562 300 562 301 562 276 563 301 563 313 563 276 564 313 564 315 564 276 565 315 565 311 565 274 566 275 566 311 566 311 567 275 567 276 567 319 568 270 568 272 568 319 569 271 569 270 569 279 570 320 570 277 570 284 571 318 571 285 571 281 572 282 572 297 572 285 573 318 573 286 573 286 574 318 574 287 574 287 575 318 575 289 575 289 576 318 576 321 576 318 577 316 577 321 577 265 578 316 578 318 578 259 579 316 579 276 579 259 580 321 580 316 580 269 581 321 581 259 581 269 582 319 582 321 582 298 583 319 583 299 583 299 584 319 584 312 584 312 585 319 585 314 585 314 586 319 586 310 586 310 587 319 587 272 587 310 588 272 588 273 588 290 589 317 589 284 589 298 590 321 590 319 590 308 591 321 591 298 591 306 592 321 592 308 592 303 593 321 593 306 593 302 594 321 594 303 594 289 595 321 595 302 595 293 596 317 596 290 596 271 597 319 597 269 597 295 598 317 598 293 598 297 599 317 599 295 599 297 600 282 600 317 600 279 601 263 601 320 601 276 602 258 602 259 602 316 603 300 603 276 603 316 604 309 604 300 604 307 605 309 605 316 605 316 606 305 606 307 606 316 607 304 607 305 607 262 608 322 608 317 608 320 609 263 609 323 609 323 610 263 610 318 610 263 611 265 611 318 611 322 612 318 612 317 612 318 613 322 613 323 613 263 614 291 614 264 614 263 615 292 615 291 615 294 616 292 616 263 616 263 617 296 617 294 617 279 618 296 618 263 618 282 619 262 619 317 619 322 620 278 620 323 620 261 621 278 621 322 621 262 622 261 622 322 622 323 623 277 623 320 623 278 624 277 624 323 624 324 625 325 625 326 625 326 626 325 626 327 626 325 627 324 627 328 627 325 628 328 628 329 628 326 629 327 629 330 629 330 630 327 630 331 630 330 631 331 631 328 631 328 632 331 632 329 632 327 633 325 633 331 633 331 634 325 634 329 634 324 635 326 635 330 635 324 636 330 636 328 636 332 637 333 637 334 637 334 638 333 638 335 638 333 639 332 639 336 639 333 640 336 640 337 640 334 641 335 641 338 641 338 642 335 642 339 642 338 643 339 643 336 643 336 644 339 644 337 644 335 645 333 645 339 645 339 646 333 646 337 646 332 647 334 647 338 647 332 648 338 648 336 648 340 649 341 649 342 649 342 650 341 650 343 650 341 651 340 651 344 651 341 652 344 652 345 652 342 653 343 653 346 653 346 654 343 654 347 654 346 655 347 655 344 655 344 656 347 656 345 656 343 657 341 657 347 657 347 658 341 658 345 658 340 659 342 659 346 659 340 660 346 660 344 660 348 661 349 661 350 661 348 662 350 662 351 662 348 663 351 663 352 663 348 664 352 664 353 664 348 665 353 665 354 665 348 666 354 666 355 666 348 667 355 667 356 667 348 668 356 668 357 668 348 669 357 669 358 669 348 670 358 670 359 670 348 671 359 671 360 671 348 672 360 672 361 672 348 673 361 673 362 673 348 674 362 674 363 674 348 675 363 675 364 675 348 676 364 676 365 676 348 677 365 677 366 677 367 678 368 678 349 678 369 679 368 679 367 679 370 680 368 680 369 680 348 681 366 681 371 681 372 682 368 682 370 682 373 683 372 683 370 683 372 684 374 684 368 684 348 685 371 685 375 685 376 686 372 686 373 686 377 687 372 687 376 687 378 688 372 688 377 688 348 689 375 689 379 689 380 690 372 690 378 690 381 691 372 691 380 691 382 692 381 692 380 692 348 693 379 693 383 693 381 694 374 694 372 694 384 695 381 695 382 695 385 696 381 696 384 696 348 697 383 697 384 697 383 698 385 698 384 698 385 699 374 699 381 699 379 700 385 700 383 700 348 701 384 701 382 701 375 702 385 702 379 702 371 703 385 703 375 703 386 704 385 704 371 704 348 705 382 705 380 705 366 706 386 706 371 706 386 707 374 707 385 707 365 708 386 708 366 708 348 709 380 709 378 709 364 710 386 710 365 710 363 711 386 711 364 711 387 712 386 712 363 712 348 713 378 713 377 713 362 714 387 714 363 714 387 715 374 715 386 715 361 716 387 716 362 716 348 717 377 717 376 717 360 718 387 718 361 718 388 719 387 719 360 719 359 720 388 720 360 720 348 721 376 721 373 721 388 722 374 722 387 722 358 723 388 723 359 723 357 724 388 724 358 724 348 725 373 725 370 725 356 726 388 726 357 726 389 727 388 727 356 727 355 728 389 728 356 728 348 729 370 729 369 729 389 730 374 730 388 730 354 731 389 731 355 731 353 732 389 732 354 732 348 733 369 733 367 733 352 734 389 734 353 734 351 735 389 735 352 735 368 736 389 736 351 736 348 737 367 737 349 737 350 738 368 738 351 738 368 739 374 739 389 739 349 740 368 740 350 740</p>
        </triangles>
      </mesh>
    </geometry>
  </library_geometries>
  <library_controllers/>
  <library_visual_scenes>
    <visual_scene id="Scene" name="Scene">
      <node id="Camera" name="Camera" type="NODE">
        <matrix sid="transform">0.6859207 -0.3240135 0.6515582 7.481132 0.7276763 0.3054208 -0.6141704 -6.50764 0 0.8953956 0.4452714 5.343665 0 0 0 1</matrix>
        <instance_camera url="#Camera-camera"/>
      </node>
      <node id="Lamp" name="Lamp" type="NODE">
        <matrix sid="transform">-0.2908646 -0.7711008 0.5663932 4.076245 0.9551712 -0.1998834 0.2183912 1.005454 -0.05518906 0.6045247 0.7946723 5.903862 0 0 0 1</matrix>
        <instance_light url="#Lamp-light"/>
      </node>
      <node id="Link5" name="Link5" type="NODE">
        <matrix sid="transform">1 0 0 0 0 1 0 0 0 0 1 0 0 0 0 1</matrix>
        <instance_geometry url="#Link5-mesh" name="Link5">
          <bind_material>
            <technique_common>
              <instance_material symbol="black-material" target="#black-material"/>
            </technique_common>
          </bind_material>
        </instance_geometry>
      </node>
    </visual_scene>
  </library_visual_scenes>
  <scene>
    <instance_visual_scene url="#Scene"/>
  </scene>
</COLLADA>