<?xml version="1.0" encoding="utf-8"?>
<COLLADA xmlns="http://www.collada.org/2005/11/COLLADASchema" version="1.4.1" xmlns:xsi="http://www.w3.org/2001/XMLSchema-instance">
  <asset>
    <contributor>
      <author>Blender User</author>
      <authoring_tool>Blender 2.79.0 commit date:2018-03-22, commit time:14:10, hash:f4dc9f9d68b</authoring_tool>
    </contributor>
    <created>2019-04-03T17:48:53</created>
    <modified>2019-04-03T17:48:53</modified>
    <unit name="meter" meter="1"/>
    <up_axis>Z_UP</up_axis>
  </asset>
  <library_cameras>
    <camera id="Camera-camera" name="Camera">
      <optics>
        <technique_common>
          <perspective>
            <xfov sid="xfov">49.13434</xfov>
            <aspect_ratio>1.777778</aspect_ratio>
            <znear sid="znear">0.1</znear>
            <zfar sid="zfar">100</zfar>
          </perspective>
        </technique_common>
      </optics>
      <extra>
        <technique profile="blender">
          <shiftx sid="shiftx" type="float">0</shiftx>
          <shifty sid="shifty" type="float">0</shifty>
          <YF_dofdist sid="YF_dofdist" type="float">0</YF_dofdist>
        </technique>
      </extra>
    </camera>
  </library_cameras>
  <library_lights>
    <light id="Lamp-light" name="Lamp">
      <technique_common>
        <point>
          <color sid="color">1 1 1</color>
          <constant_attenuation>1</constant_attenuation>
          <linear_attenuation>0</linear_attenuation>
          <quadratic_attenuation>0.00111109</quadratic_attenuation>
        </point>
      </technique_common>
      <extra>
        <technique profile="blender">
          <type sid="type" type="int">0</type>
          <flag sid="flag" type="int">0</flag>
          <mode sid="mode" type="int">8192</mode>
          <gamma sid="blender_gamma" type="float">1</gamma>
          <red sid="red" type="float">1</red>
          <green sid="green" type="float">1</green>
          <blue sid="blue" type="float">1</blue>
          <shadow_r sid="blender_shadow_r" type="float">0</shadow_r>
          <shadow_g sid="blender_shadow_g" type="float">0</shadow_g>
          <shadow_b sid="blender_shadow_b" type="float">0</shadow_b>
          <energy sid="blender_energy" type="float">1</energy>
          <dist sid="blender_dist" type="float">29.99998</dist>
          <spotsize sid="spotsize" type="float">75</spotsize>
          <spotblend sid="spotblend" type="float">0.15</spotblend>
          <halo_intensity sid="blnder_halo_intensity" type="float">1</halo_intensity>
          <att1 sid="att1" type="float">0</att1>
          <att2 sid="att2" type="float">1</att2>
          <falloff_type sid="falloff_type" type="int">2</falloff_type>
          <clipsta sid="clipsta" type="float">1.000799</clipsta>
          <clipend sid="clipend" type="float">30.002</clipend>
          <bias sid="bias" type="float">1</bias>
          <soft sid="soft" type="float">3</soft>
          <compressthresh sid="compressthresh" type="float">0.04999995</compressthresh>
          <bufsize sid="bufsize" type="int">2880</bufsize>
          <samp sid="samp" type="int">3</samp>
          <buffers sid="buffers" type="int">1</buffers>
          <filtertype sid="filtertype" type="int">0</filtertype>
          <bufflag sid="bufflag" type="int">0</bufflag>
          <buftype sid="buftype" type="int">2</buftype>
          <ray_samp sid="ray_samp" type="int">1</ray_samp>
          <ray_sampy sid="ray_sampy" type="int">1</ray_sampy>
          <ray_sampz sid="ray_sampz" type="int">1</ray_sampz>
          <ray_samp_type sid="ray_samp_type" type="int">0</ray_samp_type>
          <area_shape sid="area_shape" type="int">1</area_shape>
          <area_size sid="area_size" type="float">0.1</area_size>
          <area_sizey sid="area_sizey" type="float">0.1</area_sizey>
          <area_sizez sid="area_sizez" type="float">1</area_sizez>
          <adapt_thresh sid="adapt_thresh" type="float">0.000999987</adapt_thresh>
          <ray_samp_method sid="ray_samp_method" type="int">1</ray_samp_method>
          <shadhalostep sid="shadhalostep" type="int">0</shadhalostep>
          <sun_effect_type sid="sun_effect_type" type="int">0</sun_effect_type>
          <skyblendtype sid="skyblendtype" type="int">1</skyblendtype>
          <horizon_brightness sid="horizon_brightness" type="float">1</horizon_brightness>
          <spread sid="spread" type="float">1</spread>
          <sun_brightness sid="sun_brightness" type="float">1</sun_brightness>
          <sun_size sid="sun_size" type="float">1</sun_size>
          <backscattered_light sid="backscattered_light" type="float">1</backscattered_light>
          <sun_intensity sid="sun_intensity" type="float">1</sun_intensity>
          <atm_turbidity sid="atm_turbidity" type="float">2</atm_turbidity>
          <atm_extinction_factor sid="atm_extinction_factor" type="float">1</atm_extinction_factor>
          <atm_distance_factor sid="atm_distance_factor" type="float">1</atm_distance_factor>
          <skyblendfac sid="skyblendfac" type="float">1</skyblendfac>
          <sky_exposure sid="sky_exposure" type="float">1</sky_exposure>
          <sky_colorspace sid="sky_colorspace" type="int">0</sky_colorspace>
        </technique>
      </extra>
    </light>
  </library_lights>
  <library_images/>
  <library_geometries>
    <geometry id="Track-mesh" name="Track">
      <mesh>
        <source id="Track-mesh-positions">
          <float_array id="Track-mesh-positions-array" count="189">1.899999 -2.379493 4.99994e-4 -0.3339033 -2.379493 5.00113e-4 1.899999 -2.379493 -3.27826e-7 1.899999 1.525 5.00381e-4 1.6 -2.079493 4.99994e-4 -0.0339033 -2.079493 4.99874e-4 -0.3339033 -0.8794935 4.99994e-4 -0.03390341 -0.5794934 4.99994e-4 -1.733903 -0.5794935 5.00232e-4 -1.1 1.525 5.00232e-4 -0.8000003 1.225 4.99994e-4 1.6 1.225 4.99874e-4 -1.1 0.02499991 5.00172e-4 -0.8000006 0.3249998 5.00232e-4 1.2 0.02500003 4.99934e-4 0.8999996 0.325 4.99934e-4 1.2 0.525 5.00113e-4 0.8999996 0.525 5.00113e-4 -2.033903 -0.8794937 5.00083e-4 -1.733904 2.020507 4.99874e-4 -2.033904 2.320507 5.00292e-4 -1.033903 2.320507 5.00292e-4 -1.033903 2.020506 5.00113e-4 1.2 1.720507 0.2499999 0.8999995 1.720506 0.25 1.199999 1.720507 0 0.8999995 1.720506 0 0.8999995 2.020507 0 1.199999 2.320507 0 0.8999997 2.320507 1.19209e-7 0.09999954 2.320507 0.2500001 0.8999997 2.320507 0.2500001 0.09999954 2.320507 0 0.09999966 2.020507 0.2500001 0.09999966 2.020507 1.49012e-7 0.8999995 2.020507 0.25 1.6 -2.079493 0 -0.0339033 -2.079493 0 -0.3339034 -0.8794936 0 -0.3339032 -2.379493 0 -1.733903 -0.5794937 0 -0.03390341 -0.5794934 0 -1.733903 2.020507 0 -2.033903 -0.8794934 0 1.6 1.225 0 1.899999 1.524999 0 -0.8000005 1.225 0 -1.1 1.525 0 -0.8000006 0.3249999 0 -1.1 0.02499997 0 1.2 0.02499997 0 0.8999995 0.3249999 0 1.2 0.5249999 0 0.8999996 0.5249999 0 -2.033903 2.320507 0 -1.033903 2.320507 0 -1.033903 2.020507 0 0.09999984 2.020506 0.2505002 0.0999996 2.320507 0.2505002 0.8999997 2.020506 0.2505003 0.8999997 1.720506 0.2505003 1.2 1.720506 0.2505002 1.199999 2.320507 0.2505003</float_array>
          <technique_common>
            <accessor source="#Track-mesh-positions-array" count="63" stride="3">
              <param name="X" type="float"/>
              <param name="Y" type="float"/>
              <param name="Z" type="float"/>
            </accessor>
          </technique_common>
        </source>
        <source id="Track-mesh-normals">
          <float_array id="Track-mesh-normals-array" count="312">0 -0.9999997 8.5327e-4 0 0 1 0 0 1 0 7.41364e-7 1 7.15308e-7 0 1 0 0 1 1.40275e-7 -1.40246e-7 1 0 -8.44399e-7 1 0 -1.73847e-6 1 -1.72483e-6 0 1 7.55148e-7 0 1 -4.63938e-7 2.6491e-7 1 0 -3.02342e-7 1 1.75308e-7 1.75308e-7 1 -3.57783e-7 -3.57628e-7 1 0 -8.9407e-7 1 0 -5.49298e-7 1 -6.34314e-7 1.37549e-7 1 1.3255e-6 0 1 0 -1.39078e-6 1 -3.406e-7 -5.96046e-7 1 3.97364e-7 -1 0 3.97364e-7 -1 0 0 0 -1 1.98682e-7 1.98682e-7 -1 0 4.96706e-7 -1 0 1 0 -1 -3.47694e-7 0 -1 -3.97365e-7 0 0 -1 0 -2.98023e-7 -1 0 0 4.96705e-7 -1 -2.23518e-7 -1.98683e-7 -1 -1 -1.55232e-7 2.38436e-4 -1 0 -1.19204e-4 0 1 -2.80379e-4 -1.40246e-7 1 0 1 0 0 1 0 0 1 0 0 1.40259e-7 -1 2.80513e-4 -1.40246e-7 -0.9999998 -6.96116e-4 -0.9999996 0 -9.53573e-4 2.90505e-7 0 -1 0 3.97365e-7 -1 0 2.18551e-7 -1 -2.98023e-7 0 -1 0 0 -1 0 0 -1 0 -2.16213e-7 -1 1.39077e-7 0 -1 0 0 -1 -1.86773e-7 -4.09274e-7 -1 0 1.26505e-6 -1 -1.21013e-6 0 -1 -5.5631e-7 0 -1 0 0 -1 0 0 -1 -1.98682e-7 0 -1 0 1.98682e-7 -1 0 1.98682e-7 -1 0.2153068 0 -0.9765465 0.2153066 0 -0.9765466 -0.2153064 -5.98885e-7 0.9765467 -0.2153065 -4.36331e-7 0.9765465 -6.81196e-7 -1 0 -3.40598e-7 -0.9999991 -0.001362144 1.05313e-4 -0.9999997 -8.40822e-4 0 -0.9999998 -5.95664e-4 0 -0.9999994 -0.001192033 2.10272e-4 -0.9999997 -8.41087e-4 3.31137e-7 0 1 1.65568e-7 -1.98682e-7 1 0 0 1 -1.24176e-7 -2.98023e-7 1 0 0.9999997 8.66654e-4 0 1 0 -7.94729e-7 1 0 0 0.2046887 -0.9788271 -2.44008e-7 0.2046887 -0.9788272 4.88016e-7 -0.204689 0.9788271 0 -0.2046886 0.9788272 1.58965e-7 0.9999993 -0.001270771 1 0 -2.38265e-4 -1 0 2.38464e-4 0 -1 -3.97346e-4 1 0 0 1 -2.58689e-7 -3.57611e-4 0 1 -2.80546e-4 0 1 2.80396e-4 -0.9999999 0 4.76569e-4 -1 0 4.76521e-4 -1 0 0 -0.9999999 -1.49462e-4 4.76487e-4 -1 5.8198e-7 0 -1 2.3424e-7 1.19232e-4 1 -4.65806e-7 0 1 0 0 1 -1.92685e-5 -2.38267e-4 1 3.87833e-7 -2.38284e-4 1 3.96571e-7 0 1 0 -4.76837e-7 0 -1 -1.16585e-4 -0.9999998 -1.55176e-7 7.15052e-4</float_array>
          <technique_common>
            <accessor source="#Track-mesh-normals-array" count="104" stride="3">
              <param name="X" type="float"/>
              <param name="Y" type="float"/>
              <param name="Z" type="float"/>
            </accessor>
          </technique_common>
        </source>
        <vertices id="Track-mesh-vertices">
          <input semantic="POSITION" source="#Track-mesh-positions"/>
        </vertices>
        <triangles count="118">
          <input semantic="VERTEX" source="#Track-mesh-vertices" offset="0"/>
          <input semantic="NORMAL" source="#Track-mesh-normals" offset="1"/>
          <p>0 0 1 0 2 0 3 1 4 1 0 1 0 2 4 2 5 2 0 3 5 3 1 3 1 4 5 4 6 4 6 5 5 5 7 5 6 6 7 6 8 6 9 7 10 7 3 7 3 8 10 8 11 8 3 9 11 9 4 9 9 10 12 10 10 10 10 11 12 11 13 11 13 12 12 12 14 12 13 13 14 13 15 13 15 14 14 14 16 14 15 15 16 15 17 15 6 16 8 16 18 16 18 17 8 17 19 17 18 18 19 18 20 18 20 19 19 19 21 19 21 20 19 20 22 20 23 21 24 21 25 21 25 22 24 22 26 22 26 23 27 23 25 23 25 24 27 24 28 24 28 25 27 25 29 25 30 26 31 26 32 26 32 26 31 26 29 26 33 27 30 27 34 27 34 28 30 28 32 28 35 29 33 29 27 29 27 30 33 30 34 30 29 31 27 31 32 31 32 32 27 32 34 32 36 26 37 26 4 26 4 26 37 26 5 26 38 33 39 33 6 33 6 34 39 34 1 34 8 35 7 35 40 35 40 36 7 36 41 36 37 37 41 37 5 37 5 38 41 38 7 38 40 39 42 39 8 39 6 40 18 40 38 40 38 41 18 41 43 41 18 42 20 42 43 42 2 43 44 43 45 43 45 44 44 44 46 44 45 45 46 45 47 45 47 46 46 46 48 46 47 47 48 47 49 47 49 48 48 48 50 48 50 49 48 49 51 49 50 50 51 50 52 50 52 51 51 51 53 51 39 52 37 52 2 52 2 53 37 53 36 53 2 54 36 54 44 54 39 55 38 55 37 55 37 56 38 56 41 56 41 23 38 23 40 23 40 23 38 23 43 23 40 57 43 57 54 57 40 58 54 58 42 58 42 59 54 59 55 59 42 60 55 60 56 60 56 61 55 61 33 61 33 62 55 62 30 62 22 63 57 63 21 63 21 64 57 64 58 64 19 65 42 65 22 65 22 66 42 66 56 66 22 67 56 67 33 67 35 68 59 68 33 68 33 69 59 69 57 69 33 70 57 70 22 70 60 71 61 71 59 71 59 72 61 72 62 72 59 73 62 73 58 73 58 74 57 74 59 74 30 26 58 26 31 26 31 75 58 75 62 75 31 76 62 76 28 76 58 26 30 26 21 26 21 26 30 26 55 26 21 26 55 26 54 26 54 26 20 26 21 26 28 77 29 77 31 77 53 78 24 78 52 78 52 79 24 79 23 79 60 80 17 80 61 80 61 81 17 81 16 81 45 82 47 82 3 82 2 83 45 83 0 83 44 84 36 84 11 84 46 85 44 85 10 85 48 86 46 86 13 86 13 87 46 87 10 87 51 88 48 88 15 88 15 89 48 89 13 89 60 90 59 90 24 90 24 91 59 91 35 91 24 92 35 92 26 92 26 92 35 92 27 92 60 93 24 93 17 93 17 92 24 92 53 92 17 94 53 94 51 94 51 95 15 95 17 95 50 96 52 96 14 96 14 97 52 97 16 97 16 97 52 97 23 97 16 98 23 98 61 98 61 99 23 99 62 99 62 100 23 100 28 100 28 101 23 101 25 101 49 102 50 102 12 102 47 92 49 92 9 92 9 103 49 103 12 103</p>
        </triangles>
      </mesh>
    </geometry>
  </library_geometries>
  <library_controllers/>
  <library_visual_scenes>
    <visual_scene id="Scene" name="Scene">
      <node id="Camera" name="Camera" type="NODE">
        <matrix sid="transform">0.6859207 -0.3240135 0.6515582 7.481132 0.7276763 0.3054208 -0.6141704 -6.50764 0 0.8953956 0.4452714 5.343665 0 0 0 1</matrix>
        <instance_camera url="#Camera-camera"/>
      </node>
      <node id="Lamp" name="Lamp" type="NODE">
        <matrix sid="transform">-0.2908646 -0.7711008 0.5663932 4.076245 0.9551712 -0.1998834 0.2183912 1.005454 -0.05518906 0.6045247 0.7946723 5.903862 0 0 0 1</matrix>
        <instance_light url="#Lamp-light"/>
      </node>
      <node id="Track" name="Track" type="NODE">
        <matrix sid="transform">1 0 0 0 0 1 0 0 0 0 1 0 0 0 0 1</matrix>
        <instance_geometry url="#Track-mesh" name="Track"/>
      </node>
    </visual_scene>
  </library_visual_scenes>
  <scene>
    <instance_visual_scene url="#Scene"/>
  </scene>
</COLLADA>