<?xml version="1.0"?>
<robot name="AI-Starter">
<link name="origin"/>

<link name="chassis">
	<visual>
		<origin xyz="-0.046 0 -0.044" rpy="0 0 0" />
				<geometry>
					<mesh filename="package://description/meshes/starter/chassis.dae"/>
			</geometry>
	</visual>
	<collision>
		<geometry>
			<box size="0.196 0.125 0.060"/>
		</geometry>
	</collision>
	<inertial>
        <origin xyz="0.0 0.0 0.0" rpy="0 0 0" />
        <mass value="1.0" />
        <inertia ixx="0.00160208333" ixy="0.0" ixz="0.0" iyy="0.00350133333" iyz="0.0" izz="0.00450341666" />
    </inertial>
</link>

<joint name="chassis_joint" type="fixed">
	<origin xyz="0.0 0.0 0.047333" rpy="0 0 0" />
	<parent link="origin" />
	<child link="chassis" />
</joint>

<link name="right_wheel">
	<visual>
		<origin xyz="0.0 0.0335 0.07480" rpy="1.5707 0.0  0.0" />
				<geometry>
					<mesh filename="package://description/meshes/starter/right_wheel.dae"/>
		</geometry>
	</visual>
	<collision>
		<geometry>
					<cylinder radius="0.03375" length="0.0226"/>
		</geometry>
	</collision>
	<inertial>
        <origin xyz="0.0 0.0 0.0" rpy="0 0 0" />
        <mass value="2.0" />
        <inertia ixx="0.00068745791" ixy="0.0" ixz="0.0" iyy="0.00068745791" iyz="0.0" izz="0.0011390625" />
    </inertial>
</link>

<joint name="right_wheel_joint" type="continuous">
	<origin xyz="-0.045917 -0.07480 -0.013583" rpy="0 1.5707 1.5707" />
	<parent link="chassis" />
	<child link="right_wheel" />
	<axis xyz="0 0 1" />
</joint>

<link name="left_wheel">
	<visual>
		<origin xyz="0.0 0.0335 -0.07480" rpy="1.5707 0.0  0.0" />
				<geometry>
					<mesh filename="package://description/meshes/starter/left_wheel.dae"/>
		</geometry>
	</visual>
	<collision>
		<geometry>
					<cylinder radius="0.03375" length="0.0226"/>
		</geometry>
	</collision>
	<inertial>
        <origin xyz="0.0 0.0 0.0" rpy="0 0 0" />
        <mass value="2.0" />
        <inertia ixx="0.00068745791" ixy="0.0" ixz="0.0" iyy="0.00068745791" iyz="0.0" izz="0.0011390625" />
    </inertial>
</link>

<joint name="left_wheel_joint" type="continuous">
	<origin xyz="-0.045917 0.07480 -0.013583" rpy="0 1.5707 1.5707" />
	<parent link="chassis" />
	<child link="left_wheel" />
	<axis xyz="0 0 1" />
</joint>

<link name="caster_wheel">
	<visual>
			<origin xyz="0.0 0.0 0.0" rpy="0 0 0" />
				<geometry>
					<sphere radius="0.005939" />
		</geometry>
		<material name="black">
			<color rgba="0.0 0.0 0.0 1"/>
		</material>
	</visual>
	</link>

<joint name="chassis_caster_wheel" type="fixed">
	<origin xyz="0.065985 0.0 -0.041394" rpy="0 0 0" />
	<parent link="chassis" />
	<child link="caster_wheel" />
</joint>

<link name="caster_wheel1">
	<!--visual>
			<origin xyz="0.0 -0.05 0.0" rpy="0 0 0" />
				<geometry>
					<sphere radius="0.005939" />
		</geometry>
		<material name="black">
			<color rgba="0.0 0.0 0.0 1"/>
		</material>
	</visual-->
	<collision>
		<geometry>
			<sphere radius="0.005939" />
		</geometry>
	</collision>
	<inertial>
		<origin xyz="0.0 0.0 0.0" rpy="0 0 0" />
		<mass value="0.01" />
		<inertia ixx="0.0000001411" ixy="0.0" ixz="0.0" iyy="0.0000001411" iyz="0.0" izz="0.0000001411" />
	</inertial>
</link>

<joint name="caster_wheel_right_joint1" type="continuous">
	<origin xyz="0.065985 0.05 -0.041394" rpy="0 0 0" />
	<parent link="chassis" />
	<child link="caster_wheel1" />
	<axis xyz="0 0 1" />
</joint>

<link name="caster_wheel2">
	<!--visual>
				<geometry>
					<sphere radius="0.005939" />
		</geometry>
		<material name="black">
			<color rgba="0.0 0.0 0.0 1"/>
		</material>
	</visual-->
	<collision>
		<geometry>
					<sphere radius="0.005939" />
		</geometry>
	</collision>
	<inertial>
		<origin xyz="0.0 0.0 0.0" rpy="0 0 0" />
		<mass value="0.01" />
		<inertia ixx="0.0000001411" ixy="0.0" ixz="0.0" iyy="0.0000001411" iyz="0.0" izz="0.0000001411" />
	</inertial>
</link>

<joint name="caster_wheel_right_joint2" type="continuous">
	<origin xyz="0.065985 -0.05 -0.041394" rpy="0 0 0" />
	<parent link="chassis" />
	<child link="caster_wheel2" />
	<axis xyz="0 0 1" />
</joint>

<!-- Sensor -->

<link name="hokuyo_link">
<visual>
	<origin xyz="-0.133953 0 -0.040" rpy="0 0 0" />
	<geometry>
		<mesh filename="package://description/meshes/starter/ultrassonic_center.stl"/>
	</geometry>
	<material name="blue">
		<color rgba="0.0 0.0 0.8 1"/>
	</material>
</visual>

<inertial>
	<mass value="0.015" />
	<inertia ixx="0.0000028762" ixy="0" ixz="0" iyy="0.0000007824" iyz="0" izz="0.0000031962" />
</inertial>
</link>

<joint name="hokuyo_joint" type="fixed">
<axis xyz="0 1 0" />
 <origin xyz="0.087953 0 -0.004" rpy="0 0 0" />
<parent link="chassis"/>
<child link="hokuyo_link"/>
</joint>

<link name="hokuyo_link_right">
<visual>
	<origin xyz="-0.074 -0.016 -0.040" rpy="0.0 0.0 0.785398" />
	<geometry>
		<mesh filename="package://description/meshes/starter/ultrassonic_r.stl"/>
	</geometry>
	<material name="blue">
		<color rgba="0.0 0.0 0.8 1"/>
	</material>
</visual>

<inertial>
	<mass value="0.015" />
	<inertia ixx="0.0000028762" ixy="0" ixz="0" iyy="0.0000031962" iyz="0" izz="0.0000007824" />
</inertial>
</link>

<joint name="hokuyo_joint_right" type="fixed">
<axis xyz="0 1 0" />
 <origin xyz="0.063351 -0.041591 -0.004" rpy="0 0 -0.785398" />
<parent link="chassis"/>
<child link="hokuyo_link_right"/>
</joint>

<link name="hokuyo_link_left">
<visual>
	<origin xyz="-0.1065 0.0485 -0.040" rpy="0.0 0.0 -0.785398" />
	<geometry>
		<mesh filename="package://description/meshes/starter/ultrassonic_l.stl"/>
	</geometry>
	<material name="blue">
		<color rgba="0.0 0.0 0.8 1"/>
	</material>
</visual>

<inertial>
	<mass value="0.015" />
	<inertia ixx="0.0000028762" ixy="0" ixz="0" iyy="0.0000031962" iyz="0" izz="0.0000007824" />
</inertial>
</link>

<joint name="hokuyo_joint_left" type="fixed">
<axis xyz="0 1 0" />
 <origin xyz="0.063351 0.041591 -0.004" rpy="0 0 0.785398" />
<parent link="chassis"/>
<child link="hokuyo_link_left"/>
</joint>


<gazebo reference="chassis"/>
<gazebo reference="right_wheel"/>
<gazebo reference="left_wheel"/>
<gazebo reference="caster_wheel1"/>
<gazebo reference="caster_wheel2"/>


<!-- Gazebo-->

<gazebo reference="hokuyo_link">
<material>Gazebo/Blue</material>
<sensor type="ray" name="head_hokuyo_sensor">
	<pose>0 0 0 0 0 0</pose>
	<visualize>true</visualize>
	<update_rate>40</update_rate>
	<ray>
		<scan>
			<horizontal>
				<samples>15</samples>  
				<resolution>1</resolution>
				<min_angle>-0.523599</min_angle>    
				<max_angle>0.523599</max_angle> 
			</horizontal>
		</scan>
		<range>
			<min>0.02</min>
			<max>2.0</max>
			<resolution>0.01</resolution>
		</range>
		<noise>
			<type>gaussian</type>
			<mean>0.0</mean>
			<stddev>0.01</stddev>
		</noise>
	</ray>
	<plugin name="gazebo_ros_head_hokuyo_controller" filename="libgazebo_ros_laser.so">
		<topicName>laser3/scan</topicName>
		<frameName>hokuyo_link</frameName>
	</plugin>
</sensor>
</gazebo> 


<gazebo reference="hokuyo_link_right">
<material>Gazebo/Blue</material>
<sensor type="ray" name="head_hokuyo_sensor_right">
	<pose>0 0 0 0 0 0</pose>
	<visualize>true</visualize>
	<update_rate>40</update_rate>
	<ray>
		<scan>
			<horizontal>
				<samples>15</samples>  
				<resolution>1</resolution>
				<min_angle>-0.523599</min_angle>    
				<max_angle>0.267799</max_angle>
			</horizontal>
		</scan>
		<range>
			<min>0.10</min>
			<max>2.0</max>
			<resolution>0.01</resolution>
		</range>
		<noise>
			<type>gaussian</type>
			<mean>0.0</mean>
			<stddev>0.01</stddev>
		</noise>
	</ray>
	<plugin name="gazebo_ros_head_hokuyo_controller_right" filename="libgazebo_ros_laser.so">
		<topicName>laser4/scan</topicName>
		<frameName>hokuyo_link_right</frameName>
	</plugin>
</sensor>
</gazebo>

 



<gazebo reference="hokuyo_link_left">
<material>Gazebo/Blue</material>
<sensor type="ray" name="head_hokuyo_sensor_left">
	<pose>0 0 0 0 0 0</pose>
	<visualize>true</visualize>
	<update_rate>40</update_rate>
	<ray>
		<scan>
			<horizontal>
				<samples>15</samples>  
				<resolution>1</resolution>
				<min_angle>-0.267799</min_angle>     <!--15 graus--> 
				<max_angle>0.523599</max_angle>    <!--30 graus--> 
			</horizontal>
		</scan>
		<range>
			<min>0.10</min>
			<max>2.0</max>
			<resolution>0.01</resolution>
		</range>
		<noise>
			<type>gaussian</type>
			<mean>0.0</mean>
			<stddev>0.01</stddev>
		</noise>
	</ray>
	<plugin name="gazebo_ros_head_hokuyo_controller_left" filename="libgazebo_ros_laser.so">
		<topicName>laser5/scan</topicName>
		<frameName>hokuyo_link_left</frameName>
	</plugin>
</sensor>
</gazebo> 

<!-- Sensor velocidade -->
<gazebo>

<plugin name="differential_drive_controller" filename="libgazebo_ros_diff_drive.so">
	<legacyMode>false</legacyMode>
	<rosDebugLevel>na</rosDebugLevel>
	<publishWheelTF>false</publishWheelTF>
	<publishOdomTF>true</publishOdomTF>
	<publishWheelJointState>false</publishWheelJointState>
	<wheelAcceleration>0</wheelAcceleration>
	<wheelTorque>5</wheelTorque>
	<odometrySource>world</odometrySource>
	<publishTf>1</publishTf>
	<updateRate>20</updateRate>
	<leftJoint>left_wheel_joint</leftJoint>
	<rightJoint>right_wheel_joint</rightJoint>
	<wheelSeparation>0.4</wheelSeparation>
	<wheelDiameter>0.1</wheelDiameter>
	<torque>1</torque>
	<commandTopic>cmd_vel</commandTopic>
	<odometryTopic>odom</odometryTopic>
	<odometryFrame>odom</odometryFrame>
	<robotBaseFrame>chassis</robotBaseFrame>
</plugin>
</gazebo>

<!-- seguidor de linha ultrassonico-->
<link name="line_follower">
		<visual>
			<origin rpy="0 0 0" xyz="-0.160 0 -0.0618"/>
			<geometry>
				<mesh filename="package://description/meshes/sensor.stl"/>
			</geometry>
			 <material name="red">
		<color rgba="0.8 0.0 0.0 1"/>
	</material>
		</visual>
		<inertial>
			<mass value="0.010"/>
			<inertia ixx="0.0000035452" ixy="0" ixz="0" iyy="0.0000021077" iyz="0" izz="0.0000056042"/>
		</inertial>
	</link>
	<joint name="camera_joint" type="fixed">
		<origin rpy="0 0 0" xyz="0.114 0 0.0178"/>
		<parent link="chassis"/>
		<child link="line_follower"/>
	</joint>

	<gazebo reference="line_follower">
		<material>Gazebo/Red</material>
	</gazebo>



<!-- sensor_1 -->
<link name="line_follower_hokuyo_link1">
	<!--visual>
		<origin xyz="0 0 0" rpy="0 0 0" />
		<geometry>
			<box size="0.01 0.01 0.01"/>
		</geometry>
		<material name="red">
			<color rgba="0.8 0.0 0.0 1"/>
		</material>
	</visual-->
	<inertial>
		<mass value="0.015" />
		<inertia ixx="0.00000025" ixy="0" ixz="0" iyy="0.00000025" iyz="0" izz="0.00000025" />
	</inertial>
</link>

<joint name="line_follower_hokuyo_joint1" type="fixed">
	<origin xyz="0.089 -0.02875 -0.03" rpy="0 1.5708 0" />
	<parent link="chassis"/>
	<child link="line_follower_hokuyo_link1"/>
</joint>

<gazebo reference="line_follower_hokuyo_link1">
<material>Gazebo/Red</material>
<sensor type="ray" name="head_hokuyo_sensor_line_follower1">
	<pose>0 0 0 0 0 0</pose>
	<visualize>true</visualize>
	<update_rate>40</update_rate>
	<ray>
		<scan>
			<horizontal>
				<samples>5</samples>  
				<resolution>1</resolution>
				<min_angle>-0.174533</min_angle>    
				<max_angle>0.174533</max_angle> 
			</horizontal>
		</scan>
		<range>
			<min>0.001</min>
			<max>0.017335</max>
			<resolution>0.001</resolution>
		</range>
		<noise>
			<type>gaussian</type>
			<mean>0.0</mean>
			<stddev>0.01</stddev>
		</noise>
	</ray>
	<plugin name="gazebo_ros_head_hokuyo_controller_line_follower1" filename="libgazebo_ros_laser.so">
		<topicName>line_follower/sensor1</topicName>
		<frameName>line_follower_hokuyo_link1</frameName>
	</plugin>
</sensor>
</gazebo> 

<!-- sensor_2 -->
<link name="line_follower_hokuyo_link2">
	<!--visual>
		<origin xyz="0 0 0" rpy="0 0 0" />
		<geometry>
			<box size="0.01 0.01 0.01"/>
		</geometry>
		<material name="red">
			<color rgba="0.8 0.0 0.0 1"/>
		</material>
	</visual-->
	<inertial>
		<mass value="0.015" />
		<inertia ixx="0.00000025" ixy="0" ixz="0" iyy="0.00000025" iyz="0" izz="0.00000025" />
	</inertial>
</link>

<joint name="line_follower_hokuyo_joint2" type="fixed">
	<origin xyz="0.089 -0.01725 -0.03" rpy="0 1.5708 0" />
	<parent link="chassis"/>
	<child link="line_follower_hokuyo_link2"/>
</joint>

<gazebo reference="line_follower_hokuyo_link2">
<material>Gazebo/Red</material>
<sensor type="ray" name="head_hokuyo_sensor_line_follower2">
	<pose>0 0 0 0 0 0</pose>
	<visualize>true</visualize>
	<update_rate>40</update_rate>
	<ray>
		<scan>
			<horizontal>
				<samples>5</samples>  
				<resolution>1</resolution>
				<min_angle>-0.174533</min_angle>    
				<max_angle>0.174533</max_angle> 
			</horizontal>
		</scan>
		<range>
			<min>0.001</min>
			<max>0.017335</max>
			<resolution>0.001</resolution>
		</range>
		<noise>
			<type>gaussian</type>
			<mean>0.0</mean>
			<stddev>0.01</stddev>
		</noise>
	</ray>
	<plugin name="gazebo_ros_head_hokuyo_controller_line_follower2" filename="libgazebo_ros_laser.so">
		<topicName>line_follower/sensor2</topicName>
		<frameName>line_follower_hokuyo_link2</frameName>
	</plugin>
</sensor>
</gazebo> 

<!-- sensor_3 -->
<link name="line_follower_hokuyo_link3">
	<!--visual>
		<origin xyz="0 0 0" rpy="0 0 0" />
		<geometry>
			<box size="0.01 0.01 0.01"/>
		</geometry>
		<material name="red">
			<color rgba="0.8 0.0 0.0 1"/>
		</material>
	</visual-->
	<inertial>
		<mass value="0.015" />
		<inertia ixx="0.00000025" ixy="0" ixz="0" iyy="0.00000025" iyz="0" izz="0.00000025" />
	</inertial>
</link>

<joint name="line_follower_hokuyo_joint3" type="fixed">
	<origin xyz="0.089 -0.00575 -0.03" rpy="0 1.5708 0" />
	<parent link="chassis"/>
	<child link="line_follower_hokuyo_link3"/>
</joint>

<gazebo reference="line_follower_hokuyo_link3">
<material>Gazebo/Red</material>
<sensor type="ray" name="head_hokuyo_sensor_line_follower3">
	<pose>0 0 0 0 0 0</pose>
	<visualize>true</visualize>
	<update_rate>40</update_rate>
	<ray>
		<scan>
			<horizontal>
				<samples>5</samples>  
				<resolution>1</resolution>
				<min_angle>-0.174533</min_angle>    
				<max_angle>0.174533</max_angle> 
			</horizontal>
		</scan>
		<range>
			<min>0.001</min>
			<max>0.017335</max>
			<resolution>0.001</resolution>
		</range>
		<noise>
			<type>gaussian</type>
			<mean>0.0</mean>
			<stddev>0.01</stddev>
		</noise>
	</ray>
	<plugin name="gazebo_ros_head_hokuyo_controller_line_follower3" filename="libgazebo_ros_laser.so">
		<topicName>line_follower/sensor3</topicName>
		<frameName>line_follower_hokuyo_link3</frameName>
	</plugin>
</sensor>
</gazebo> 

<!-- sensor_4 -->
<link name="line_follower_hokuyo_link4">
	<!--visual>
		<origin xyz="0 0 0" rpy="0 0 0" />
		<geometry>
			<box size="0.01 0.01 0.01"/>
		</geometry>
		<material name="red">
			<color rgba="0.8 0.0 0.0 1"/>
		</material>
	</visual-->
	<inertial>
		<mass value="0.015" />
		<inertia ixx="0.00000025" ixy="0" ixz="0" iyy="0.00000025" iyz="0" izz="0.00000025" />
	</inertial>
</link>

<joint name="line_follower_hokuyo_joint4" type="fixed">
	<origin xyz="0.089 0.00575 -0.03" rpy="0 1.5708 0" />
	<parent link="chassis"/>
	<child link="line_follower_hokuyo_link4"/>
</joint>

<gazebo reference="line_follower_hokuyo_link4">
<material>Gazebo/Red</material>
<sensor type="ray" name="head_hokuyo_sensor_line_follower4">
	<pose>0 0 0 0 0 0</pose>
	<visualize>true</visualize>
	<update_rate>40</update_rate>
	<ray>
		<scan>
			<horizontal>
				<samples>5</samples>  
				<resolution>1</resolution>
				<min_angle>-0.174533</min_angle>    
				<max_angle>0.174533</max_angle> 
			</horizontal>
		</scan>
		<range>
			<min>0.001</min>
			<max>0.017335</max>
			<resolution>0.001</resolution>
		</range>
		<noise>
			<type>gaussian</type>
			<mean>0.0</mean>
			<stddev>0.01</stddev>
		</noise>
	</ray>
	<plugin name="gazebo_ros_head_hokuyo_controller_line_follower4" filename="libgazebo_ros_laser.so">
		<topicName>line_follower/sensor4</topicName>
		<frameName>line_follower_hokuyo_link4</frameName>
	</plugin>
</sensor>
</gazebo> 

<!-- sensor_5 -->
<link name="line_follower_hokuyo_link5">
	<!--visual>
		<origin xyz="0 0 0" rpy="0 0 0" />
		<geometry>
			<box size="0.01 0.01 0.01"/>
		</geometry>
		<material name="red">
			<color rgba="0.8 0.0 0.0 1"/>
		</material>
	</visual-->

	<inertial>
		<mass value="0.015" />
		<inertia ixx="0.00000025" ixy="0" ixz="0" iyy="0.00000025" iyz="0" izz="0.00000025" />
	</inertial>
</link>

<joint name="line_follower_hokuyo_joint5" type="fixed">
	<origin xyz="0.089 0.01725 -0.03" rpy="0 1.5708 0" />
	<parent link="chassis"/>
	<child link="line_follower_hokuyo_link5"/>
</joint>

<gazebo reference="line_follower_hokuyo_link5">
<material>Gazebo/Red</material>
<sensor type="ray" name="head_hokuyo_sensor_line_follower5">
	<pose>0 0 0 0 0 0</pose>
	<visualize>true</visualize>
	<update_rate>40</update_rate>
	<ray>
		<scan>
			<horizontal>
				<samples>5</samples>  
				<resolution>1</resolution>
				<min_angle>-0.174533</min_angle>    
				<max_angle>0.174533</max_angle> 
			</horizontal>
		</scan>
		<range>
			<min>0.001</min>
			<max>0.017335</max>
			<resolution>0.001</resolution>
		</range>
		<noise>
			<type>gaussian</type>
			<mean>0.0</mean>
			<stddev>0.01</stddev>
		</noise>
	</ray>
	<plugin name="gazebo_ros_head_hokuyo_controller_line_follower5" filename="libgazebo_ros_laser.so">
		<topicName>line_follower/sensor5</topicName>
		<frameName>line_follower_hokuyo_link5</frameName>
	</plugin>
</sensor>
</gazebo> 

<!-- sensor_6 -->
<link name="line_follower_hokuyo_link6">
	<!--visual>
		<origin xyz="0 0 0" rpy="0 0 0" />
		<geometry>
			<box size="0.01 0.01 0.01"/>
		</geometry>
		<material name="red">
			<color rgba="0.8 0.0 0.0 1"/>
		</material>
	</visual-->

	<inertial>
		<mass value="0.015" />
		<inertia ixx="0.00000025" ixy="0" ixz="0" iyy="0.00000025" iyz="0" izz="0.00000025" />
	</inertial>
</link>

<joint name="line_follower_hokuyo_joint6" type="fixed">
	<origin xyz="0.089 0.02875 -0.03" rpy="0 1.5708 0" />
	<parent link="chassis"/>
	<child link="line_follower_hokuyo_link6"/>
</joint>

<gazebo reference="line_follower_hokuyo_link6">
<material>Gazebo/Red</material>
<sensor type="ray" name="head_hokuyo_sensor_line_follower6">
	<pose>0 0 0 0 0 0</pose>
	<visualize>true</visualize>
	<update_rate>40</update_rate>
	<ray>
		<scan>
			<horizontal>
				<samples>5</samples>  
				<resolution>1</resolution>
				<min_angle>-0.174533</min_angle>    
				<max_angle>0.174533</max_angle> 
			</horizontal>
		</scan>
		<range>
			<min>0.001</min>
			<max>0.017335</max>
			<resolution>0.001</resolution>
		</range>
		<noise>
			<type>gaussian</type>
			<mean>0.0</mean>
			<stddev>0.01</stddev>
		</noise>
	</ray>
	<plugin name="gazebo_ros_head_hokuyo_controller_line_follower6" filename="libgazebo_ros_laser.so">
		<topicName>line_follower/sensor6</topicName>
		<frameName>line_follower_hokuyo_link6</frameName>
	</plugin>
</sensor>
</gazebo> 

</robot>
